﻿// EVENT 3491
Name "エスト"

PictureDisplay(5,"80_est_st01",0,0,0,0,100,100,0,0)
PictureMove(5,null,0,0,0,0,100,100,255,0,30,true)
241(bytes(0x04,0x08,0x6f,0x3a,0x0d,0x52,0x50,0x47,0x3a,0x3a,0x42,0x47,0x4d,0x08,0x3a,0x0a,0x40,0x6e,0x61,0x6d,0x65,0x49,0x22,0x09,0x65,0x72,0x6f,0x31,0x06,0x3a,0x06,0x45,0x54,0x3a,0x0c,0x40,0x76,0x6f,0x6c,0x75,0x6d,0x65,0x69,0x69,0x3a,0x0b,0x40,0x70,0x69,0x74,0x63,0x68,0x69,0x69))
ShowMessageFace("",0,0,2,1)
ShowMessage("\\n<Luka>")
ShowMessage("あぅぅぅ……")
ShowMessageFace("est_fc1",1,0,2,2)
ShowMessage("\\n<Est>")
ShowMessage("あら……もう終わりなの？")
ShowMessage("もっと、もっと愉しみましょう……")
ShowMessageFace("",0,0,2,3)
ShowMessage("エストは艶めかしく語りかけ、僕に身を寄せてきた。")
ShowMessage("温もりが密着し、思わず身を委ねそうになってしまう。")
ShowMessageFace("",0,0,2,4)
ShowMessage("\\n<Luka>")
ShowMessage("だ、だめ……！")
ShowMessageFace("est_fc1",1,0,2,5)
ShowMessage("\\n<Est>")
ShowMessage("終わりのない快楽の夢……見せてあげる♡")
ShowMessageFace("",0,0,2,6)
ShowMessage("\\n<Luka>")
ShowMessage("うぅっ……")
PictureDisplay(5,"ev_est_h1",0,0,0,0,100,100,0,0)
PictureMove(5,null,0,0,0,0,100,100,255,0,30,true)
ShowMessageFace("",0,0,2,7)
ShowMessage("そのまま、仰向けに押し倒されてしまった。")
ShowMessage("エストの豊満な体が、僕の上にのしかかってくる。")
ShowMessageFace("",0,0,2,8)
ShowMessage("その手は、大きくなった僕のモノに触れた。")
ShowMessage("そして、自らの秘所へと導いてくる――")
ShowMessageFace("",0,0,2,9)
ShowMessage("\\n<Luka>")
ShowMessage("や、やめろ……！")
ShowMessageFace("est_fc1",1,0,2,10)
ShowMessage("\\n<Est>")
ShowMessage("怖がる必要はないわよ。")
ShowMessage("快楽の夢に浸り、甘い幸福にとろけなさい……")
ShowMessageFace("",0,0,2,11)
ShowMessage("\\n<Luka>")
ShowMessage("あ……あぁぁぁっ！！")
ShowMessageFace("",0,0,2,12)
ShowMessage("そのまま、エストはゆっくりと腰を落とし――")
245(bytes(0x04,0x08,0x6f,0x3a,0x0d,0x52,0x50,0x47,0x3a,0x3a,0x42,0x47,0x53,0x08,0x3a,0x0a,0x40,0x6e,0x61,0x6d,0x65,0x49,0x22,0x1e,0x6d,0x6f,0x6e,0x5f,0x68,0x73,0x65,0x61,0x6e,0x30,0x35,0x5f,0x69,0x6e,0x6e,0x65,0x72,0x77,0x6f,0x72,0x6b,0x73,0x5f,0x61,0x35,0x06,0x3a,0x06,0x45,0x54,0x3a,0x0c,0x40,0x76,0x6f,0x6c,0x75,0x6d,0x65,0x69,0x55,0x3a,0x0b,0x40,0x70,0x69,0x74,0x63,0x68,0x69,0x69))
PictureDisplay(5,"ev_est_h2",0,0,0,0,100,100,255,0)
ShowMessageFace("",0,0,2,13)
ShowMessage("僕のモノが、エストの膣内へと沈み込んでしまう。")
ShowMessage("たちまちペニスは、甘い柔肉に優しく包み込まれた。")
ShowMessageFace("",0,0,2,14)
ShowMessage("とろけるような温もりと、小悪魔の悪戯のようなうねり。")
ShowMessage("内壁は甘く艶めかしく蠕動し、咥え込んだ肉棒を悦ばせる――")
ShowMessageFace("est_fc1",1,0,2,15)
ShowMessage("\\n<Est>")
ShowMessage("ふふふ。夢魔と交わるのは、どう……？")
ShowMessage("まるで天国のような心地でしょう♡")
ShowMessageFace("",0,0,2,16)
ShowMessage("\\n<Luka>")
ShowMessage("う……あ……")
ShowMessageFace("",0,0,2,17)
ShowMessage("まさに、魂までとろけそうなほど極上の快楽。")
ShowMessage("僕は悦びに圧倒されながら、短く声を漏らし――")
RunCommonEvent(104)
PictureDisplay(5,"ev_est_h3",0,0,0,0,100,100,255,0)
RunCommonEvent(105)
ShowMessageFace("",0,0,2,18)
ShowMessage("そして、あっけなく精を迸らせてしまった。")
ShowMessage("エストの温かい膣内に、ドクドクと精液が注ぎ込まれていく――")
ShowMessageFace("",0,0,2,19)
ShowMessage("\\n<Luka>")
ShowMessage("はぅぅぅっ……")
ShowMessageFace("est_fc1",1,0,2,20)
ShowMessage("\\n<Est>")
ShowMessage("ふふっ、もう果てたのね。")
ShowMessage("もう少し、長く抵抗すると思ったけれど……")
ShowMessageFace("",0,0,2,21)
ShowMessage("\\n<Luka>")
ShowMessage("あぅぅぅ……")
ShowMessageFace("",0,0,2,22)
ShowMessage("挿入した直後の、あまりにも早すぎる射精。")
ShowMessage("犯された瞬間、圧倒的な快楽に降参してしまったのだ。")
ShowMessageFace("",0,0,2,23)
ShowMessage("今も僕のモノは、どんな男もとろけさせる名器の中にある。")
ShowMessage("甘いぬくもりの中で、極上の快楽を与えられているのだ――")
ShowMessageFace("",0,0,2,24)
ShowMessage("\\n<Luka>")
ShowMessage("も、もう……離してぇ……")
ShowMessageFace("est_fc1",1,0,2,25)
ShowMessage("\\n<Est>")
ShowMessage("ダメよ……あなたはもう、夢から醒める事はないの。")
ShowMessage("アタシと一緒に、尽き果てない悦びを愉しみましょう。")
ShowMessageFace("",0,0,2,26)
ShowMessage("\\n<Luka>")
ShowMessage("そ、そんなぁ……")
ShowMessageFace("est_fc1",1,0,2,27)
ShowMessage("\\n<Est>")
ShowMessage("もっと可愛がってあげるわ……♡")
ShowMessage("さあ、その精をアタシに吸わせて……")
PictureDisplay(5,"ev_est_h4",0,0,0,0,100,100,255,0)
ShowMessageFace("",0,0,2,28)
ShowMessage("\\n<Luka>")
ShowMessage("あ……！　あぅぅぅっ……！")
ShowMessageFace("",0,0,2,29)
ShowMessage("エストの膣内が、きゅっと締まる。")
ShowMessage("柔肉がペニスに狂おしく密着し、吸い上げてくるような感触だ。")
ShowMessageFace("",0,0,2,30)
ShowMessage("同時に、脱力感にも似た感覚が股間に広がる。")
ShowMessage("甘く痺れるような快感に、腰がぶるぶると震えてしまった。")
ShowMessageFace("",0,0,2,31)
ShowMessage("\\n<Luka>")
ShowMessage("あ……あ、はぅぅぅ……")
ShowMessageFace("est_fc1",1,0,2,32)
ShowMessage("\\n<Est>")
ShowMessage("うふふっ、知っているでしょう？")
ShowMessage("サキュバスが、どうやって精を吸うのか……")
ShowMessageFace("",0,0,2,33)
ShowMessage("エナジードレイン――")
ShowMessage("サキュバスは、男との交わりを通じて精を貪る。")
ShowMessageFace("",0,0,2,34)
ShowMessage("そして今、僕も精を吸い取られていた。")
ShowMessage("エストの魔膣から、少しずつエナジーが奪われているのだ――")
ShowMessageFace("",0,0,2,35)
ShowMessage("\\n<Luka>")
ShowMessage("あぅっ……あ、あぁぁぁっ！！")
RunCommonEvent(104)
PictureDisplay(5,"ev_est_h5",0,0,0,0,100,100,255,0)
RunCommonEvent(105)
ShowMessageFace("",0,0,2,36)
ShowMessage("強烈な快感を味わいながら、あっという間に果てていた。")
ShowMessage("大量の精液が、ドクドクとエストの膣内に迸っていく。")
ShowMessageFace("est_fc1",1,0,2,37)
ShowMessage("\\n<Est>")
ShowMessage("ふふっ……また果てたわね。")
ShowMessage("もっと、もっと私を悦ばせて……")
ShowMessageFace("",0,0,2,38)
ShowMessage("\\n<Luka>")
ShowMessage("はぅぅぅぅ……")
ShowMessageFace("",0,0,2,39)
ShowMessage("エストはエナジードレインで精を吸い上げながら――")
ShowMessage("緩やかに腰をグラインドさせてきた。")
ShowMessageFace("",0,0,2,40)
ShowMessage("膣壁が艶めかしくうねりながら、僕のモノを扱きたてる。")
ShowMessage("同時に吸い付くような刺激が与えられ、快楽に圧倒された。")
ShowMessageFace("",0,0,2,41)
ShowMessage("それはまさに、最上のサキュバスが見せる快楽の夢。")
ShowMessage("僕はたちまち快楽に溺れ、その虜となってしまう――")
ShowMessageFace("",0,0,2,42)
ShowMessage("\\n<Luka>")
ShowMessage("あ……あぁぁぁぁ……")
RunCommonEvent(104)
PictureDisplay(5,"ev_est_h6",0,0,0,0,100,100,255,0)
RunCommonEvent(105)
ShowMessageFace("",0,0,2,43)
ShowMessage("吸い取られる――")
ShowMessage("というよりも、捧げるといった方が正しかった。")
ShowMessageFace("",0,0,2,44)
ShowMessage("エストの膣内で僕のモノは歓喜し、連続で射精する。")
ShowMessage("まるで快楽への返礼のように、どっぷりと精液を捧げていく――")
ShowMessageFace("",0,0,2,45)
ShowMessage("\\n<Luka>")
ShowMessage("はぅぅ……あ、あぁぁっ……")
ShowMessageFace("est_fc1",1,0,2,46)
ShowMessage("\\n<Est>")
ShowMessage("ふふっ、すっかり受け入れてしまったわね。")
ShowMessage("望み通り、永遠の快楽を愉しみなさい……")
ShowMessageFace("",0,0,2,47)
ShowMessage("\\n<Luka>")
ShowMessage("あぅぅぅぅっ……！")
ShowMessageFace("",0,0,2,48)
ShowMessage("膣内がぎゅっと締まり、そして内壁がいやらしくうねる。")
ShowMessage("まるで、肉棒全体をじっくり揉み解しているかのようだ。")
ShowMessageFace("",0,0,2,49)
ShowMessage("さらに、膣奥が艶めかしい吸い付き――")
ShowMessage("そして、吸精に伴う甘い痺れを味わい――")
ShowMessageFace("",0,0,2,50)
ShowMessage("\\n<Luka>")
ShowMessage("あ、あぁぁぁぁっ……！！")
RunCommonEvent(104)
RunCommonEvent(105)
ShowMessageFace("",0,0,2,51)
ShowMessage("とろけそうな快楽の中で、精液が溢れ続ける。")
ShowMessage("魔性の蜜壺に精が吸い上げられ、奪われていくのだ――")
ShowMessageFace("",0,0,2,52)
ShowMessage("\\n<Luka>")
ShowMessage("はぅ、あぅぅぅ……")
ShowMessageFace("est_fc1",1,0,2,53)
ShowMessage("\\n<Est>")
ShowMessage("どれだけ果てても、力尽きる事はないわ。")
ShowMessage("これが、夢魔の見せる甘い夢――")
ShowMessageFace("est_fc1",1,0,2,54)
ShowMessage("\\n<Est>")
ShowMessage("さあ、終わりのない悦びを愉しみましょう♡")
ShowMessage("永遠に、果てしなく……ずっと、ずっと……")
ShowMessageFace("",0,0,2,55)
ShowMessage("\\n<Luka>")
ShowMessage("はぅぅぅぅぅ……")
RunCommonEvent(104)
RunCommonEvent(105)
ShowMessageFace("",0,0,2,56)
ShowMessage("こうして僕は、エストと交わり続けた。")
ShowMessage("ひたすらに犯され、精を吸われ、精液を捧げる。")
ShowMessageFace("",0,0,2,57)
ShowMessage("その代償に味わう究極の快楽の虜となり――")
ShowMessage("そして、身も心も溺れていった。")
ShowMessageFace("est_fc1",1,0,2,58)
ShowMessage("\\n<Est>")
ShowMessage("もっと、もっと……")
ShowMessage("終わらない夢に溺れなさい……")
ShowMessageFace("",0,0,2,59)
ShowMessage("\\n<Luka>")
ShowMessage("あ、あぁぁぁ……")
RunCommonEvent(104)
RunCommonEvent(105)
ShowMessageFace("",0,0,2,60)
ShowMessage("これは現実か、それとも夢かさえ分からない。")
ShowMessage("ただ僕は、この永遠の快楽に身を捧げるのみだった――")
ShowMessageFace("est_fc1",1,0,2,61)
ShowMessage("\\n<Est>")
ShowMessage("ふふ……うふふふっ……♡")
ShowMessageFace("",0,0,2,62)
ShowMessage("\\n<Luka>")
ShowMessage("ぅ……ぁぁぁぁ……")
RunCommonEvent(104)
RunCommonEvent(105)
221()
PictureClear(5)
PictureClear(6)
246(2)
ShowMessageFace("",0,0,2,63)
ShowMessage("・・・・・・・・")
221()
242(1)
Wait(120)
ShowChoices(strings("難易度を変更する","輪廻に戻る"),2)
IfPlayerPicksChoice(0,null)
 ShowMessageFace("",0,0,2,64)
 ShowMessage("難易度を選択して下さい。")
 RunCommonEvent(110)
 0()
IfPlayerPicksChoice(1,null)
 0()
404()
RunCommonEvent(2999)
0()
