// EVENT 1002
Name "Talk: Bunny Slime"

If(1,20,0,1,0)
 JumpToLabel("情報")
 0()
EndIf()
If(1,20,0,2,0)
 JumpToLabel("質問")
 0()
EndIf()
If(1,20,0,3,0)
 JumpToLabel("要求")
 0()
EndIf()
If(1,20,0,4,0)
 JumpToLabel("贈与")
 0()
EndIf()
DefineLabel("情報")
ChangeVariable(13,13,0,2,1,100)
If(1,13,0,10,2)
 ShowMessageFace("bunnyslime_fc1",0,0,2,1)
 ShowMessage("\\n<Bunny Slime>I love carrots since I'm a rabbit!")
 EndEventProcessing()
 0()
EndIf()
If(1,13,0,20,2)
 ShowMessageFace("bunnyslime_fc1",2,0,2,2)
 ShowMessage("\\n<Bunny Slime>Hop hop...\nI'm not a liar...")
 EndEventProcessing()
 0()
EndIf()
If(1,13,0,30,2)
 ShowMessageFace("bunnyslime_fc1",0,0,2,3)
 ShowMessage("\\n<Bunny Slime>I'm different from the other slimes around here.\nI actually graduated from Slime School!")
 EndEventProcessing()
 0()
EndIf()
If(1,13,0,40,2)
 ShowMessageFace("bunnyslime_fc1",0,0,2,4)
 ShowMessage("\\n<Bunny Slime>The tower on the north of this continent is a den of slugs? What are they talking about?")
 EndEventProcessing()
 0()
EndIf()
If(1,13,0,50,2)
 ShowMessageFace("bunnyslime_fc1",0,0,2,5)
 ShowMessage("\\n<Bunny Slime>I want some carrots!")
 EndEventProcessing()
 0()
EndIf()
If(1,13,0,60,2)
 ShowMessageFace("bunnyslime_fc1",0,0,2,6)
 ShowMessage("\\n<Bunny Slime>Hoppity Hop ♪ Purupuru ♪\nWatch my bunny ears jiggle!")
 EndEventProcessing()
 0()
EndIf()
If(1,13,0,70,2)
 ShowMessageFace("bunnyslime_fc1",0,0,2,7)
 ShowMessage("\\n<Bunny Slime>I want to have soft fur! ♪")
 EndEventProcessing()
 0()
EndIf()
If(1,13,0,80,2)
 ShowMessageFace("bunnyslime_fc1",0,0,2,8)
 ShowMessage("\\n<Bunny Slime>I looove carrots! ♪\nBunnnny Girl! ♪")
 EndEventProcessing()
 0()
EndIf()
If(1,13,0,90,2)
 ShowMessageFace("bunnyslime_fc1",0,0,2,9)
 ShowMessage("\\n<Bunny Slime>I'm a beast-type slime...\nWait no, I'm just a regular beast monster.")
 ShowMessageFace("bunnyslime_fc1",3,0,2,10)
 ShowMessage("\\n<Bunny Slime>...I, I'm serious! You have to believe me!")
 EndEventProcessing()
 0()
EndIf()
If(1,13,0,100,2)
 ShowMessageFace("bunnyslime_fc1",0,0,2,11)
 ShowMessage("\\n<Bunny Slime>I steal carrots from the other slimes' fields. ♪\nI have to do it at night so they don't find out it's me. ♪")
 EndEventProcessing()
 0()
EndIf()
DefineLabel("質問")
ChangeVariable(13,13,0,2,1,50)
If(1,13,0,10,2)
 ShowMessageFace("bunnyslime_fc1",0,0,2,12)
 ShowMessage("\\n<Bunny Slime>Hop hop!")
 ShowChoices(strings("Hop hop!","......"),0)
 IfPlayerPicksChoice(0,"Hop hop!")
  ShowMessageFace("bunnyslime_fc1",0,0,2,13)
  ShowMessage("\\n<Bunny Slime>Hop hop hop!")
  355("change_friend(10)")
  0()
 IfPlayerPicksChoice(1,"......")
  ShowMessageFace("bunnyslime_fc1",2,0,2,14)
  ShowMessage("\\n<Bunny Slime>No greeting? What a lame human...")
  355("change_friend(-5)")
  0()
 404()
 EndEventProcessing()
 0()
EndIf()
If(1,13,0,20,2)
 ShowMessageFace("bunnyslime_fc1",0,0,2,15)
 ShowMessage("\\n<Bunny Slime>You don't think I'm just a slime with long ears, do you? I'm a rabbit in every respect, right?")
 ShowChoices(strings("You're just a long-eared slime","You're a rabbit"),0)
 IfPlayerPicksChoice(0,"You're just a long-eared slime")
  ShowMessageFace("bunnyslime_fc1",3,0,2,16)
  ShowMessage("\\n<Bunny Slime>I'm a rabbit! I'm a carrot-loving bunny girl!")
  355("change_friend(-5)")
  0()
 IfPlayerPicksChoice(1,"You're a rabbit")
  ShowMessageFace("bunnyslime_fc1",0,0,2,17)
  ShowMessage("\\n<Bunny Slime>Hop hop! ♪\nThat's exactly right! ♪")
  355("change_friend(10)")
  0()
 404()
 EndEventProcessing()
 0()
EndIf()
If(1,13,0,30,2)
 ShowMessageFace("bunnyslime_fc1",0,0,2,18)
 ShowMessage("\\n<Bunny Slime>I'm Queen Erubetie's trusted lieutenant and the next Slime Queen!")
 ShowChoices(strings("Cool!","Not likely"),0)
 IfPlayerPicksChoice(0,"Cool!")
  ShowMessageFace("bunnyslime_fc1",0,0,2,19)
  ShowMessage("\\n<Bunny Slime>Ehehehe...♪")
  355("change_friend(10)")
  0()
 IfPlayerPicksChoice(1,"Not likely")
  ShowMessageFace("bunnyslime_fc1",2,0,2,20)
  ShowMessage("\\n<Bunny Slime>I'm not lying...\nI'm not...")
  ShowMessageFace("bunnyslime_fc1",3,0,2,21)
  ShowMessage("\\n<Bunny Slime>*Cry*....")
  355("change_friend(-5)")
  0()
 404()
 EndEventProcessing()
 0()
EndIf()
If(1,13,0,40,2)
 ShowMessageFace("bunnyslime_fc1",0,0,2,22)
 ShowMessage("\\n<Bunny Slime>See how pink my body is?\nThat's from the flesh and blood of all the people I've eaten.")
 ShowChoices(strings("Scary!","Not likely"),0)
 IfPlayerPicksChoice(0,"Scary!")
  ShowMessageFace("bunnyslime_fc1",0,0,2,23)
  ShowMessage("\\n<Bunny Slime>Eheheh, I'm going to eat you too!")
  355("change_friend(10)")
  0()
 IfPlayerPicksChoice(1,"Not likely")
  ShowMessageFace("bunnyslime_fc1",2,0,2,24)
  ShowMessage("\\n<Bunny Slime>I'm not lying...\nI'm not...")
  ShowMessageFace("bunnyslime_fc1",3,0,2,25)
  ShowMessage("\\n<Bunny Slime>*Cry*....")
  355("change_friend(-5)")
  0()
 404()
 EndEventProcessing()
 0()
EndIf()
If(1,13,0,50,2)
 ShowMessageFace("bunnyslime_fc1",0,0,2,26)
 ShowMessage("\\n<Bunny Slime>I grow fluffy white fur in the winter, you know. That's because I'm a rabbit. ♪")
 ShowChoices(strings("Sounds warm","Not likely"),0)
 IfPlayerPicksChoice(0,"Sounds warm")
  ShowMessageFace("bunnyslime_fc1",0,0,2,27)
  ShowMessage("\\n<Bunny Slime>Eehehe, it is. ♪\nOnly in winter though, only in winter...")
  355("change_friend(10)")
  0()
 IfPlayerPicksChoice(1,"Not likely")
  ShowMessageFace("bunnyslime_fc1",2,0,2,28)
  ShowMessage("\\n<Bunny Slime>I'm not lying...\nI'm not...")
  ShowMessageFace("bunnyslime_fc1",3,0,2,29)
  ShowMessage("\\n<Bunny Slime>*Cry*....")
  355("change_friend(-5)")
  0()
 404()
 EndEventProcessing()
 0()
EndIf()
DefineLabel("要求")
ChangeVariable(13,13,0,2,1,30)
If(1,13,0,10,2)
 If(8,310)
  ShowMessageFace("bunnyslime_fc1",0,0,2,30)
  ShowMessage("\\n<Bunny Slime>Hey, can I have a carrot?")
  ChangeVariable(24,24,0,3,0,310,0)
  ShowMessageFace("",0,0,2,31)
  ShowMessage("Do you want to give a \\ii[310]? (Have:\\V[24])")
  ShowChoices(strings("Yes","No"),2)
  IfPlayerPicksChoice(0,"Yes")
   ShowMessageFace("bunnyslime_fc1",0,0,2,32)
   ShowMessage("\\n<Bunny Slime>Yay! *Munch* *munch* *munch*")
   ChangeInventory_Item(310,1,0,1)
   355("change_friend(20)")
   EndEventProcessing()
   0()
  IfPlayerPicksChoice(1,"No")
   ShowMessageFace("bunnyslime_fc1",2,0,2,33)
   ShowMessage("\\n<Bunny Slime>I love carrots though...")
   EndEventProcessing()
   0()
  404()
  0()
 Else()
  ChangeVariable(13,13,0,0,20)
  0()
 EndIf()
 0()
EndIf()
If(1,13,0,20,2)
 If(9,400,false)
  ShowMessageFace("bunnyslime_fc1",0,0,2,34)
  ShowMessage("\\n<Bunny Slime>Hey, can I borrow a club?\nI'm going to beat up those carrot-eating slugs.")
  ChangeVariable(24,24,0,3,1,400,0)
  ShowMessageFace("",0,0,2,35)
  ShowMessage("Do you want to give a \\iw[400]? (Have:\\V[24])")
  ShowChoices(strings("Yes","No"),2)
  IfPlayerPicksChoice(0,"Yes")
   ShowMessageFace("bunnyslime_fc1",0,0,2,36)
   ShowMessage("\\n<Bunny Slime>Ehehe...\nThose slug girls won't know what hit 'em...")
   ChangeInventoryWeapon(400,1,0,1,false)
   355("change_friend(30)")
   EndEventProcessing()
   0()
  IfPlayerPicksChoice(1,"No")
   ShowMessageFace("bunnyslime_fc1",2,0,2,37)
   ShowMessage("\\n<Bunny Slime>Oh well, I guess I'll just use a log...")
   EndEventProcessing()
   0()
  404()
  0()
 Else()
  ChangeVariable(13,13,0,0,30)
  0()
 EndIf()
 0()
EndIf()
If(1,13,0,30,2)
 ShowMessageFace("bunnyslime_fc1",0,0,2,38)
 ShowMessage("\\n<Bunny Slime>Hey, can I have some money?\nI want to buy carrots in the village.")
 If(7,9,0)
  ChangeVariable(24,24,0,3,7,2,0)
  ShowMessageFace("",0,0,2,39)
  ShowMessage("Do you want to give 9G? (Remaining: \\V[24])")
  ShowChoices(strings("Yes","No"),2)
  IfPlayerPicksChoice(0,"Yes")
   ShowMessageFace("bunnyslime_fc1",0,0,2,40)
   ShowMessage("\\n<Bunny Slime>Yay, I'm so happy!")
   125(1,0,9)
   355("change_friend(25)")
   EndEventProcessing()
   0()
  IfPlayerPicksChoice(1,"No")
   ShowMessageFace("bunnyslime_fc1",2,0,2,41)
   ShowMessage("\\n<Bunny Slime>Awww...")
   EndEventProcessing()
   0()
  404()
  ShowMessageFace("bunnyslime_fc1",2,0,2,42)
  ShowMessage("\\n<Bunny Slime>...Well, I wanted to, but you don't have any money.")
  0()
 Else()
  EndEventProcessing()
  0()
 EndIf()
 0()
EndIf()
DefineLabel("贈与")
ChangeVariable(13,13,0,2,1,30)
If(1,25,0,1,0)
 ChangeVariable(13,13,0,0,30)
 ChangeVariable(25,25,0,0,0)
 0()
EndIf()
If(1,25,0,2,0)
 ChangeVariable(13,13,0,2,1,20)
 ChangeVariable(25,25,0,0,0)
 0()
EndIf()
If(1,13,0,10,2)
 ShowMessageFace("bunnyslime_fc1",0,0,2,43)
 ShowMessage("\\n<Bunny Slime>Humans get hurt real easy, don't you?\nHere, have an herb! ♪")
 250(bytes(0x04,0x08,0x6f,0x3a,0x0c,0x52,0x50,0x47,0x3a,0x3a,0x53,0x45,0x08,0x3a,0x0a,0x40,0x6e,0x61,0x6d,0x65,0x49,0x22,0x0a,0x49,0x74,0x65,0x6d,0x31,0x06,0x3a,0x06,0x45,0x54,0x3a,0x0b,0x40,0x70,0x69,0x74,0x63,0x68,0x69,0x69,0x3a,0x0c,0x40,0x76,0x6f,0x6c,0x75,0x6d,0x65,0x69,0x55))
 ChangeInventory_Item(1,0,0,1)
 ShowMessageFace("",0,0,2,44)
 ShowMessage("The Bunny Slime gave you an \\ii[1]!")
 EndEventProcessing()
 0()
EndIf()
If(1,13,0,20,2)
 ShowMessageFace("bunnyslime_fc1",0,0,2,45)
 ShowMessage("\\n<Bunny Slime>Have some Soft Jelly! ♪\nPuru puru puru! ♪")
 250(bytes(0x04,0x08,0x6f,0x3a,0x0c,0x52,0x50,0x47,0x3a,0x3a,0x53,0x45,0x08,0x3a,0x0a,0x40,0x6e,0x61,0x6d,0x65,0x49,0x22,0x0a,0x49,0x74,0x65,0x6d,0x31,0x06,0x3a,0x06,0x45,0x54,0x3a,0x0b,0x40,0x70,0x69,0x74,0x63,0x68,0x69,0x69,0x3a,0x0c,0x40,0x76,0x6f,0x6c,0x75,0x6d,0x65,0x69,0x55))
 ChangeInventory_Item(160,0,0,1)
 ShowMessageFace("",0,0,2,46)
 ShowMessage("The Bunny Slime gave you some \\ii[160]!")
 EndEventProcessing()
 0()
EndIf()
If(1,13,0,30,2)
 ShowMessageFace("bunnyslime_fc1",0,0,2,47)
 ShowMessage("\\n<Bunny Slime>You're my friend so have some money! ♪")
 250(bytes(0x04,0x08,0x6f,0x3a,0x0c,0x52,0x50,0x47,0x3a,0x3a,0x53,0x45,0x08,0x3a,0x0a,0x40,0x6e,0x61,0x6d,0x65,0x49,0x22,0x0a,0x49,0x74,0x65,0x6d,0x31,0x06,0x3a,0x06,0x45,0x54,0x3a,0x0b,0x40,0x70,0x69,0x74,0x63,0x68,0x69,0x69,0x3a,0x0c,0x40,0x76,0x6f,0x6c,0x75,0x6d,0x65,0x69,0x55))
 125(0,0,15)
 ShowMessageFace("",0,0,2,48)
 ShowMessage("The Bunny Slime gave you 15G!")
 EndEventProcessing()
 0()
EndIf()
0()
