// EVENT 3023
Name "Orc Girl"

If(0,25,1)
 JumpToLabel("反省会")
 0()
EndIf()
PictureDisplay(5,"80_orc_st02",0,0,0,0,100,100,0,0)
PictureMove(5,null,0,0,0,0,100,100,255,0,30,true)
241(bytes(0x04,0x08,0x6f,0x3a,0x0d,0x52,0x50,0x47,0x3a,0x3a,0x42,0x47,0x4d,0x08,0x3a,0x0a,0x40,0x6e,0x61,0x6d,0x65,0x49,0x22,0x09,0x65,0x72,0x6f,0x31,0x06,0x3a,0x06,0x45,0x54,0x3a,0x0c,0x40,0x76,0x6f,0x6c,0x75,0x6d,0x65,0x69,0x69,0x3a,0x0b,0x40,0x70,0x69,0x74,0x63,0x68,0x69,0x69))
ShowMessageFace("",0,0,2,1)
ShowMessage("\\n<Luka>Unnngh...")
ShowMessageFace("orc_fc1",1,0,2,2)
ShowMessage("\\n<Orc Girl>Buhihi, you can't resist any more.\nYou know what happens now, don't you...?")
ShowMessageFace("orc_fc1",1,0,2,3)
ShowMessage("\\n<Orc Girl>I'm an orc, so obviously I'll rape you.\nAre you turned off that I'm a pig monster?")
ShowMessageFace("",0,0,2,4)
ShowMessage("\\n<Luka>N...no way... Stop...!")
ShowMessageFace("orc_fc1",1,0,2,5)
ShowMessage("\\n<Orc Girl>Buhihi, a piggish pussy is going to make you come.\nI'll squeeze out all of your semen with my pussy.")
ShowMessageFace("orc_fc1",1,0,2,6)
ShowMessage("\\n<Orc Girl>An Orc's pussy is amazing, so you probably won't last even a minute.\nIt's full of folds and creases that rub every inch of you...")
ShowMessageFace("",0,0,2,7)
ShowMessage("\\n<Luka>N-nooo...!")
ShowMessageFace("",0,0,2,8)
ShowMessage("Even though I'm trembling, I can't resist.")
ShowMessage("The Orc Girl forcibly pushes me to the ground.")
PictureDisplay(5,"ev_orc_h1",0,0,0,0,100,100,0,0)
PictureMove(5,null,0,0,0,0,100,100,255,0,30,true)
ShowMessageFace("",0,0,2,9)
ShowMessage("Both of her hands cling to my shoulders.")
ShowMessage("Her plump body and huge breasts press against me.")
ShowMessageFace("",0,0,2,10)
ShowMessage("I try to escape from her warm embrace, but...")
ShowMessage("Unable to draw enough strength, I just feebly struggle.")
ShowMessageFace("orc_fc1",1,0,2,11)
ShowMessage("\\n<Orc Girl>All right, time to violate you.\nEven if you cry out, that will just make me get even more aroused. ♪")
ShowMessageFace("",0,0,2,12)
ShowMessage("\\n<Luka>St-Stop...Ah...")
ShowMessageFace("",0,0,2,13)
ShowMessage("The Orc Girl's vagina presses against my already erect penis.")
ShowMessage("And with a slight push...")
245(bytes(0x04,0x08,0x6f,0x3a,0x0d,0x52,0x50,0x47,0x3a,0x3a,0x42,0x47,0x53,0x08,0x3a,0x0a,0x40,0x6e,0x61,0x6d,0x65,0x49,0x22,0x1e,0x6d,0x6f,0x6e,0x5f,0x68,0x73,0x65,0x61,0x6e,0x30,0x33,0x5f,0x69,0x6e,0x6e,0x65,0x72,0x77,0x6f,0x72,0x6b,0x73,0x5f,0x61,0x33,0x06,0x3a,0x06,0x45,0x54,0x3a,0x0c,0x40,0x76,0x6f,0x6c,0x75,0x6d,0x65,0x69,0x55,0x3a,0x0b,0x40,0x70,0x69,0x74,0x63,0x68,0x69,0x69))
PictureDisplay(5,"ev_orc_h2",0,0,0,0,100,100,255,0)
ShowMessageFace("",0,0,2,14)
ShowMessage("My penis is submerged in her warm insides.")
ShowMessageFace("",0,0,2,15)
ShowMessage("\\n<Luka>Ah, aaaah...! Am-Amazing...!")
ShowMessageFace("",0,0,2,16)
ShowMessage("I raise my voice in surprise at the amazing sensation.")
ShowMessage("As soon as she forced me in, my body is overwhelmed by the warm feeling.")
ShowMessageFace("",0,0,2,17)
ShowMessage("The folds inside of her vagina are in a spiral formation.")
ShowMessage("Every time I move deep inside, the tip of my glans rubs against her textured sides.")
ShowMessageFace("",0,0,2,18)
ShowMessage("\\n<Luka>Hauu...Ah, aaaah...!")
ShowMessageFace("orc_fc1",1,0,2,19)
ShowMessage("\\n<Orc Girl>Buhihi, how does a piggish pussy feel?\nIsn't the tightness and the spirals just the best?")
ShowMessageFace("",0,0,2,20)
ShowMessage("\\n<Luka>D-don't... That's...")
ShowMessageFace("",0,0,2,21)
ShowMessage("The Orc Girl's vagina begins to tighten around me.")
ShowMessage("I try to pull my waist back to escape the hellish pleasure.")
ShowMessageFace("",0,0,2,22)
ShowMessage("The spiral folds in her vagina push and pull at me as I pull backwards.")
ShowMessage("The tip of my penis is pulled back by the folds in her, sending a spark of pleasure down my spine.")
ShowMessageFace("",0,0,2,23)
ShowMessage("\\n<Luka>Ah, this is...!\nAaaah...!")
ShowMessageFace("",0,0,2,24)
ShowMessage("In the next moment, I feel a rising sensation in my waist.")
ShowMessage("My penis, trying to pull out from the Orc Girl, instead starts to pulse.")
RunCommonEvent(104)
RunCommonEvent(105)
ShowMessageFace("",0,0,2,25)
ShowMessage("Unable to escape from her vagina, I instead violently climax in her.")
ShowMessage("Instead of escaping, I just ended up coming...")
ShowMessageFace("",0,0,2,26)
ShowMessage("\\n<Luka>Nnngh...I came...")
ShowMessageFace("orc_fc1",1,0,2,27)
ShowMessage("\\n<Orc Girl>Ohh, ohh... What a shameful little boy.\nYou tried to pull out, but came instead?")
ShowMessageFace("orc_fc1",1,0,2,28)
ShowMessage("\\n<Orc Girl>But you still can't get away.\nBecause I still want to violate you more...")
PictureDisplay(5,"ev_orc_h3",0,0,0,0,100,100,255,0)
ShowMessageFace("",0,0,2,29)
ShowMessage("The Orc Girl presses me back down, and forces me back inside.")
ShowMessage("At the same time, she deeply kisses me.")
ShowMessageFace("",0,0,2,30)
ShowMessage("\\n<Luka>Nnnngg...!")
ShowMessageFace("orc_fc1",1,0,2,31)
ShowMessage("\\n<Orc Girl>I won't forgive bad little children who try to escape.\nI'll start moving my hips, and make you come over and over!")
ShowMessageFace("",0,0,2,32)
ShowMessage("\\n<Luka>Nnnnn!")
ShowMessageFace("",0,0,2,33)
ShowMessage("The Orc Girl starts to move back and forth, violently assaulting me.")
ShowMessage("My penis is being treated as no more than a toy inside her...")
ShowMessageFace("",0,0,2,34)
ShowMessage("The spiral folds force hellish pleasure into me.")
ShowMessage("Each time she moves back and forth, incredible stimulation assaults the tip of my penis.")
ShowMessageFace("",0,0,2,35)
ShowMessage("\\n<Luka>Nnnn!")
RunCommonEvent(104)
PictureDisplay(5,"ev_orc_h4",0,0,0,0,100,100,255,0)
RunCommonEvent(105)
ShowMessageFace("",0,0,2,36)
ShowMessage("My semen gushes out into the Orc Girl.")
ShowMessage("If she rapes me so violently, there's no way I could endure.")
ShowMessageFace("orc_fc1",1,0,2,37)
ShowMessage("\\n<Orc Girl>Even if you come, I won't stop at all.\nI won't stop raping you until you crumble into my sex slave.")
ShowMessageFace("",0,0,2,38)
ShowMessage("\\n<Luka>H-Help... Nng... Nnnn!")
ShowMessageFace("",0,0,2,39)
ShowMessage("She blocks me from screaming by kissing me deeper.")
ShowMessage("Her hot vagina tightens around me at the same time.")
ShowMessageFace("",0,0,2,40)
ShowMessage("\\n<Luka>St-Sto... Nnn...!")
ShowMessageFace("",0,0,2,41)
ShowMessage("My body trembles as her spiral folds rub against me.")
ShowMessage("I can't take this intense pleasure...")
RunCommonEvent(104)
PictureDisplay(5,"ev_orc_h5",0,0,0,0,100,100,255,0)
RunCommonEvent(105)
ShowMessageFace("",0,0,2,42)
ShowMessage("I'm lead to another simple ejaculation.")
ShowMessage("The Orc Girl's amazing pussy won't let me rest for a moment.")
ShowMessageFace("orc_fc1",1,0,2,43)
ShowMessage("\\n<Orc Girl>I'm getting a little tired, but...\nI still want to rape you hard!")
ShowMessageFace("",0,0,2,44)
ShowMessage("\\n<Luka>Nnng... Nnnn!")
ShowMessageFace("",0,0,2,45)
ShowMessage("The Orc Girl's waist continues to violently slam against me.")
ShowMessage("I'm overwhelmed by the intense violation.")
ShowMessageFace("orc_fc1",1,0,2,46)
ShowMessage("\\n<Orc Girl>Hora, hora...\nI'll make you come inside me again...!")
ShowMessageFace("",0,0,2,47)
ShowMessage("\\n<Luka>D-don't... Stop...")
ShowMessageFace("",0,0,2,48)
ShowMessage("Even if I try to cry out, she just blocks my voice with a kiss.")
ShowMessage("Her fierce thrusts continue without stopping for even a moment.")
ShowMessageFace("",0,0,2,49)
ShowMessage("In no time at all, my body goes numb as it nears another climax.")
ShowMessage("I can't withstand her for more than even a few seconds...")
RunCommonEvent(104)
PictureDisplay(5,"ev_orc_h6",0,0,0,0,100,100,255,0)
RunCommonEvent(105)
ShowMessageFace("",0,0,2,50)
ShowMessage("I'm not even sure how many times I've come inside her now.")
ShowMessage("The white proof of my defeat dribbles out of her opening.")
ShowMessageFace("",0,0,2,51)
ShowMessage("\\n<Luka>Nnn...Nnn...")
PictureDisplay(5,"ev_orc_h7",0,0,0,0,100,100,255,0)
246(2)
ShowMessageFace("orc_fc1",1,0,2,52)
ShowMessage("\\n<Orc Girl>Buha... It's overflowing.\nI'm a little tired too...")
ShowMessageFace("",0,0,2,53)
ShowMessage("At long last, the Orc Girl's violent assault stops.")
ShowMessage("With a flushed face, she releases my lips from hers.")
PictureDisplay(5,"ev_orc_h8",0,0,0,0,100,100,255,0)
ShowMessageFace("orc_fc1",1,0,2,54)
ShowMessage("\\n<Orc Girl>You gave me so much seed, so you belong to me now.\nI'll use you as a sex slave from now on.")
ShowMessageFace("",0,0,2,55)
ShowMessage("\\n<Luka>N...no way... Unnngh...")
ShowMessageFace("",0,0,2,56)
ShowMessage("The continuous ejaculations have left me totally exhausted.")
ShowMessage("No matter what happens, I can't resist any longer...")
ShowMessageFace("orc_fc1",1,0,2,57)
ShowMessage("\\n<Orc Girl>Guess I'll take you back to the Orc Village then.\nI won't ever let you get away... Buhihihi.")
ShowMessageFace("",0,0,2,58)
ShowMessage("Even as the Orc Girl smiles, I could only feel despair.")
ShowMessage("I'll be a sex slave in her village from now on...")
ShowMessageFace("",0,0,2,59)
ShowMessage("My every day is filled with endless gang rapes by the Orc Girls.")
ShowMessage("My adventure reaches a miserable end...")
221()
PictureClear(5)
DefineLabel("反省会")
ShowMessageFace("",0,0,2,60)
ShowMessage("......")
221()
242(1)
Wait(120)
355("memory_interruption")
ShowMessageFace("",0,0,2,61)
ShowMessage("You hear Ilias' voice calling out to you...")
ShowMessage("Receive her evaluation?")
ShowChoices(strings("Receive evaluation","Change difficulty","Reincarnate"),3)
IfPlayerPicksChoice(0,null)
 241(bytes(0x04,0x08,0x6f,0x3a,0x0d,0x52,0x50,0x47,0x3a,0x3a,0x42,0x47,0x4d,0x08,0x3a,0x0a,0x40,0x6e,0x61,0x6d,0x65,0x49,0x22,0x0a,0x69,0x72,0x69,0x61,0x73,0x06,0x3a,0x06,0x45,0x54,0x3a,0x0c,0x40,0x76,0x6f,0x6c,0x75,0x6d,0x65,0x69,0x5f,0x3a,0x0b,0x40,0x70,0x69,0x74,0x63,0x68,0x69,0x6e))
 PictureDisplay(1,"bg001",0,0,0,0,100,100,255,0)
 222()
 PictureDisplay(5,"80_iriasu_st02",0,0,0,0,100,100,0,0)
 PictureMove(5,null,0,0,0,0,100,100,255,0,30,true)
 ShowMessageFace("iriasu_fc1",1,0,2,62)
 ShowMessage("\\n<Ilias>The prey of an Orc Girl... Are you some princess knight?\nAre you going to plead 'K-kill me...' next?")
 PictureDisplay(5,"80_iriasu_st01",0,0,0,0,100,100,255,0)
 ShowMessageFace("iriasu_fc1",0,0,2,63)
 ShowMessage("\\n<Ilias>The Orc Girl is a highly offensive opponent.\nIf her powerful techniques hit you, it will be painful.")
 ShowMessageFace("iriasu_fc1",0,0,2,64)
 ShowMessage("\\n<Ilias>But since she's part of the Beast race, status effects are powerful.\nInflicting blind, for example, will be very effective.")
 ShowMessageFace("iriasu_fc1",0,0,2,65)
 ShowMessage("\\n<Ilias>She's also vulnerable to pleasure, so those work well.\nShe's difficult in an up front battle, but is fairly brittle.")
 PictureDisplay(5,"80_iriasu_st02",0,0,0,0,100,100,255,0)
 ShowMessageFace("iriasu_fc1",1,0,2,66)
 ShowMessage("\\n<Ilias>Now go, Princess Knight Luka.\nNobody will care if something like an Orc is removed from this world.")
 242(1)
 221()
 PictureClear(5)
 PictureClear(1)
 Wait(60)
 0()
IfPlayerPicksChoice(1,null)
 ShowMessageFace("",0,0,2,67)
 ShowMessage("Please choose a difficulty level.")
 RunCommonEvent(110)
 0()
IfPlayerPicksChoice(2,null)
 0()
404()
RunCommonEvent(3000)
0()
