﻿// EVENT 1295
Name "Talk: Lilith & Lilim"

If(1,20,0,1,0)
 JumpToLabel("情報")
 0()
EndIf()
If(1,20,0,2,0)
 JumpToLabel("質問")
 0()
EndIf()
If(1,20,0,3,0)
 JumpToLabel("要求")
 0()
EndIf()
If(1,20,0,4,0)
 JumpToLabel("贈与")
 0()
EndIf()
DefineLabel("情報")
ChangeVariable(13,13,0,2,1,100)
If(1,13,0,10,2)
 ShowMessageFace("lilith_fc1",0,0,2,1)
 ShowMessage("\\n<Lilith & Lilim>We'll have fun with you, ufufu...")
 EndEventProcessing()
 0()
EndIf()
If(1,13,0,20,2)
 ShowMessageFace("lilith_fc1",0,0,2,2)
 ShowMessage("\\n<Lilith & Lilim>We are sisters...ufufu...")
 EndEventProcessing()
 0()
EndIf()
If(1,13,0,30,2)
 ShowMessageFace("lilith_fc1",0,0,2,3)
 ShowMessage("\\n<Lilith & Lilim>We'll show you the best dreams...")
 EndEventProcessing()
 0()
EndIf()
If(1,13,0,40,2)
 ShowMessageFace("lilith_fc1",0,0,2,4)
 ShowMessage("\\n<Lilith & Lilim>We'll make you come over and over...")
 EndEventProcessing()
 0()
EndIf()
If(1,13,0,50,2)
 ShowMessageFace("lilith_fc1",0,0,2,5)
 ShowMessage("\\n<Lilith & Lilim>Together, the two of us are Queen Succubi...")
 EndEventProcessing()
 0()
EndIf()
If(1,13,0,60,2)
 ShowMessageFace("lilith_fc1",0,0,2,6)
 ShowMessage("\\n<Lilith & Lilim>Sandwiched between us, we'll make you slimy...\nIt will feel really good...")
 EndEventProcessing()
 0()
EndIf()
If(1,13,0,70,2)
 ShowMessageFace("lilith_fc1",0,0,2,7)
 ShowMessage("\\n<Lilith & Lilim>Black Alice is a wonderful lady...\nWe will follow her to the depths of Hell...")
 EndEventProcessing()
 0()
EndIf()
If(1,13,0,80,2)
 ShowMessageFace("lilith_fc1",0,0,2,8)
 ShowMessage("\\n<Lilith & Lilim>We caught everyone who claimed to be a hero, but... They were no big deal...")
 EndEventProcessing()
 0()
EndIf()
If(1,13,0,90,2)
 ShowMessageFace("lilith_fc1",0,0,2,9)
 ShowMessage("\\n<Lilith & Lilim>It's nice to attack the village...\nThe best food is the kind you catch...")
 EndEventProcessing()
 0()
EndIf()
If(1,13,0,100,2)
 ShowMessageFace("lilith_fc1",0,0,2,10)
 ShowMessage("\\n<Lilith & Lilim>We've agreed not to attack this village, but... Wouldn't it be nice if we could run wild for just a little bit...?")
 EndEventProcessing()
 0()
EndIf()
DefineLabel("質問")
ChangeVariable(13,13,0,2,1,50)
If(1,13,0,10,2)
 ShowMessageFace("lilith_fc1",0,0,2,11)
 ShowMessage("\\n<Lilith & Lilim>Where have you come from...?")
 ShowChoices(strings("Iliasville","A parallel world","The netherworld"),0)
 IfPlayerPicksChoice(0,"イリアスヴィル")
  ShowMessageFace("lilith_fc1",0,0,2,12)
  ShowMessage("\\n<Lilith & Lilim>Iliasville is such a boring place...")
  0()
 IfPlayerPicksChoice(1,"別の並行世界")
  ShowMessageFace("lilith_fc1",0,0,2,13)
  ShowMessage("\\n<Lilith & Lilim>Where's that... it sounds quite fascinating...")
  355("change_friend(10)")
  0()
 IfPlayerPicksChoice(2,"冥府")
  ShowMessageFace("lilith_fc1",0,0,2,14)
  ShowMessage("\\n<Lilith & Lilim>A messenger from the netherworld... Wonderful...")
  355("change_friend(10)")
  0()
 404()
 EndEventProcessing()
 0()
EndIf()
If(1,13,0,20,2)
 ShowMessageFace("lilith_fc1",0,0,2,15)
 ShowMessage("\\n<Lilith & Lilim>Which of us would you like to be squeezed by...?")
 ShowChoices(strings("Lilith","Lilim","I can't tell you apart"),0)
 IfPlayerPicksChoice(0,"リリス")
  ShowMessageFace("lilith_fc1",0,0,2,16)
  ShowMessage("\\n<Lilith>That makes me happy...I'll give you the finest pleasure...")
  355("change_friend(10)")
  0()
 IfPlayerPicksChoice(1,"リリム")
  ShowMessageFace("lilith_fc1",0,0,2,17)
  ShowMessage("\\n<Lilim>That makes me happy...I'll let you ascend slowly...")
  355("change_friend(10)")
  0()
 IfPlayerPicksChoice(2,"区別がつかない")
  ShowMessageFace("lilith_fc1",0,0,2,18)
  ShowMessage("\\n<Lilith & Lilim>How rude...do you really want to be dried up that badly...?")
  355("change_friend(-5)")
  0()
 404()
 EndEventProcessing()
 0()
EndIf()
If(1,13,0,30,2)
 ShowMessageFace("lilith_fc1",0,0,2,19)
 ShowMessage("\\n<Lilith & Lilim>The one with the larger breasts is Lilim. And Lilith...")
 ShowChoices(strings("Is the one with the smaller breasts","Is the one who isn't Lilim","Is the lascivious one"),0)
 IfPlayerPicksChoice(0,"胸の小さい方")
  ShowMessageFace("lilith_fc1",0,0,2,20)
  ShowMessage("\\n<Lilith>I wonder if humans are a delicacy...")
  355("change_friend(-5)")
  0()
 IfPlayerPicksChoice(1,"リリムじゃない方")
  ShowMessageFace("lilith_fc1",0,0,2,21)
  ShowMessage("\\n<Lilith>Yes, the one who is not Lilim is Lilith...\nYou understand well.")
  355("change_friend(10)")
  0()
 IfPlayerPicksChoice(2,"いやらしい方")
  ShowMessageFace("lilith_fc1",0,0,2,22)
  ShowMessage("\\n<Lilith & Lilim>Both of us are lascivious...")
  0()
 404()
 EndEventProcessing()
 0()
EndIf()
If(1,13,0,40,2)
 ShowMessageFace("lilith_fc1",0,0,2,23)
 ShowMessage("\\n<Lilith & Lilim>You are a hero who has his sights set on the Monster Lord's Castle... What do you plan to do once you meet Black Alice...?")
 ShowChoices(strings("Exterminate her","Make her my subordinate","Get squeezed by her"),0)
 IfPlayerPicksChoice(0,"退治する")
  ShowMessageFace("lilith_fc1",0,0,2,24)
  ShowMessage("\\n<Lilith & Lilim>We will not allow such a thing...\nYou will die here...")
  355("change_friend(-5)")
  0()
 IfPlayerPicksChoice(1,"配下にしてもらう")
  ShowMessageFace("lilith_fc1",0,0,2,25)
  ShowMessage("\\n<Lilith & Lilim>That is a very admirable endeavor...")
  355("change_friend(10)")
  0()
 IfPlayerPicksChoice(2,"搾ってもらう")
  ShowMessageFace("lilith_fc1",0,0,2,26)
  ShowMessage("\\n<Lilith & Lilim>Black Alice won't have to...\nWe will squeeze you to exhaustion here...")
  0()
 404()
 EndEventProcessing()
 0()
EndIf()
If(1,13,0,50,2)
 ShowMessageFace("lilith_fc1",0,0,2,27)
 ShowMessage("\\n<Lilith & Lilim>You look just like Heinrich...\nHow are you related to him?")
 ShowChoices(strings("I'm his descendant","I'm a relative","I am him"),0)
 IfPlayerPicksChoice(0,"子孫")
  ShowMessageFace("lilith_fc1",0,0,2,28)
  ShowMessage("\\n<Lilith & Lilim>Heinrich is not at the age that he would have descendants... Yet we can't say that is a lie...")
  355("change_friend(10)")
  0()
 IfPlayerPicksChoice(1,"親戚")
  ShowMessageFace("lilith_fc1",0,0,2,29)
  ShowMessage("\\n<Lilith & Lilim>Really...That seems reasonable.")
  0()
 IfPlayerPicksChoice(2,"本人")
  ShowMessageFace("lilith_fc1",0,0,2,30)
  ShowMessage("\\n<Lilith & Lilim>Don't lie to us...")
  355("change_friend(-5)")
  0()
 404()
 EndEventProcessing()
 0()
EndIf()
DefineLabel("要求")
ChangeVariable(13,13,0,2,1,30)
If(1,13,0,10,2)
 If(8,304)
  ShowMessageFace("lilith_fc1",0,0,2,31)
  ShowMessage("\\n<Lilith & Lilim>Would you please give us some cherries...?")
  ChangeVariable(24,24,0,3,0,304,0)
  ShowMessageFace("",0,0,2,32)
  ShowMessage("Do you want to give a \\ii[304]? (Have:\\V[24])")
  ShowChoices(strings("Yes","No"),2)
  IfPlayerPicksChoice(0,"Yes")
   ShowMessageFace("lilith_fc1",0,0,2,33)
   ShowMessage("\\n<Lilith & Lilim>Ufufufufufu...♪")
   ChangeInventory_Item(304,1,0,1)
   355("change_friend(20)")
   EndEventProcessing()
   0()
  IfPlayerPicksChoice(1,"No")
   ShowMessageFace("lilith_fc1",2,0,2,34)
   ShowMessage("\\n<Lilith & Lilim>That's mean...")
   EndEventProcessing()
   0()
  404()
  0()
 Else()
  ChangeVariable(13,13,0,0,20)
  0()
 EndIf()
 0()
EndIf()
If(1,13,0,20,2)
 If(8,23)
  ShowMessageFace("lilith_fc1",0,0,2,35)
  ShowMessage("\\n<Lilith & Lilim>Would you please give us a harpy feather...?")
  ChangeVariable(24,24,0,3,0,23,0)
  ShowMessageFace("",0,0,2,36)
  ShowMessage("Do you want to give a \\ii[23]? (Have:\\V[24])")
  ShowChoices(strings("Yes","No"),2)
  IfPlayerPicksChoice(0,"Yes")
   ShowMessageFace("lilith_fc1",0,0,2,37)
   ShowMessage("\\n<Lilith & Lilim>Ufufufufufu...♪")
   ChangeInventory_Item(23,1,0,1)
   355("change_friend(30)")
   EndEventProcessing()
   0()
  IfPlayerPicksChoice(1,"No")
   ShowMessageFace("lilith_fc1",2,0,2,38)
   ShowMessage("\\n<Lilith & Lilim>That's mean...")
   EndEventProcessing()
   0()
  404()
  0()
 Else()
  ChangeVariable(13,13,0,0,30)
  0()
 EndIf()
 0()
EndIf()
If(1,13,0,30,2)
 ShowMessageFace("lilith_fc1",0,0,2,39)
 ShowMessage("\\n<Lilith & Lilim>Would you please give us some money...?")
 If(7,2550,0)
  ChangeVariable(24,24,0,3,7,2,0)
  ShowMessageFace("",0,0,2,40)
  ShowMessage("Do you want to give 2550G? (Remaining:\\V[24])")
  ShowChoices(strings("Yes","No"),2)
  IfPlayerPicksChoice(0,"Yes")
   ShowMessageFace("lilith_fc1",0,0,2,41)
   ShowMessage("\\n<Lilith & Lilim>Ufufufufufu...♪")
   125(1,0,2550)
   355("change_friend(25)")
   EndEventProcessing()
   0()
  IfPlayerPicksChoice(1,"No")
   ShowMessageFace("lilith_fc1",2,0,2,42)
   ShowMessage("\\n<Lilith & Lilim>That's mean...")
   EndEventProcessing()
   0()
  404()
  0()
 Else()
  ShowMessageFace("lilith_fc1",2,0,2,43)
  ShowMessage("\\n<Lilith & Lilim>...You don't appear to have any money...")
  EndEventProcessing()
  0()
 EndIf()
 0()
EndIf()
DefineLabel("贈与")
ChangeVariable(13,13,0,2,1,30)
If(1,25,0,1,0)
 ChangeVariable(13,13,0,0,30)
 ChangeVariable(25,25,0,0,0)
 0()
EndIf()
If(1,25,0,2,0)
 ChangeVariable(13,13,0,2,1,20)
 ChangeVariable(25,25,0,0,0)
 0()
EndIf()
If(1,13,0,10,2)
 ShowMessageFace("lilith_fc1",0,0,2,44)
 ShowMessage("\\n<Lilith & Lilim>This is for naughty children...")
 250(bytes(0x04,0x08,0x6f,0x3a,0x0c,0x52,0x50,0x47,0x3a,0x3a,0x53,0x45,0x08,0x3a,0x0a,0x40,0x6e,0x61,0x6d,0x65,0x49,0x22,0x0a,0x49,0x74,0x65,0x6d,0x31,0x06,0x3a,0x06,0x45,0x54,0x3a,0x0b,0x40,0x70,0x69,0x74,0x63,0x68,0x69,0x69,0x3a,0x0c,0x40,0x76,0x6f,0x6c,0x75,0x6d,0x65,0x69,0x55))
 ChangeInventory_Item(21,0,0,1)
 ShowMessageFace("",0,0,2,45)
 ShowMessage("Lilith & Lilim gave you a \\ii[21]!")
 EndEventProcessing()
 0()
EndIf()
If(1,13,0,20,2)
 ShowMessageFace("lilith_fc1",0,0,2,46)
 ShowMessage("\\n<Lilith & Lilim>The tail of a succubus feels good...")
 250(bytes(0x04,0x08,0x6f,0x3a,0x0c,0x52,0x50,0x47,0x3a,0x3a,0x53,0x45,0x08,0x3a,0x0a,0x40,0x6e,0x61,0x6d,0x65,0x49,0x22,0x0a,0x49,0x74,0x65,0x6d,0x31,0x06,0x3a,0x06,0x45,0x54,0x3a,0x0b,0x40,0x70,0x69,0x74,0x63,0x68,0x69,0x69,0x3a,0x0c,0x40,0x76,0x6f,0x6c,0x75,0x6d,0x65,0x69,0x55))
 ChangeInventory_Item(222,0,0,1)
 ShowMessageFace("",0,0,2,47)
 ShowMessage("Lilith & Lilim gave you a \\ii[222]!")
 EndEventProcessing()
 0()
EndIf()
If(1,13,0,30,2)
 ShowMessageFace("lilith_fc1",0,0,2,48)
 ShowMessage("\\n<Lilith & Lilim>Enjoy yourself with this money...")
 250(bytes(0x04,0x08,0x6f,0x3a,0x0c,0x52,0x50,0x47,0x3a,0x3a,0x53,0x45,0x08,0x3a,0x0a,0x40,0x6e,0x61,0x6d,0x65,0x49,0x22,0x0a,0x49,0x74,0x65,0x6d,0x31,0x06,0x3a,0x06,0x45,0x54,0x3a,0x0b,0x40,0x70,0x69,0x74,0x63,0x68,0x69,0x69,0x3a,0x0c,0x40,0x76,0x6f,0x6c,0x75,0x6d,0x65,0x69,0x55))
 125(0,0,4250)
 ShowMessageFace("",0,0,2,49)
 ShowMessage("Lilith & Lilim gave you 4250G!")
 EndEventProcessing()
 0()
EndIf()
0()
