// EVENT 4087
Name "Slug Girl 2"

If(0,25,1)
 221()
 PictureClear(5)
 PictureClear(6)
 ShowMessageFace("",0,0,2,0)
 ShowMessage("......")
 242(2)
 Wait(120)
 241(bytes(0x04,0x08,0x6f,0x3a,0x0d,0x52,0x50,0x47,0x3a,0x3a,0x42,0x47,0x4d,0x08,0x3a,0x0a,0x40,0x6e,0x61,0x6d,0x65,0x49,0x22,0x0c,0x63,0x61,0x73,0x74,0x6c,0x65,0x36,0x06,0x3a,0x06,0x45,0x54,0x3a,0x0c,0x40,0x76,0x6f,0x6c,0x75,0x6d,0x65,0x69,0x69,0x3a,0x0b,0x40,0x70,0x69,0x74,0x63,0x68,0x69,0x69))
 EndEventProcessing()
 0()
EndIf()
241(bytes(0x04,0x08,0x6f,0x3a,0x0d,0x52,0x50,0x47,0x3a,0x3a,0x42,0x47,0x4d,0x08,0x3a,0x0a,0x40,0x6e,0x61,0x6d,0x65,0x49,0x22,0x09,0x65,0x72,0x6f,0x31,0x06,0x3a,0x06,0x45,0x54,0x3a,0x0c,0x40,0x76,0x6f,0x6c,0x75,0x6d,0x65,0x69,0x69,0x3a,0x0b,0x40,0x70,0x69,0x74,0x63,0x68,0x69,0x69))
PictureDisplay(5,"ev_name_ct01",0,0,0,0,100,100,0,0)
PictureMove(5,null,0,0,0,0,100,100,255,0,30,true)
ShowMessageFace("name_fc1",0,0,2,1)
ShowMessage("\\n<Melk>You want me to make you come with my tongue?")
ShowMessageFace("",0,0,2,2)
ShowMessage("Melk opens her mouth and shows off her tongue. It stretches")
ShowMessage("out, tantalizing me with sticky liquid dripping off the end.")
ShowMessageFace("",0,0,2,3)
ShowMessage("I immediately get hard just imagining what it would feel like")
ShowMessage("to have that tongue wrap around my penis.")
ShowMessageFace("",0,0,2,4)
ShowMessage("\\n<Luka>P-please... I want you to lick me...")
ShowMessageFace("name_fc1",0,0,2,5)
ShowMessage("\\n<Melk>All right, we're companions, after all.\nI'll give you all the licking you desire...")
250(bytes(0x04,0x08,0x6f,0x3a,0x0c,0x52,0x50,0x47,0x3a,0x3a,0x53,0x45,0x08,0x3a,0x0a,0x40,0x6e,0x61,0x6d,0x65,0x49,0x22,0x12,0x6d,0x6f,0x6e,0x5f,0x65,0x72,0x6f,0x5f,0x6e,0x61,0x6d,0x65,0x32,0x06,0x3a,0x06,0x45,0x54,0x3a,0x0b,0x40,0x70,0x69,0x74,0x63,0x68,0x69,0x69,0x3a,0x0c,0x40,0x76,0x6f,0x6c,0x75,0x6d,0x65,0x69,0x69))
PictureDisplay(5,"ev_name_hb01",0,0,0,0,100,100,0,0)
PictureMove(5,null,0,0,0,0,100,100,255,0,30,true)
ShowMessageFace("",0,0,2,6)
ShowMessage("Melk pushes me to the floor and settles down on top of me.")
ShowMessage("Her slick lower half puts a gentle pressure on my body and")
ShowMessage("covers me in slime.")
ShowMessageFace("name_fc1",0,0,2,7)
ShowMessage("\\n<Melk>Pardon me for being on top, but this makes it\neasier to lick you.")
ShowMessageFace("name_fc1",0,0,2,8)
ShowMessage("\\n<Melk>Mmmn... Pch...")
ShowMessageFace("",0,0,2,9)
ShowMessage("Melk leans over and plants a kiss on my glans. The sticky")
ShowMessage("sensation on the end of my penis makes my waist tremble.")
ShowMessageFace("",0,0,2,10)
ShowMessage("\\n<Luka>Nnngh...")
ShowMessageFace("name_fc1",0,0,2,11)
ShowMessage("\\n<Melk>All I did was kiss your tip. Did it really feel\nthat good? Let's get started for real then...")
245(bytes(0x04,0x08,0x6f,0x3a,0x0d,0x52,0x50,0x47,0x3a,0x3a,0x42,0x47,0x53,0x08,0x3a,0x0a,0x40,0x6e,0x61,0x6d,0x65,0x49,0x22,0x10,0x6d,0x6f,0x6e,0x5f,0x68,0x76,0x6f,0x69,0x63,0x65,0x34,0x06,0x3a,0x06,0x45,0x54,0x3a,0x0c,0x40,0x76,0x6f,0x6c,0x75,0x6d,0x65,0x69,0x55,0x3a,0x0b,0x40,0x70,0x69,0x74,0x63,0x68,0x69,0x69))
PictureDisplay(5,"ev_name_hb06",0,0,0,0,100,100,255,0)
ShowMessageFace("",0,0,2,12)
ShowMessage("Inside of her mouth, I can feel her mucus-soaked tongue")
ShowMessage("crawling around as if it were a slug with a mind of its own.")
ShowMessageFace("",0,0,2,13)
ShowMessage("As her tongue slowly encircles my glans, it feels like what I")
ShowMessage("imagine a slug wrapping itself around my body would be like.")
ShowMessageFace("name_fc1",0,0,2,14)
ShowMessage("\\n<Melk>Mmn... Sspsst...")
ShowMessageFace("",0,0,2,15)
ShowMessage("\\n<Luka>Haa... aaaah!")
ShowMessageFace("",0,0,2,16)
ShowMessage("With her slimy tongue coiling around the sensitive end of my")
ShowMessage("penis, viscous saliva slowly makes its way down the shaft.")
ShowMessageFace("",0,0,2,17)
ShowMessage("Her tongue goes around and around my glans, each time inching")
ShowMessage("slightly lower. Once it reaches the underside of the head, I")
ShowMessage("shiver from the unique sensation of its rough, bumpy texture.")
PictureDisplay(5,"ev_name_hb07",0,0,0,0,100,100,255,0)
ShowMessageFace("name_fc1",0,0,2,18)
ShowMessage("\\n<Melk>Your cock is delicious...\nHammngh, ssspst...")
ShowMessageFace("",0,0,2,19)
ShowMessage("\\n<Luka>Ah, aaaah!!")
ShowMessageFace("",0,0,2,20)
ShowMessage("From underneath Melk's body, my waist quivers as her tongue")
ShowMessage("begins quickly working on my head.")
ShowMessageFace("",0,0,2,21)
ShowMessage("The slimy feeling spreads across my glans and soaks into my")
ShowMessage("skin. I try to hold on as I savor the rapid, persistent licks")
ShowMessage("of her tongue...")
ShowMessageFace("",0,0,2,22)
ShowMessage("\\n<Luka>Haaa... aaah...")
ShowMessageFace("",0,0,2,23)
ShowMessage("Suddenly, my vision turns pure white. I'm overcome with the")
ShowMessage("feeling of imminent release, and my penis begins to pulse.")
ShowMessageFace("name_fc1",0,0,2,24)
ShowMessage("\\n<Melk>Ah, not yet...")
246(1)
RunCommonEvent(104)
PictureDisplay(5,"ev_name_hb08",0,0,0,0,100,100,255,0)
RunCommonEvent(105)
ShowMessageFace("",0,0,2,25)
ShowMessage("\\n<Luka>Auuu...")
ShowMessageFace("",0,0,2,26)
ShowMessage("An instant later, I shower Melk in my semen, painting not")
ShowMessage("just her face, but her hat white too.")
ShowMessageFace("name_fc1",0,0,2,27)
ShowMessage("\\n<Melk>You couldn't hold it any longer? That's not very\ngentlemanly...")
ShowMessageFace("",0,0,2,28)
ShowMessage("\\n<Luka>I, I'm sorry...")
ShowMessageFace("",0,0,2,29)
ShowMessage("I blew my load the second she got serious. Feeling completely")
ShowMessage("humiliated, the strength drains from my body.")
ShowMessageFace("name_fc1",0,0,2,30)
ShowMessage("\\n<Melk>This time tell me before you come. I'll make sure\nyou ejaculate with my tongue finisher...")
245(bytes(0x04,0x08,0x6f,0x3a,0x0d,0x52,0x50,0x47,0x3a,0x3a,0x42,0x47,0x53,0x08,0x3a,0x0a,0x40,0x6e,0x61,0x6d,0x65,0x49,0x22,0x10,0x6d,0x6f,0x6e,0x5f,0x68,0x76,0x6f,0x69,0x63,0x65,0x34,0x06,0x3a,0x06,0x45,0x54,0x3a,0x0c,0x40,0x76,0x6f,0x6c,0x75,0x6d,0x65,0x69,0x55,0x3a,0x0b,0x40,0x70,0x69,0x74,0x63,0x68,0x69,0x69))
PictureDisplay(5,"ev_name_hb09",0,0,0,0,100,100,255,0)
ShowMessageFace("name_fc1",0,0,2,31)
ShowMessage("\\n<Melk>Mmmn... Sspsst...\nPch, mmmchp...")
ShowMessageFace("",0,0,2,32)
ShowMessage("\\n<Luka>Ah, aaah!")
ShowMessageFace("",0,0,2,33)
ShowMessage("Melk twines her tongue around my glans, still sensitive after")
ShowMessage("just coming. It seems as though she's going to make me come")
ShowMessage("again.")
ShowMessageFace("",0,0,2,34)
ShowMessage("Wrapped around my tip, her tongue quickly circles around and")
ShowMessage("around, pressing into the crevices under my head and rubbing")
ShowMessage("its mucous membranes against my glans.")
ShowMessageFace("name_fc1",0,0,2,35)
ShowMessage("\\n<Melk>*Slurp* *Slurp* Mmmmpch...\nSsspst,spppst...")
ShowMessageFace("",0,0,2,36)
ShowMessage("\\n<Luka>Haaa, that's so good...")
ShowMessageFace("",0,0,2,37)
ShowMessage("As she focuses on every inch of my glans, I savor each lick.")
ShowMessage("Her viscous, mucus-like saliva continues to make the end of")
ShowMessage("my penis slimier and slimier.")
ShowMessageFace("",0,0,2,38)
ShowMessage("Unlike the first time where I came almost instantly, now I'm")
ShowMessage("able to fully enjoy Melk's sweet technique.")
ShowMessageFace("name_fc1",0,0,2,39)
ShowMessage("\\n<Melk>*Suck* *Suck* *Slurp*\nMmmmngh, ssspsspt...")
ShowMessageFace("",0,0,2,40)
ShowMessage("\\n<Luka>Haaa... That's amazing... Ah, aaah!")
ShowMessageFace("",0,0,2,41)
ShowMessage("Nevertheless, I'm not able to resist this much pleasure for")
ShowMessage("long. After a few more circles around my head, my male")
ShowMessage("instincts begin to take over.")
ShowMessageFace("",0,0,2,42)
ShowMessage("The feeling of release builds up from within my body, my legs")
ShowMessage("start to tremble, and I realize there's no turning back.")
ShowMessageFace("",0,0,2,43)
ShowMessage("\\n<Luka>Ahhhh... About... to come...")
ShowMessageFace("",0,0,2,44)
ShowMessage("I warn Melk of my impending ejaculation, but only because")
ShowMessage("I don't want to miss out on her promised finisher.")
ShowMessageFace("name_fc1",0,0,2,45)
ShowMessage("\\n<Melk>Already? But you just came...\nAll right, I'll finish you off then.")
ShowMessageFace("name_fc1",0,0,2,46)
ShowMessage("\\n<Melk>Mmn... Ssspst, mmmmchp...\nSsssspssspsst...")
ShowMessageFace("",0,0,2,47)
ShowMessage("Her tongue winds itself underneath my corona and clamps down")
ShowMessage("tight, the slimy mucous membranes applying a stimulating")
ShowMessage("pressure from all sides.")
ShowMessageFace("",0,0,2,48)
ShowMessage("\\n<Luka>Aaaah... Huaaaa!")
ShowMessageFace("",0,0,2,49)
ShowMessage("While licking the glans, her tongue squeezes my corona. It's")
ShowMessage("too much to handle. I close my eyes as I hit my limit while bright lights flash in my head.")
ShowMessageFace("name_fc1",0,0,2,50)
ShowMessage("\\n<Melk>Sspst... Feels good, doesn't it?\nHora, let it all out...")
ShowMessageFace("",0,0,2,51)
ShowMessage("\\n<Luka>Ah... aaaah!")
RunCommonEvent(104)
PictureDisplay(5,"ev_name_hb10",0,0,0,0,100,100,255,0)
RunCommonEvent(105)
ShowMessageFace("",0,0,2,52)
ShowMessage("I surrendered to the pleasure of her finisher and shot out my")
ShowMessage("semen. While wrapped in her slimy tongue, I bask in ecstasy")
ShowMessage("with each pulse of my penis.")
ShowMessageFace("",0,0,2,53)
ShowMessage("Large amounts of semen scatter everywhere, getting all over")
ShowMessage("Melk's face and hat. The slug girl diligently licks it off,")
ShowMessage("not wanting to waste a single drop of my sticky cloudiness.")
246(1)
ShowMessageFace("name_fc1",0,0,2,54)
ShowMessage("\\n<Melk>Mmmsspst... Did you enjoy that? Look at how much\nyou got all over me. What a bad boy...")
ShowMessageFace("",0,0,2,55)
ShowMessage("\\n<Luka>Hauuu...")
ShowMessageFace("",0,0,2,56)
ShowMessage("From underneath Melk's body, I feel all my strength drain")
ShowMessage("away. If I wasn't already, I'm now a complete slave to her")
ShowMessage("sweet tongue.")
ShowMessageFace("name_fc1",0,0,2,57)
ShowMessage("\\n<Melk>If you want me to stop licking your penis, just\nsay so. More than your other companions, I want\nto make you feel good...")
ShowMessageFace("",0,0,2,58)
ShowMessage("\\n<Luka>Y-yeah...")
ShowMessageFace("",0,0,2,59)
ShowMessage("Satisfied with Melk's skilled tongue moves, all I can do is")
ShowMessage("nod my head and mumble in response.")
221()
PictureClear(5)
PictureClear(6)
246(2)
ShowMessageFace("",0,0,2,60)
ShowMessage("......")
242(2)
Wait(120)
241(bytes(0x04,0x08,0x6f,0x3a,0x0d,0x52,0x50,0x47,0x3a,0x3a,0x42,0x47,0x4d,0x08,0x3a,0x0a,0x40,0x6e,0x61,0x6d,0x65,0x49,0x22,0x0c,0x63,0x61,0x73,0x74,0x6c,0x65,0x36,0x06,0x3a,0x06,0x45,0x54,0x3a,0x0c,0x40,0x76,0x6f,0x6c,0x75,0x6d,0x65,0x69,0x69,0x3a,0x0b,0x40,0x70,0x69,0x74,0x63,0x68,0x69,0x69))
0()

