// EVENT 2096
Name "Seduction: Minotauros"

If(0,25,1)
 EndEventProcessing()
 0()
EndIf()
355("$game_troop.lose_event_id = 3096")
ChangeVariable(26,26,0,3,3,1,4)
ChangeVariable(26,26,4,0,10)
ShowMessageFace("mino_fc1",2,0,2,1)
ShowMessage("\\n<Minotauros>Oi, oi, am I being pushed here?\nIn that case, it's time to use some force!")
ShowMessageFace("",0,0,2,2)
ShowMessage("Minotauros pushes Luka down!")
ShowMessage("Luka has been bound by Minotauros!")
ShowMessageFace("mino_fc1",0,0,2,3)
ShowMessage("\\n<Minotauros>I'll violate you with all my strength.\nIt's insanely tight inside me, so prepare yourself!")
ChangeSwitch(98,98,0)
ChangeSwitch(96,96,0)
ShowChoices(strings("Struggle","Let her continue"),1)
IfPlayerPicksChoice(0,"もがく")
 ShowMessageFace("",0,0,2,4)
 ShowMessage("Luka struggles and breaks free!")
 RunCommonEvent(1999)
 EndEventProcessing()
 0()
IfPlayerPicksChoice(1,"なすがまま")
 0()
404()
ShowMessageFace("mino_fc1",0,0,2,5)
ShowMessage("\\n<Minotauros>Are you ready?\nThen here I go!")
ChangeVariable(26,26,3,0,5)
250(bytes(0x04,0x08,0x6f,0x3a,0x0c,0x52,0x50,0x47,0x3a,0x3a,0x53,0x45,0x08,0x3a,0x0a,0x40,0x6e,0x61,0x6d,0x65,0x49,0x22,0x11,0x6d,0x6f,0x6e,0x5f,0x65,0x72,0x6f,0x5f,0x70,0x79,0x75,0x31,0x06,0x3a,0x06,0x45,0x54,0x3a,0x0b,0x40,0x70,0x69,0x74,0x63,0x68,0x69,0x69,0x3a,0x0c,0x40,0x76,0x6f,0x6c,0x75,0x6d,0x65,0x69,0x69))
PictureDisplay(6,"ev_mino_ct11",0,0,0,0,100,100,255,0)
311(0,1,1,1,26,true)
ShowMessageFace("",0,0,2,6)
ShowMessage("Minotauros sinks down onto Luka!")
ShowMessage("Luka's penis presses deep inside her!\\D")
ShowMessage("Luka takes \\V[26] damage!")
ChangeVariable(27,27,0,3,3,1,2)
If(1,27,0,0,0)
 JumpToLabel("射精1")
 0()
EndIf()
ShowMessageFace("",0,0,2,7)
ShowMessage("\\n<Luka>Hyaaa...!!")
ShowMessageFace("",0,0,2,8)
ShowMessage("She's so hot and tight, I can't help but moan.")
ShowMessage("It's so tight, her walls press down on me from every side.")
ShowMessageFace("",0,0,2,9)
ShowMessage("It's as if a strong hand is grasping me inside her.")
ShowChoices(strings("Struggle","Let her continue"),1)
IfPlayerPicksChoice(0,"もがく")
 ShowMessageFace("",0,0,2,10)
 ShowMessage("Luka struggles hard... But can't break free of her strong pin!")
 ShowMessageFace("mino_fc1",0,0,2,11)
 ShowMessage("\\n<Minotauros>Haha, it's no use!\nHora... Now come!")
 0()
IfPlayerPicksChoice(1,"なすがまま")
 ShowMessageFace("",0,0,2,12)
 ShowMessage("Luka surrenders to the pleasure...")
 ShowMessageFace("mino_fc1",0,0,2,13)
 ShowMessage("\\n<Minotauros>Oi, oi, losing your will?\nThen let me make you come quickly!")
 0()
404()
250(bytes(0x04,0x08,0x6f,0x3a,0x0c,0x52,0x50,0x47,0x3a,0x3a,0x53,0x45,0x08,0x3a,0x0a,0x40,0x6e,0x61,0x6d,0x65,0x49,0x22,0x13,0x6d,0x6f,0x6e,0x5f,0x65,0x72,0x6f,0x5f,0x63,0x68,0x75,0x70,0x61,0x35,0x06,0x3a,0x06,0x45,0x54,0x3a,0x0b,0x40,0x70,0x69,0x74,0x63,0x68,0x69,0x69,0x3a,0x0c,0x40,0x76,0x6f,0x6c,0x75,0x6d,0x65,0x69,0x69))
311(0,1,1,1,26,true)
ShowMessageFace("",0,0,2,14)
ShowMessage("Minotauros roughly shakes her waist!")
ShowMessage("Her tight vagina clamps hard on Luka's penis as she violates him!\\D")
ShowMessage("Luka takes \\V[26] damage!")
ChangeVariable(27,27,0,3,3,1,2)
If(1,27,0,0,0)
 JumpToLabel("射精2")
 0()
EndIf()
DefineLabel("射精1")
ShowMessageFace("",0,0,2,15)
ShowMessage("\\n<Luka>I-it's so tight... Aaaah...!")
RunCommonEvent(104)
PictureDisplay(6,"ev_mino_ct12",0,0,0,0,100,100,255,0)
RunCommonEvent(105)
ShowMessageFace("",0,0,2,16)
ShowMessage("I was met by intense tightness as soon as I'm inside her.")
ShowMessage("No more than five seconds, and I've already come inside her...")
ShowMessageFace("mino_fc1",1,0,2,17)
ShowMessage("\\n<Minotauros>Oi, oi, that's way too pitiful.\nYou came as soon as you put it in?")
ShowMessageFace("",0,0,2,18)
ShowMessage("Minotauros rises up, pulling my penis out of her.")
ShowMessage("My semen drips down from her vagina.")
RunCommonEvent(2000)
EndEventProcessing()
DefineLabel("射精2")
ShowMessageFace("",0,0,2,19)
ShowMessage("\\n<Luka>Ah... Aaaah...!!")
RunCommonEvent(104)
PictureDisplay(6,"ev_mino_ct12",0,0,0,0,100,100,255,0)
RunCommonEvent(105)
ShowMessageFace("",0,0,2,20)
ShowMessage("Her tight vagina sends me over the edge.")
ShowMessage("Unable to take it, my semen shoots out into her.")
ShowMessageFace("mino_fc1",1,0,2,21)
ShowMessage("\\n<Minotauros>Ahaha, you're coming inside.\nMy tight pussy is great, isn't it?")
ShowMessageFace("",0,0,2,22)
ShowMessage("Minotauros rises up, pulling my penis out of her.")
ShowMessage("My semen drips down from her vagina.")
RunCommonEvent(2000)
EndEventProcessing()
0()
