// EVENT 7012
Name "Eri: Match"

ShowMessageFace("mob_murabito1_fc1",0,0,2,1)
ShowMessage("\\n<Eri>Well then, shall we begin? I'll suck you off with this mouth of mine...")
ChangeSwitch(96,96,0)
ChangeSwitch(98,98,0)
ShowMessageFace("",0,0,2,2)
ShowMessage("Eri opens her mouth wide, letting me see the threads of sticky saliva dancing on her tongue.")
ShowMessageFace("mob_murabito1_fc1",0,0,2,3)
ShowMessage("\\n<Eri>Looks inviting, doesn't it? Fufufu...\nWithout further ado... Mmmn!")
250(bytes(0x04,0x08,0x6f,0x3a,0x0c,0x52,0x50,0x47,0x3a,0x3a,0x53,0x45,0x08,0x3a,0x0a,0x40,0x6e,0x61,0x6d,0x65,0x49,0x22,0x11,0x6d,0x6f,0x6e,0x5f,0x65,0x72,0x6f,0x5f,0x70,0x79,0x75,0x31,0x06,0x3a,0x06,0x45,0x54,0x3a,0x0b,0x40,0x70,0x69,0x74,0x63,0x68,0x69,0x69,0x3a,0x0c,0x40,0x76,0x6f,0x6c,0x75,0x6d,0x65,0x69,0x69))
PictureDisplay(5,"ev_mob_murabito1_h1",0,0,0,0,100,100,255,0)
ChangeVariable(11,11,0,2,7,9)
311(0,1,1,1,11,true)
ShowMessageFace("",0,0,2,4)
ShowMessage("Eri gobbles up my penis!")
ShowMessage("The warm interior of her mouth and viscous saliva wrap around my shaft!\\D")
ShowMessage("Luka takes \\V[11] damage!")
ChangeVariable(27,27,0,3,3,1,2)
If(1,27,0,0,0)
 RunCommonEvent(7013)
 EndEventProcessing()
 0()
EndIf()
ShowMessageFace("mob_murabito1_fc1",0,0,2,5)
ShowMessage("\\n<Eri>Mmmn, ssspst...\nThat's a healthy cock you've got... fufufu...")
250(bytes(0x04,0x08,0x6f,0x3a,0x0c,0x52,0x50,0x47,0x3a,0x3a,0x53,0x45,0x08,0x3a,0x0a,0x40,0x6e,0x61,0x6d,0x65,0x49,0x22,0x11,0x6d,0x6f,0x6e,0x5f,0x65,0x72,0x6f,0x5f,0x70,0x79,0x75,0x32,0x06,0x3a,0x06,0x45,0x54,0x3a,0x0b,0x40,0x70,0x69,0x74,0x63,0x68,0x69,0x69,0x3a,0x0c,0x40,0x76,0x6f,0x6c,0x75,0x6d,0x65,0x69,0x69))
ChangeVariable(11,11,0,2,7,9)
311(0,1,1,1,11,true)
ShowMessageFace("",0,0,2,6)
ShowMessage("She completely coats my penis with saliva and sweetly stimulates every inch with the soft interior of her mouth!\\D")
ShowMessage("Luka takes \\V[11] damage!")
ChangeVariable(27,27,0,3,3,1,2)
If(1,27,0,0,0)
 RunCommonEvent(7013)
 EndEventProcessing()
 0()
EndIf()
ShowMessageFace("mob_murabito1_fc1",0,0,2,7)
ShowMessage("\\n<Eri>Time to put my skills to use.\nDon't worry, I'll make you feel really, really good...")
250(bytes(0x04,0x08,0x6f,0x3a,0x0c,0x52,0x50,0x47,0x3a,0x3a,0x53,0x45,0x08,0x3a,0x0a,0x40,0x6e,0x61,0x6d,0x65,0x49,0x22,0x11,0x6d,0x6f,0x6e,0x5f,0x65,0x72,0x6f,0x5f,0x70,0x79,0x75,0x32,0x06,0x3a,0x06,0x45,0x54,0x3a,0x0b,0x40,0x70,0x69,0x74,0x63,0x68,0x69,0x69,0x3a,0x0c,0x40,0x76,0x6f,0x6c,0x75,0x6d,0x65,0x69,0x69))
ChangeVariable(11,11,0,2,7,9)
311(0,1,1,1,11,true)
ShowMessageFace("",0,0,2,8)
ShowMessage("Her slimy tongue coils around my glans! She licks it all over, rubbing saliva into my skin!\\D")
ShowMessage("Luka takes \\V[11] damage!")
ChangeVariable(27,27,0,3,3,1,2)
If(1,27,0,0,0)
 RunCommonEvent(7014)
 EndEventProcessing()
 0()
EndIf()
ShowMessageFace("mob_murabito1_fc1",0,0,2,9)
ShowMessage("\\n<Eri>My tongue will...\nSspst... Play with your tip...")
250(bytes(0x04,0x08,0x6f,0x3a,0x0c,0x52,0x50,0x47,0x3a,0x3a,0x53,0x45,0x08,0x3a,0x0a,0x40,0x6e,0x61,0x6d,0x65,0x49,0x22,0x11,0x6d,0x6f,0x6e,0x5f,0x65,0x72,0x6f,0x5f,0x70,0x79,0x75,0x32,0x06,0x3a,0x06,0x45,0x54,0x3a,0x0b,0x40,0x70,0x69,0x74,0x63,0x68,0x69,0x69,0x3a,0x0c,0x40,0x76,0x6f,0x6c,0x75,0x6d,0x65,0x69,0x69))
ChangeVariable(11,11,0,2,7,9)
311(0,1,1,1,11,true)
ShowMessageFace("",0,0,2,10)
ShowMessage("She runs her tongue over my glans, making sure I don't go an instant without that slimy feeling attacking my senses!\\D")
ShowMessage("Luka takes \\V[11] damage!")
ChangeVariable(27,27,0,3,3,1,2)
If(1,27,0,0,0)
 RunCommonEvent(7014)
 EndEventProcessing()
 0()
EndIf()
ShowMessageFace("mob_murabito1_fc1",0,0,2,11)
ShowMessage("\\n<Eri>Now, while I focus on licking your tip...\nLet me start sucking... Mmmn, ssspst...")
250(bytes(0x04,0x08,0x6f,0x3a,0x0c,0x52,0x50,0x47,0x3a,0x3a,0x53,0x45,0x08,0x3a,0x0a,0x40,0x6e,0x61,0x6d,0x65,0x49,0x22,0x13,0x6d,0x6f,0x6e,0x5f,0x65,0x72,0x6f,0x5f,0x62,0x75,0x63,0x68,0x75,0x33,0x06,0x3a,0x06,0x45,0x54,0x3a,0x0b,0x40,0x70,0x69,0x74,0x63,0x68,0x69,0x69,0x3a,0x0c,0x40,0x76,0x6f,0x6c,0x75,0x6d,0x65,0x69,0x69))
ChangeVariable(11,11,0,2,7,9)
311(0,1,1,1,11,true)
ShowMessageFace("",0,0,2,12)
ShowMessage("She begins to gently suck on my shaft, providing a sweet sensation of suction while her tongue dexterously plays with my glans!\\D")
ShowMessage("Luka takes \\V[11] damage!")
ChangeVariable(27,27,0,3,3,1,2)
If(1,27,0,0,0)
 RunCommonEvent(7014)
 EndEventProcessing()
 0()
EndIf()
If(1,27,0,40,4)
 ShowMessageFace("ruka_fc1",0,0,2,13)
 ShowMessage("\\n<Luka>Huaaa...")
 ShowMessageFace("mob_murabito1_fc1",0,0,2,14)
 ShowMessage("\\n<Eri>Wonderful, isn't it?\nCan't endure much longer, can you? Fufufu...")
 0()
Else()
 ShowMessageFace("mob_murabito1_fc1",0,0,2,15)
 ShowMessage("\\n<Eri>You're holding out pretty well.\nLooks like I'll have to get serious. *slurrrrp*")
 0()
EndIf()
250(bytes(0x04,0x08,0x6f,0x3a,0x0c,0x52,0x50,0x47,0x3a,0x3a,0x53,0x45,0x08,0x3a,0x0a,0x40,0x6e,0x61,0x6d,0x65,0x49,0x22,0x13,0x6d,0x6f,0x6e,0x5f,0x65,0x72,0x6f,0x5f,0x62,0x75,0x63,0x68,0x75,0x32,0x06,0x3a,0x06,0x45,0x54,0x3a,0x0b,0x40,0x70,0x69,0x74,0x63,0x68,0x69,0x69,0x3a,0x0c,0x40,0x76,0x6f,0x6c,0x75,0x6d,0x65,0x69,0x69))
ChangeVariable(11,11,0,2,7,9)
311(0,1,1,1,11,true)
ShowMessageFace("",0,0,2,16)
ShowMessage("Eri swirls the saliva around in her mouth, hitting every part of my penis with a torrent of warm, slimy sensations!\\D")
ShowMessage("Luka takes \\V[11] damage!")
ChangeVariable(27,27,0,3,3,1,2)
If(1,27,0,0,0)
 RunCommonEvent(7014)
 EndEventProcessing()
 0()
EndIf()
ShowMessageFace("mob_murabito1_fc1",0,0,2,17)
ShowMessage("\\n<Eri>You've made it half way, but I'll send you over the edge soon enough.\nSsssspsst...")
250(bytes(0x04,0x08,0x6f,0x3a,0x0c,0x52,0x50,0x47,0x3a,0x3a,0x53,0x45,0x08,0x3a,0x0a,0x40,0x6e,0x61,0x6d,0x65,0x49,0x22,0x11,0x6d,0x6f,0x6e,0x5f,0x65,0x72,0x6f,0x5f,0x70,0x79,0x75,0x32,0x06,0x3a,0x06,0x45,0x54,0x3a,0x0b,0x40,0x70,0x69,0x74,0x63,0x68,0x69,0x69,0x3a,0x0c,0x40,0x76,0x6f,0x6c,0x75,0x6d,0x65,0x69,0x69))
ChangeVariable(11,11,0,2,7,9)
311(0,1,1,1,11,true)
ShowMessageFace("",0,0,2,18)
ShowMessage("Her tongue undulates, twisting and coiling around my glans! The slimy sensations increase and tickle my pleasure points!\\D")
ShowMessage("Luka takes \\V[11] damage!")
ChangeVariable(27,27,0,3,3,1,2)
If(1,27,0,0,0)
 RunCommonEvent(7014)
 EndEventProcessing()
 0()
EndIf()
250(bytes(0x04,0x08,0x6f,0x3a,0x0c,0x52,0x50,0x47,0x3a,0x3a,0x53,0x45,0x08,0x3a,0x0a,0x40,0x6e,0x61,0x6d,0x65,0x49,0x22,0x13,0x6d,0x6f,0x6e,0x5f,0x65,0x72,0x6f,0x5f,0x62,0x75,0x63,0x68,0x75,0x33,0x06,0x3a,0x06,0x45,0x54,0x3a,0x0b,0x40,0x70,0x69,0x74,0x63,0x68,0x69,0x69,0x3a,0x0c,0x40,0x76,0x6f,0x6c,0x75,0x6d,0x65,0x69,0x69))
ChangeVariable(11,11,0,2,7,9)
311(0,1,1,1,11,true)
ShowMessageFace("",0,0,2,19)
ShowMessage("Her cheeks recede as she increases the suction around my shaft! It feels like every inch of me is rubbing against the inside of her mouth!\\D")
ShowMessage("Luka takes \\V[11] damage!")
ChangeVariable(27,27,0,3,3,1,2)
If(1,27,0,0,0)
 RunCommonEvent(7014)
 EndEventProcessing()
 0()
EndIf()
ShowMessageFace("mob_murabito1_fc1",0,0,2,20)
ShowMessage("\\n<Eri>And now for my finisher!\nLet it all out in my mouth!")
250(bytes(0x04,0x08,0x6f,0x3a,0x0c,0x52,0x50,0x47,0x3a,0x3a,0x53,0x45,0x08,0x3a,0x0a,0x40,0x6e,0x61,0x6d,0x65,0x49,0x22,0x13,0x6d,0x6f,0x6e,0x5f,0x65,0x72,0x6f,0x5f,0x62,0x75,0x63,0x68,0x75,0x33,0x06,0x3a,0x06,0x45,0x54,0x3a,0x0b,0x40,0x70,0x69,0x74,0x63,0x68,0x69,0x69,0x3a,0x0c,0x40,0x76,0x6f,0x6c,0x75,0x6d,0x65,0x69,0x69))
ChangeVariable(11,11,0,2,7,9)
311(0,1,1,1,11,true)
ShowMessageFace("",0,0,2,21)
ShowMessage("Her tongue completely covers my glans and toys with my sensitive areas!\\D")
ShowMessage("Luka takes \\V[11] damage!")
ChangeVariable(27,27,0,3,3,1,2)
If(1,27,0,0,0)
 RunCommonEvent(7014)
 EndEventProcessing()
 0()
EndIf()
250(bytes(0x04,0x08,0x6f,0x3a,0x0c,0x52,0x50,0x47,0x3a,0x3a,0x53,0x45,0x08,0x3a,0x0a,0x40,0x6e,0x61,0x6d,0x65,0x49,0x22,0x13,0x6d,0x6f,0x6e,0x5f,0x65,0x72,0x6f,0x5f,0x62,0x75,0x63,0x68,0x75,0x33,0x06,0x3a,0x06,0x45,0x54,0x3a,0x0b,0x40,0x70,0x69,0x74,0x63,0x68,0x69,0x69,0x3a,0x0c,0x40,0x76,0x6f,0x6c,0x75,0x6d,0x65,0x69,0x69))
ChangeVariable(11,11,0,2,7,9)
311(0,1,1,1,11,true)
ShowMessageFace("",0,0,2,22)
ShowMessage("Eri's lips squeeze down and suck my penis like it's in a vacuum! It feels like my penis is melting away from the maddening force!\\D")
ShowMessage("Luka takes \\V[11] damage!")
ChangeVariable(27,27,0,3,3,1,2)
If(1,27,0,0,0)
 RunCommonEvent(7014)
 EndEventProcessing()
 0()
EndIf()
RunCommonEvent(7016)
EndEventProcessing()
0()
