// EVENT 1004
Name "Talk: Slug Girl"

If(1,20,0,1,0)
 JumpToLabel("情報")
 0()
EndIf()
If(1,20,0,2,0)
 JumpToLabel("質問")
 0()
EndIf()
If(1,20,0,3,0)
 JumpToLabel("要求")
 0()
EndIf()
If(1,20,0,4,0)
 JumpToLabel("贈与")
 0()
EndIf()
DefineLabel("情報")
ChangeVariable(13,13,0,2,1,100)
If(1,13,0,10,2)
 ShowMessageFace("name_fc1",0,0,2,1)
 ShowMessage("\\n<Slug Girl>I hate slimes.\nI cannot stand their behavior.")
 EndEventProcessing()
 0()
EndIf()
If(1,13,0,20,2)
 ShowMessageFace("name_fc1",0,0,2,2)
 ShowMessage("\\n<Slug Girl>Regular slugs like beer, but I prefer something with a little more class.")
 ShowMessageFace("name_fc1",0,0,2,3)
 ShowMessage("\\n<Slug Girl>...I don't like it, honestly!")
 EndEventProcessing()
 0()
EndIf()
If(1,13,0,30,2)
 ShowMessageFace("name_fc1",0,0,2,4)
 ShowMessage("\\n<Slug Girl>Generally, we only eat plants.\nSemen, of course, is an exception.")
 EndEventProcessing()
 0()
EndIf()
If(1,13,0,40,2)
 ShowMessageFace("name_fc1",0,0,2,5)
 ShowMessage("\\n<Slug Girl>Taking strolls on cloudy days are the best.\nBut if we keep having all these sunny days, I might dry out.")
 EndEventProcessing()
 0()
EndIf()
If(1,13,0,50,2)
 ShowMessageFace("name_fc1",0,0,2,6)
 ShowMessage("\\n<Slug Girl>It can be difficult being a slug girl.\nI can't dress up without everything becoming sticky.")
 EndEventProcessing()
 0()
EndIf()
If(1,13,0,60,2)
 ShowMessageFace("name_fc1",0,0,2,7)
 ShowMessage("\\n<Slug Girl>I can never go to the beach or I'll melt.")
 EndEventProcessing()
 0()
EndIf()
If(1,13,0,70,2)
 ShowMessageFace("name_fc1",0,0,2,8)
 ShowMessage("\\n<Slug Girl>I hope it rains soon.")
 EndEventProcessing()
 0()
EndIf()
If(1,13,0,80,2)
 ShowMessageFace("name_fc1",0,0,2,9)
 ShowMessage("\\n<Slug Girl>Higher Slugs like to dissolve and eat people.\nLucky for you, I do not go that far.")
 EndEventProcessing()
 0()
EndIf()
If(1,13,0,90,2)
 ShowMessageFace("name_fc1",0,0,2,10)
 ShowMessage("\\n<Slug Girl>Slugs are hermaphrodites. We are all female, of course.\nBut if we want we can grow a... fufuu.")
 EndEventProcessing()
 0()
EndIf()
If(1,13,0,100,2)
 ShowMessageFace("name_fc1",0,0,2,11)
 ShowMessage("\\n<Slug Girl>I know when it is going to rain the next day.\nMy body gets a little slimier.")
 EndEventProcessing()
 0()
EndIf()
DefineLabel("質問")
ChangeVariable(13,13,0,2,1,50)
If(1,13,0,10,2)
 ShowMessageFace("name_fc1",0,0,2,12)
 ShowMessage("\\n<Slug Girl>Fish or vegetables, which do you prefer?")
 ShowChoices(strings("Vegetables","Fish"),0)
 IfPlayerPicksChoice(0,"Vegetables")
  ShowMessageFace("name_fc1",0,0,2,13)
  ShowMessage("\\n<Slug Girl>I see. We will get along.")
  355("change_friend(10)")
  0()
 IfPlayerPicksChoice(1,"Fish")
  ShowMessageFace("name_fc1",0,0,2,14)
  ShowMessage("\\n<Slug Girl>You like fish? Are you as dumb as a slime too?")
  355("change_friend(-5)")
  0()
 404()
 EndEventProcessing()
 0()
EndIf()
If(1,13,0,20,2)
 ShowMessageFace("name_fc1",0,0,2,15)
 ShowMessage("\\n<Slug Girl>If salt gets spilled on you, what happens?")
 ShowChoices(strings("I melt","Nothing"),0)
 IfPlayerPicksChoice(0,"I melt")
  ShowMessageFace("name_fc1",0,0,2,16)
  ShowMessage("\\n<Slug Girl>Ah, I am the same.")
  355("change_friend(10)")
  0()
 IfPlayerPicksChoice(1,"Nothing")
  ShowMessageFace("name_fc1",0,0,2,17)
  ShowMessage("\\n<Slug Girl>Must be nice... I'm jealous...\nI hate you, a little.")
  355("change_friend(-5)")
  0()
 404()
 EndEventProcessing()
 0()
EndIf()
If(1,13,0,30,2)
 ShowMessageFace("name_fc1",0,0,2,18)
 ShowMessage("\\n<Slug Girl>Do you ever put salt on slugs?")
 ShowChoices(strings("I do","I do not"),0)
 IfPlayerPicksChoice(0,"I do")
  ShowMessageFace("name_fc1",0,0,2,19)
  ShowMessage("\\n<Slug Girl>How cruel. I will avenge my brethren.")
  355("change_friend(-5)")
  0()
 IfPlayerPicksChoice(1,"I do not")
  ShowMessageFace("name_fc1",0,0,2,20)
  ShowMessage("\\n<Slug Girl>I see. That is good.")
  355("change_friend(10)")
  0()
 404()
 EndEventProcessing()
 0()
EndIf()
If(1,13,0,40,2)
 ShowMessageFace("name_fc1",0,0,2,21)
 ShowMessage("\\n<Slug Girl>Just once, I want to go to the beach.")
 ShowChoices(strings("Let's go together","Give up on that"),0)
 IfPlayerPicksChoice(0,"Let's go together")
  ShowMessageFace("name_fc1",0,0,2,22)
  ShowMessage("\\n<Slug Girl>Really? Do you want me to melt?")
  355("change_friend(-5)")
  0()
 IfPlayerPicksChoice(1,"Give up on that")
  ShowMessageFace("name_fc1",0,0,2,23)
  ShowMessage("\\n<Slug Girl>I suppose. I would just melt away.")
  355("change_friend(10)")
  0()
 404()
 EndEventProcessing()
 0()
EndIf()
If(1,13,0,50,2)
 ShowMessageFace("name_fc1",0,0,2,24)
 ShowMessage("\\n<Slug Girl>Do you like damp places?")
 ShowChoices(strings("I like them","I don't like them"),0)
 IfPlayerPicksChoice(0,"Like")
  ShowMessageFace("name_fc1",0,0,2,25)
  ShowMessage("\\n<Slug Girl>I like them as well.\nBut slimes keep showing up wherever I go.")
  355("change_friend(10)")
  0()
 IfPlayerPicksChoice(1,"Don't like")
  ShowMessageFace("name_fc1",0,0,2,26)
  ShowMessage("\\n<Slug Girl>So you would not like a woman who is damp either.")
  355("change_friend(-5)")
  0()
 404()
 EndEventProcessing()
 0()
EndIf()
DefineLabel("要求")
ChangeVariable(13,13,0,2,1,30)
If(1,13,0,10,2)
 If(8,309)
  ShowMessageFace("name_fc1",0,0,2,27)
  ShowMessage("\\n<Slug Girl>Can I have some lettuce?")
  ChangeVariable(24,24,0,3,0,309,0)
  ShowMessageFace("",0,0,2,28)
  ShowMessage("Do you want to give some \\ii[309]? (Have:\\V[24])")
  ShowChoices(strings("Yes","No"),2)
  IfPlayerPicksChoice(0,"Yes")
   ChangeInventory_Item(309,1,0,1)
   ShowMessageFace("name_fc1",0,0,2,29)
   ShowMessage("\\n<Slug Girl>Munch, Munch...\nDelicious.")
   355("change_friend(20)")
   EndEventProcessing()
   0()
  IfPlayerPicksChoice(1,"No")
   ShowMessageFace("name_fc1",0,0,2,30)
   ShowMessage("\\n<Slug Girl>I see. That is a shame.")
   EndEventProcessing()
   0()
  404()
  0()
 Else()
  ChangeVariable(13,13,0,0,20)
  0()
 EndIf()
 0()
EndIf()
If(1,13,0,20,2)
 If(8,306)
  ShowMessageFace("name_fc1",0,0,2,31)
  ShowMessage("\\n<Slug Girl>On a sunny day like this, I like to eat cucumbers.")
  ChangeVariable(24,24,0,3,0,306,0)
  ShowMessageFace("",0,0,2,32)
  ShowMessage("Do you want to give a \\ii[306]? (Have:\\V[24])")
  ShowChoices(strings("Yes","No"),2)
  IfPlayerPicksChoice(0,"Yes")
   ChangeInventory_Item(306,1,0,1)
   ShowMessageFace("name_fc1",0,0,2,33)
   ShowMessage("\\n<Slug Girl>Thank you.\nI will eat it back at my nest.")
   355("change_friend(30)")
   EndEventProcessing()
   0()
  IfPlayerPicksChoice(1,"No")
   ShowMessageFace("name_fc1",0,0,2,34)
   ShowMessage("\\n<Slug Girl>I see. That is a shame.")
   EndEventProcessing()
   0()
  404()
  0()
 Else()
  ChangeVariable(13,13,0,0,30)
  0()
 EndIf()
 0()
EndIf()
If(1,13,0,30,2)
 ShowMessageFace("name_fc1",0,0,2,35)
 ShowMessage("\\n<Slug Girl>My favorite clothes are covered in sticky mucus.\nI would like some money to replace them.")
 If(7,12,0)
  ChangeVariable(24,24,0,3,7,2,0)
  ShowMessageFace("",0,0,2,36)
  ShowMessage("Do you want to give 12G? (Remaining: \\V[24])")
  ShowChoices(strings("Yes","No"),2)
  IfPlayerPicksChoice(0,"Yes")
   125(1,0,12)
   ShowMessageFace("name_fc1",0,0,2,37)
   ShowMessage("\\n<Slug Girl>Thank you, now I can be fashionable again.")
   355("change_friend(25)")
   EndEventProcessing()
   0()
  IfPlayerPicksChoice(1,"No")
   ShowMessageFace("name_fc1",0,0,2,38)
   ShowMessage("\\n<Slug Girl>Well, I did not particularly expect you to.")
   EndEventProcessing()
   0()
  404()
  0()
 Else()
  ShowMessageFace("name_fc1",0,0,2,39)
  ShowMessage("\\n<Slug Girl>...I thought you would have at least that much.")
  EndEventProcessing()
  0()
 EndIf()
 0()
EndIf()
DefineLabel("贈与")
ChangeVariable(13,13,0,2,1,30)
If(1,25,0,1,0)
 ChangeVariable(13,13,0,0,30)
 ChangeVariable(25,25,0,0,0)
 0()
EndIf()
If(1,25,0,2,0)
 ChangeVariable(13,13,0,2,1,20)
 ChangeVariable(25,25,0,0,0)
 0()
EndIf()
If(1,13,0,10,2)
 ShowMessageFace("name_fc1",0,0,2,40)
 ShowMessage("\\n<Slug Girl>Take this, please use it when you get hurt.\n...It may be a little slimy.")
 250(bytes(0x04,0x08,0x6f,0x3a,0x0c,0x52,0x50,0x47,0x3a,0x3a,0x53,0x45,0x08,0x3a,0x0a,0x40,0x6e,0x61,0x6d,0x65,0x49,0x22,0x0a,0x49,0x74,0x65,0x6d,0x31,0x06,0x3a,0x06,0x45,0x54,0x3a,0x0b,0x40,0x70,0x69,0x74,0x63,0x68,0x69,0x69,0x3a,0x0c,0x40,0x76,0x6f,0x6c,0x75,0x6d,0x65,0x69,0x55))
 ChangeInventory_Item(1,0,0,1)
 ShowMessageFace("",0,0,2,41)
 ShowMessage("The Slug Girl gave you an \\ii[1]!")
 EndEventProcessing()
 0()
EndIf()
If(1,13,0,20,2)
 ShowMessageFace("name_fc1",0,0,2,42)
 ShowMessage("\\n<Slug Girl>Sorry for all the trouble, take this.\nI was wearing it so it's sticky.")
 250(bytes(0x04,0x08,0x6f,0x3a,0x0c,0x52,0x50,0x47,0x3a,0x3a,0x53,0x45,0x08,0x3a,0x0a,0x40,0x6e,0x61,0x6d,0x65,0x49,0x22,0x0a,0x49,0x74,0x65,0x6d,0x31,0x06,0x3a,0x06,0x45,0x54,0x3a,0x0b,0x40,0x70,0x69,0x74,0x63,0x68,0x69,0x69,0x3a,0x0c,0x40,0x76,0x6f,0x6c,0x75,0x6d,0x65,0x69,0x55))
 ChangeInventoryArmor(148,0,0,1,false)
 ShowMessageFace("",0,0,2,43)
 ShowMessage("The Slug Girl gave you a \\ia[148]!")
 EndEventProcessing()
 0()
EndIf()
If(1,13,0,30,2)
 ShowMessageFace("name_fc1",0,0,2,44)
 ShowMessage("\\n<Slug Girl>I was going to buy a new hat because this one is sticky, but I want you to have this.")
 250(bytes(0x04,0x08,0x6f,0x3a,0x0c,0x52,0x50,0x47,0x3a,0x3a,0x53,0x45,0x08,0x3a,0x0a,0x40,0x6e,0x61,0x6d,0x65,0x49,0x22,0x0a,0x49,0x74,0x65,0x6d,0x31,0x06,0x3a,0x06,0x45,0x54,0x3a,0x0b,0x40,0x70,0x69,0x74,0x63,0x68,0x69,0x69,0x3a,0x0c,0x40,0x76,0x6f,0x6c,0x75,0x6d,0x65,0x69,0x55))
 125(0,0,20)
 ShowMessageFace("",0,0,2,45)
 ShowMessage("The Slug Girl gave you 20G!")
 EndEventProcessing()
 0()
EndIf()
0()

