// EVENT 4073
Name "Sara 2"

If(0,25,1)
 221()
 PictureClear(5)
 PictureClear(6)
 ShowMessageFace("",0,0,2,0)
 ShowMessage("......")
 242(2)
 Wait(120)
 241(bytes(0x04,0x08,0x6f,0x3a,0x0d,0x52,0x50,0x47,0x3a,0x3a,0x42,0x47,0x4d,0x08,0x3a,0x0a,0x40,0x6e,0x61,0x6d,0x65,0x49,0x22,0x0c,0x63,0x61,0x73,0x74,0x6c,0x65,0x36,0x06,0x3a,0x06,0x45,0x54,0x3a,0x0c,0x40,0x76,0x6f,0x6c,0x75,0x6d,0x65,0x69,0x69,0x3a,0x0b,0x40,0x70,0x69,0x74,0x63,0x68,0x69,0x69))
 EndEventProcessing()
 0()
EndIf()
PictureDisplay(5,"80_sara_st12",0,0,0,0,100,100,255,0)
ShowMessageFace("",0,0,2,1)
ShowMessage("\\n<Luka>Eh? Princess clothes today?")
ShowMessageFace("sara_fc2",1,0,2,2)
ShowMessage("\\n<Sara>Yes, there are some events going on in Sabasa.")
ShowMessageFace("sara_fc2",1,0,2,3)
ShowMessage("\\n<Sara>That reminds me. Do you want to have sex?\nAfter adventuring for so long, I'm sure you've got some backup in you.")
ShowMessageFace("",0,0,2,4)
ShowMessage("\\n<Luka>Eh...!? Ehhhhhh...!?")
ShowMessageFace("sara_fc2",1,0,2,5)
ShowMessage("\\n<Sara>I mean, we're allies.\nAt least that much is no big deal, you know.")
ShowMessageFace("",0,0,2,6)
ShowMessage("\\n<Luka>W-Well then... Okay.")
ShowMessageFace("sara_fc2",1,0,2,7)
ShowMessage("\\n<Sara>Fufu, then come to my room.\nYou don't want everyone else to watch, do you?")
ShowMessageFace("",0,0,2,8)
ShowMessage("With that, I follow her to her room...")
221()
PictureDisplay(1,"bg195",0,0,0,0,100,100,255,0)
PictureDisplay(5,"80_sara_st12",0,0,0,0,100,100,255,0)
222()
241(bytes(0x04,0x08,0x6f,0x3a,0x0d,0x52,0x50,0x47,0x3a,0x3a,0x42,0x47,0x4d,0x08,0x3a,0x0a,0x40,0x6e,0x61,0x6d,0x65,0x49,0x22,0x09,0x65,0x72,0x6f,0x31,0x06,0x3a,0x06,0x45,0x54,0x3a,0x0c,0x40,0x76,0x6f,0x6c,0x75,0x6d,0x65,0x69,0x69,0x3a,0x0b,0x40,0x70,0x69,0x74,0x63,0x68,0x69,0x69))
ShowMessageFace("sara_fc2",2,0,2,9)
ShowMessage("\\n<Sara>You want me on top, right?\nYou love being forced, don't you?")
ShowMessageFace("",0,0,2,10)
ShowMessage("Sara turns toward me as soon as the door closes.")
ShowMessage("Stripping her clothes and mine, she lightly pushes me onto the bed.")
ShowMessageFace("",0,0,2,11)
ShowMessage("Mounting me, she takes a dominant position.")
ShowMessageFace("sara_fc2",2,0,2,12)
ShowMessage("\\n<Sara>Your dick's getting hard already.\nI knew it, you love being raped.")
ShowMessageFace("",0,0,2,13)
ShowMessage("\\n<Luka>Th-that's not true...")
ShowMessageFace("sara_fc2",2,0,2,14)
ShowMessage("\\n<Sara>Oh quit denying it.\nYou wanted to be fucked like this, didn't you?")
245(bytes(0x04,0x08,0x6f,0x3a,0x0d,0x52,0x50,0x47,0x3a,0x3a,0x42,0x47,0x53,0x08,0x3a,0x0a,0x40,0x6e,0x61,0x6d,0x65,0x49,0x22,0x1e,0x6d,0x6f,0x6e,0x5f,0x68,0x73,0x65,0x61,0x6e,0x30,0x32,0x5f,0x69,0x6e,0x6e,0x65,0x72,0x77,0x6f,0x72,0x6b,0x73,0x5f,0x61,0x32,0x06,0x3a,0x06,0x45,0x54,0x3a,0x0c,0x40,0x76,0x6f,0x6c,0x75,0x6d,0x65,0x69,0x55,0x3a,0x0b,0x40,0x70,0x69,0x74,0x63,0x68,0x69,0x69))
PictureDisplay(5,"ev_sara_hb1",0,0,0,0,100,100,255,0)
ShowMessageFace("",0,0,2,15)
ShowMessage("Sara grabs hold of my penis, and guides it to her entrance.")
ShowMessage("And drops down on top of me all at once!")
ShowMessageFace("",0,0,2,16)
ShowMessage("\\n<Luka>Ah... !")
ShowMessageFace("",0,0,2,17)
ShowMessage("My head goes pure white as soon as Sara violates me.")
ShowMessage("The feel of her soft flesh around my penis fills my every sense.")
ShowMessageFace("",0,0,2,18)
ShowMessage("The soft pressure, her wet hole... It feels incredible just being inside her.")
ShowMessageFace("",0,0,2,19)
ShowMessage("I'm left breathless, unable to even imagine how good she could feel.")
ShowMessageFace("sara_fc2",2,0,2,20)
ShowMessage("\\n<Sara>Hehehe... Well?")
ShowMessageFace("",0,0,2,21)
ShowMessage("\\n<Luka>Unnngh...Th-that feels so good...")
ShowMessageFace("",0,0,2,22)
ShowMessage("Trembling, I lose control of myself inside of her.")
RunCommonEvent(104)
PictureDisplay(5,"ev_sara_hb2",0,0,0,0,100,100,255,0)
RunCommonEvent(105)
ShowMessageFace("",0,0,2,23)
ShowMessage("And in no time, I come inside of her, my semen spurting into that amazing hole.")
ShowMessage("I didn't even last ten seconds inside of her.")
ShowMessageFace("",0,0,2,24)
ShowMessage("No matter how I think of this, it's clearly not normal.")
ShowMessageFace("",0,0,2,25)
ShowMessage("\\n<Luka>You didn't... Your Succubus power?")
ShowMessageFace("sara_fc2",2,0,2,26)
ShowMessage("\\n<Sara>Eh... You caught me?\nI transformed just my pussy with my Succubus powers.")
ShowMessageFace("sara_fc2",2,0,2,27)
ShowMessage("\\n<Sara>Thanks to it, you felt really good, didn't you?\nYou came right from insertion. ♪")
ShowMessageFace("",0,0,2,28)
ShowMessage("\\n<Luka>I-I knew it...\nUnnngh...")
ShowMessageFace("",0,0,2,29)
ShowMessage("She slowly squeezes down on my penis with her vagina... Infused with Succubus powers, it's enough to leave me completely at her mercy.")
ShowMessageFace("sara_fc2",2,0,2,30)
ShowMessage("\\n<Sara>Hehe... It's incredible, isn't it?\nAren't you thrilled at being able to use my pussy like this?")
ShowMessageFace("",0,0,2,31)
ShowMessage("\\n<Luka>Uwaaaa!!")
ShowMessageFace("",0,0,2,32)
ShowMessage("Sara squeezes my penis with her Succubus vagina, leaving me writhing in unbearable pleasure under her.")
ShowMessageFace("sara_fc2",2,0,2,33)
ShowMessage("\\n<Sara>Hey... Are you really going to make me do all the work?\nLuka, you need to give it some effort too.")
ShowMessageFace("",0,0,2,34)
ShowMessage("\\n<Luka>N...no way...")
ShowMessageFace("sara_fc2",2,0,2,35)
ShowMessage("\\n<Sara>Hora, hora... Do you really want to be raped so one-sidedly like this?\nShouldn't your pride as a man make you go on some sort of counterattack?")
ShowMessageFace("",0,0,2,36)
ShowMessage("\\n<Luka>Guh...")
ShowMessageFace("",0,0,2,37)
ShowMessage("I try to push up into her from below... But if I move inside her, I know I'd come right away.")
ShowMessageFace("",0,0,2,38)
ShowMessage("After moving less than an inch, I stop with a gasp of pleasure.")
ShowMessage("Seeing that, Sara looks down with a look of triumph on her face.")
ShowMessageFace("sara_fc2",2,0,2,39)
ShowMessage("\\n<Sara>Ahaha, is that it?\nYou're a man, that's pathetic.")
ShowMessageFace("sara_fc2",2,0,2,40)
ShowMessage("\\n<Sara>Then I guess I'll attack you from this side. ♪")
ShowMessageFace("",0,0,2,41)
ShowMessage("\\n<Luka>Ah, aaaaaah!!")
ShowMessageFace("",0,0,2,42)
ShowMessage("Squeezing me tight inside her, Sara starts to violently move her waist.")
ShowMessageFace("",0,0,2,43)
ShowMessage("My sensitive penis slips easily in and out of her wet vagina, the folds and creases inside rubbing and pulling against my tip with each completed cycle.")
ShowMessageFace("",0,0,2,44)
ShowMessage("Feeling far too good, the desire to ejaculate again overtakes me in only seconds.")
ShowMessageFace("",0,0,2,45)
ShowMessage("\\n<Luka>Unnngh...I'm going to come...!")
ShowMessageFace("sara_fc2",2,0,2,46)
ShowMessage("\\n<Sara>What the... Already giving up?\nCome on, I just moved a little bit and you're already surrendering to me? ♪")
ShowMessageFace("sara_fc2",2,0,2,47)
ShowMessage("\\n<Sara>Then I'll finish you off inside...")
ShowMessageFace("",0,0,2,48)
ShowMessage("\\n<Luka>Ah, aaaah...!")
ShowMessageFace("",0,0,2,49)
ShowMessage("Pressing down and pulling me deep inside, Sara squeezes on my penis, forcing the feel of her warm flesh into me.")
RunCommonEvent(104)
PictureDisplay(5,"ev_sara_hb3",0,0,0,0,100,100,255,0)
RunCommonEvent(105)
ShowMessageFace("",0,0,2,50)
ShowMessage("\\n<Luka>Unnngh...")
ShowMessageFace("",0,0,2,51)
ShowMessage("Unable to take it, my body spasms in ecstasy as I explode inside her again.")
ShowMessageFace("",0,0,2,52)
ShowMessage("Sara stares into my eyes as I come inside her, and giggles.")
ShowMessageFace("sara_fc2",2,0,2,53)
ShowMessage("\\n<Sara>Hey, how does it feel?\nThe Hero who's traveling the world... Unable to even beat a Princess's pussy.")
ShowMessageFace("",0,0,2,54)
ShowMessage("Sara grins and laughs as she looks at me.")
ShowMessage("Even if she's teasing me like this, I'm in no state to resist her.")
ShowMessageFace("sara_fc2",2,0,2,55)
ShowMessage("\\n<Sara>If I beat you down with my pussy some more, you won't be able to resist me...")
245(bytes(0x04,0x08,0x6f,0x3a,0x0d,0x52,0x50,0x47,0x3a,0x3a,0x42,0x47,0x53,0x08,0x3a,0x0a,0x40,0x6e,0x61,0x6d,0x65,0x49,0x22,0x17,0x6d,0x6f,0x6e,0x5f,0x68,0x73,0x65,0x61,0x6e,0x31,0x36,0x5f,0x6b,0x79,0x75,0x69,0x6e,0x33,0x06,0x3a,0x06,0x45,0x54,0x3a,0x0c,0x40,0x76,0x6f,0x6c,0x75,0x6d,0x65,0x69,0x55,0x3a,0x0b,0x40,0x70,0x69,0x74,0x63,0x68,0x69,0x69))
ShowMessageFace("",0,0,2,56)
ShowMessage("Smiling in triumph, Sara suddenly changes the stimulation in her vagina...")
ShowMessage("Her vagina starts to contract and release, pulling on my penis like it was a mouth sucking on me.")
ShowMessageFace("",0,0,2,57)
ShowMessage("Pleasure runs like electricity through my body, along with an incredible sense of weakness.")
ShowMessage("This couldn't be...")
ShowMessageFace("",0,0,2,58)
ShowMessage("\\n<Luka>Are you... Sucking my energy...?")
ShowMessageFace("sara_fc2",2,0,2,59)
ShowMessage("\\n<Sara>Poor little Hero, stuck on the floor underneath a Princess.\nYour punishment for your foolish position is Energy Drain. ♪")
ShowMessageFace("",0,0,2,60)
ShowMessage("\\n<Luka>Aaah...Ahh... Don't suck...\nDon't suck on me...")
ShowMessageFace("",0,0,2,61)
ShowMessage("Sara starts using a Succubus skill to drain my energy through her vagina...")
ShowMessage("The incredible contractions pull and suck on my penis.")
ShowMessageFace("",0,0,2,62)
ShowMessage("As would be expected, the pleasure from it is incredible, too...")
ShowMessage("It feels like my soul itself could be sucked out into Sara's vagina.")
ShowMessageFace("sara_fc2",2,0,2,63)
ShowMessage("\\n<Sara>Raped and sucked dry by a woman...\nI need to be careful, otherwise I might drain you to death...♪")
ShowMessageFace("",0,0,2,64)
ShowMessage("\\n<Luka>Stop, stooop...\nNnngh...")
RunCommonEvent(104)
PictureDisplay(5,"ev_sara_hb4",0,0,0,0,100,100,255,0)
RunCommonEvent(105)
ShowMessageFace("",0,0,2,65)
ShowMessage("As she sucks on my energy, I reach a powerful orgasm.")
ShowMessage("Exploding inside her, I shoot both my energy and my semen into Sara.")
ShowMessageFace("",0,0,2,66)
ShowMessage("\\n<Luka>Aaah... Aaaaaah!!")
ShowMessageFace("sara_fc2",2,0,2,67)
ShowMessage("\\n<Sara>Ahaha, a swift orgasm.\nAnd just listen to those nice moans of yours. ♪")
ShowMessageFace("",0,0,2,68)
ShowMessage("\\n<Luka>But... It feels too good!")
ShowMessageFace("",0,0,2,69)
ShowMessage("Sara's Succubus vagina continues to suck and pull on me...")
ShowMessage("If it's like this, it's just like I'm prey to a Succubus...")
ShowMessageFace("",0,0,2,70)
ShowMessage("\\n<Luka>D-don't... Aaaah...!")
RunCommonEvent(104)
RunCommonEvent(105)
ShowMessageFace("sara_fc2",2,0,2,71)
ShowMessage("\\n<Sara>Ahaha, you came again.\nBut I can make you come a lot more than this...")
ShowMessageFace("sara_fc2",2,0,2,72)
ShowMessage("\\n<Sara>How does it feel, Luka?\nIt's kind of shameful to be treated like this as a man. ♪")
ShowMessageFace("",0,0,2,73)
ShowMessage("\\n<Luka>Haa... Stop...\nAh, aaah...")
RunCommonEvent(104)
RunCommonEvent(105)
ShowMessageFace("sara_fc2",2,0,2,74)
ShowMessage("\\n<Sara>Aha... Luka's semen is so delicious...")
ShowMessageFace("",0,0,2,75)
ShowMessage("\\n<Luka>Ah...ah...")
RunCommonEvent(104)
RunCommonEvent(105)
ShowMessageFace("",0,0,2,76)
ShowMessage("Since then, she brought me to orgasm after orgasm...")
ShowMessage("Until I fainted, Sara sucked up my energy with her Succubus vagina.")
ShowMessageFace("",0,0,2,77)
ShowMessage("Our tryst continued until sunrise.")
ShowMessage("She kept going until not even a single drop was coming out of me.")
ShowMessageFace("",0,0,2,78)
ShowMessage("As promised, she didn't let me die.")
ShowMessage("But I'm left so weak, I can't even lift a finger.")
246(1)
ShowMessageFace("sara_fc2",2,0,2,79)
ShowMessage("\\n<Sara>Ah... It's morning already.\nI wonder if I went a little too hard there...?")
ShowMessageFace("",0,0,2,80)
ShowMessage("\\n<Luka>Ah... Auu...")
ShowMessageFace("",0,0,2,81)
ShowMessage("I feel humiliated at being treated as no more than prey for a Succubus...")
ShowMessage("My body and soul are totally exhausted.")
221()
PictureClear(5)
PictureClear(6)
246(2)
ShowMessageFace("",0,0,2,82)
ShowMessage("......")
242(2)
Wait(120)
241(bytes(0x04,0x08,0x6f,0x3a,0x0d,0x52,0x50,0x47,0x3a,0x3a,0x42,0x47,0x4d,0x08,0x3a,0x0a,0x40,0x6e,0x61,0x6d,0x65,0x49,0x22,0x0c,0x63,0x61,0x73,0x74,0x6c,0x65,0x36,0x06,0x3a,0x06,0x45,0x54,0x3a,0x0c,0x40,0x76,0x6f,0x6c,0x75,0x6d,0x65,0x69,0x69,0x3a,0x0b,0x40,0x70,0x69,0x74,0x63,0x68,0x69,0x69))
0()
