﻿// EVENT 7311
Name "Ophelia: Talk"

If(1,832,0,0,0)
 ChangeVariable(832,832,0,0,1)
 0()
EndIf()
241(bytes(0x04,0x08,0x6f,0x3a,0x0d,0x52,0x50,0x47,0x3a,0x3a,0x42,0x47,0x4d,0x08,0x3a,0x0a,0x40,0x6e,0x61,0x6d,0x65,0x49,0x22,0x09,0x65,0x72,0x6f,0x32,0x06,0x3a,0x06,0x45,0x54,0x3a,0x0c,0x40,0x76,0x6f,0x6c,0x75,0x6d,0x65,0x69,0x50,0x3a,0x0b,0x40,0x70,0x69,0x74,0x63,0x68,0x69,0x69))
PictureDisplay(5,"80_mob_kizoku_st01",0,0,0,0,100,100,0,0)
PictureMove(5,null,0,0,0,0,100,100,255,0,30,true)
If(0,2331,1)
 ShowMessageFace("mob_kizoku_fc1",0,0,2,1)
 ShowMessage("\\n<Ophelia>Aha, are you a battle fucker too?\nYou look interesting, so I'll play with you.")
 0()
EndIf()
If(1,832,0,2,1)
 ShowMessageFace("mob_kizoku_fc1",0,0,2,2)
 ShowMessage("\\n<Ophelia>The bet will be 1300G.\nEven if you win, I don't have any more prizes to hand out.")
 0()
Else()
 ShowMessageFace("mob_kizoku_fc1",0,0,2,3)
 ShowMessage("\\n<Ophelia>The bet will be 1300G.\nShould you win against me, I will give you an accessory that allows you to attack three times.")
 0()
EndIf()
ShowMessageFace("mob_kizoku_fc1",0,0,2,4)
ShowMessage("\\n<Ophelia>You'll play, of course?\nI'll make sure you waste your semen.")
ShowChoices(strings("Battle Fuck Challenge","Reconsider"),2)
IfPlayerPicksChoice(0,"バトルファックを挑む")
 If(7,1300,0)
  RunCommonEvent(7312)
  EndEventProcessing()
  0()
 Else()
  ShowMessageFace("mob_kizoku_fc1",6,0,2,5)
  ShowMessage("\\n<Ophelia>You don't have enough money... You're poor, aren't you?")
  PictureClear(5)
  EndEventProcessing()
  0()
 EndIf()
 0()
IfPlayerPicksChoice(1,"やめておく")
 ShowMessageFace("mob_kizoku_fc1",4,0,2,6)
 ShowMessage("\\n<Ophelia>You don't want me to make you come...?\nWhat a shame, I was going to make you come a lot.")
 PictureClear(5)
 EndEventProcessing()
 0()
404()
0()
