﻿// EVENT 4671
Name "Sandworm Girl 1"

If(0,25,1)
 221()
 PictureClear(5)
 PictureClear(6)
 ShowMessageFace("",0,0,2,0)
 ShowMessage("......")
 242(2)
 Wait(120)
 241(bytes(0x04,0x08,0x6f,0x3a,0x0d,0x52,0x50,0x47,0x3a,0x3a,0x42,0x47,0x4d,0x08,0x3a,0x0a,0x40,0x6e,0x61,0x6d,0x65,0x49,0x22,0x0c,0x63,0x61,0x73,0x74,0x6c,0x65,0x36,0x06,0x3a,0x06,0x45,0x54,0x3a,0x0c,0x40,0x76,0x6f,0x6c,0x75,0x6d,0x65,0x69,0x69,0x3a,0x0b,0x40,0x70,0x69,0x74,0x63,0x68,0x69,0x69))
 EndEventProcessing()
 0()
EndIf()
PictureDisplay(5,"80_sandw_st01",0,0,0,0,100,100,255,0)
ShowMessageFace("sandw_fc1",0,0,2,1)
ShowMessage("\\n<Dahlia>...Can I lick it?")
ShowMessageFace("",0,0,2,2)
ShowMessage("\\n<Luka>P-please...")
PictureDisplay(5,"80_sandw_st02",0,0,0,0,100,100,255,0)
ShowMessageFace("sandw_fc1",1,0,2,3)
ShowMessage("\\n<Dahlia>Well then, I'll lick it...")
241(bytes(0x04,0x08,0x6f,0x3a,0x0d,0x52,0x50,0x47,0x3a,0x3a,0x42,0x47,0x4d,0x08,0x3a,0x0a,0x40,0x6e,0x61,0x6d,0x65,0x49,0x22,0x09,0x65,0x72,0x6f,0x31,0x06,0x3a,0x06,0x45,0x54,0x3a,0x0c,0x40,0x76,0x6f,0x6c,0x75,0x6d,0x65,0x69,0x69,0x3a,0x0b,0x40,0x70,0x69,0x74,0x63,0x68,0x69,0x69))
245(bytes(0x04,0x08,0x6f,0x3a,0x0d,0x52,0x50,0x47,0x3a,0x3a,0x42,0x47,0x53,0x08,0x3a,0x0a,0x40,0x6e,0x61,0x6d,0x65,0x49,0x22,0x10,0x6d,0x6f,0x6e,0x5f,0x68,0x76,0x6f,0x69,0x63,0x65,0x32,0x06,0x3a,0x06,0x45,0x54,0x3a,0x0c,0x40,0x76,0x6f,0x6c,0x75,0x6d,0x65,0x69,0x55,0x3a,0x0b,0x40,0x70,0x69,0x74,0x63,0x68,0x69,0x69))
PictureDisplay(5,"ev_sandw_h1",0,0,0,0,100,100,255,0)
ShowMessageFace("",0,0,2,4)
ShowMessage("Dahlia picks me out of her mouth and starts to lick the semen off my groin.")
ShowMessageFace("",0,0,2,5)
ShowMessage("\\n<Luka>Ahhh...")
ShowMessageFace("",0,0,2,6)
ShowMessage("Her slimy, gigantic tongue keeps licking me with long, slow strokes. Her saliva covers my body as she slowly licks up all the semen.")
ShowMessageFace("sandw_fc1",1,0,2,7)
ShowMessage("\\n<Dahlia>Delicious...")
ShowMessageFace("",0,0,2,8)
ShowMessage("\\n<Luka>Ahhh...")
ShowMessageFace("",0,0,2,9)
ShowMessage("My body shivers as her warm tongue runs up my body.")
ShowMessageFace("",0,0,2,10)
ShowMessage("Her gigantic tongue pushes into my body, as the tip keeps flicking and licking my penis.")
ShowMessageFace("",0,0,2,11)
ShowMessage("Dangling helplessly in midair, I can't do anything but allow her tongue to taste my body.")
ShowMessageFace("",0,0,2,12)
ShowMessage("\\n<Luka>Ahhh... That feels good...")
ShowMessageFace("sandw_fc1",1,0,2,13)
ShowMessage("\\n<Dahlia>*Lick* *Lick*")
ShowMessageFace("",0,0,2,14)
ShowMessage("*Lick* Her huge tongue crawls on my crotch.\nJust like licking a lollipop, my penis is getting licked all over.")
ShowMessageFace("",0,0,2,15)
ShowMessage("Her tongue gets even more forceful as she strains to get the last drops of semen off of my penis.")
ShowMessageFace("",0,0,2,16)
ShowMessage("She creates a funnel with the tip of her tip around my penis, and starts to forcefully suck on it to get out the semen still inside.")
ShowMessageFace("",0,0,2,17)
ShowMessage("\\n<Luka>Faaa... Your tongue...")
ShowMessageFace("sandw_fc1",1,0,2,18)
ShowMessage("\\n<Dahlia>Mmm... More semen is coming out...")
ShowMessageFace("",0,0,2,19)
ShowMessage("More pre-come is leaking out due to her pleasurable tongue. Happy at the additional semen, she continues sucking it out with increased force.")
ShowMessageFace("",0,0,2,20)
ShowMessage("\\n<Luka>Aiyee...! Aaaah...!!")
ShowMessageFace("sandw_fc1",1,0,2,21)
ShowMessage("\\n<Dahlia>*Lick* *Suck*")
ShowMessageFace("",0,0,2,22)
ShowMessage("Her saliva drenches the lower half of my body as her thick tongue continues to suck on me.")
ShowMessageFace("",0,0,2,23)
ShowMessage("The harshness of her tongue mixes with her sticky saliva, washing me with a sweet ecstasy.")
ShowMessageFace("",0,0,2,24)
ShowMessage("In almost no time since my last orgasm, I already feel another one boiling up.")
ShowMessageFace("",0,0,2,25)
ShowMessage("\\n<Luka>Auuu... I'm going to come again...")
ShowMessageFace("sandw_fc1",1,0,2,26)
ShowMessage("\\n<Dahlia>*Lick* *Suck*")
ShowMessageFace("",0,0,2,27)
ShowMessage("As my body starts to tremble at the coming orgasm, Dahlia's tongue starts to suck even harder in preparation.")
ShowMessageFace("",0,0,2,28)
ShowMessage("With her relentless tongue attacking me, my head goes white.")
ShowMessageFace("",0,0,2,29)
ShowMessage("\\n<Luka>Ahhhh!!")
RunCommonEvent(104)
PictureDisplay(5,"ev_sandw_h2",0,0,0,0,100,100,255,0)
RunCommonEvent(105)
ShowMessageFace("",0,0,2,30)
ShowMessage("I shoot out my semen all over her waiting tongue.\nHeld in the air and licked like this, she forced me to come again...")
ShowMessageFace("",0,0,2,31)
ShowMessage("\\n<Luka>Ahhh...")
ShowMessageFace("sandw_fc1",1,0,2,32)
ShowMessage("\\n<Dahlia>Mmm... More came out...")
ShowMessageFace("",0,0,2,33)
ShowMessage("Dahlia's tongue renews her licking as she makes sure to collect every drop.")
ShowMessageFace("",0,0,2,34)
ShowMessage("The sensation of being licked while ejaculating makes my waist tremble in pleasure.")
246(1)
ShowMessageFace("sandw_fc1",1,0,2,35)
ShowMessage("\\n<Dahlia>More...")
245(bytes(0x04,0x08,0x6f,0x3a,0x0d,0x52,0x50,0x47,0x3a,0x3a,0x42,0x47,0x53,0x08,0x3a,0x0a,0x40,0x6e,0x61,0x6d,0x65,0x49,0x22,0x10,0x6d,0x6f,0x6e,0x5f,0x68,0x76,0x6f,0x69,0x63,0x65,0x35,0x06,0x3a,0x06,0x45,0x54,0x3a,0x0c,0x40,0x76,0x6f,0x6c,0x75,0x6d,0x65,0x69,0x55,0x3a,0x0b,0x40,0x70,0x69,0x74,0x63,0x68,0x69,0x69))
PictureDisplay(5,"ev_sandw_h3",0,0,0,0,100,100,255,0)
ShowMessageFace("sandw_fc1",1,0,2,36)
ShowMessage("\\n<Dahlia>Mmmm *Suck*")
ShowMessageFace("",0,0,2,37)
ShowMessage("\\n<Luka>Ah...! Aieee!!")
ShowMessageFace("",0,0,2,38)
ShowMessage("Dahlia gently sucked the lower half of my body into her mouth. Everything from my waist down is stuck inside of her.")
ShowMessageFace("",0,0,2,39)
ShowMessage("\\n<Luka>Ahhhh!!")
ShowMessageFace("",0,0,2,40)
ShowMessage("My penis is forced against her slimy tongue.\nThe bizarre feeling was unlike anything I could have ever imagined.")
ShowMessageFace("sandw_fc1",1,0,2,41)
ShowMessage("\\n<Dahlia>*Suck* *Lick*")
PictureDisplay(6,"ev_sandw_ct01",0,0,0,0,100,100,255,0)
ShowMessageFace("",0,0,2,42)
ShowMessage("Saliva starts to secrete inside her mouth, soaking my body in it.")
ShowMessageFace("",0,0,2,43)
ShowMessage("\\n<Luka>Auu... It's so warm...")
ShowMessageFace("sandw_fc1",1,0,2,44)
ShowMessage("\\n<Dahlia>*Suck* *Lick*")
ShowMessageFace("",0,0,2,45)
ShowMessage("She narrows her cheeks as she starts to suck on my body.")
ShowMessageFace("",0,0,2,46)
ShowMessage("Her sucking motions start off slow, and her tongue starts to move around the lower half of my body.")
ShowMessageFace("",0,0,2,47)
ShowMessage("Unable to even see what's going on inside her mouth, the pleasure starts to put me into a trance.")
ShowMessageFace("",0,0,2,48)
ShowMessage("\\n<Luka>Aaah... That feels good...")
ShowMessageFace("sandw_fc1",1,0,2,49)
ShowMessage("\\n<Dahlia>*Suck* *Lick*")
ShowMessageFace("",0,0,2,50)
ShowMessage("Her sucking motions cause her lips to move on my body.")
ShowMessageFace("",0,0,2,51)
ShowMessage("Moving from my chest to my belly button, the friction brings a warming pleasure to my body as the saliva covers more of my body.")
ShowMessageFace("",0,0,2,52)
ShowMessage("\\n<Luka>Faaa... Incredible...")
ShowMessageFace("sandw_fc1",1,0,2,53)
ShowMessage("\\n<Dahlia>Your penis is delicious...")
ShowMessageFace("",0,0,2,54)
ShowMessage("Her thick tongue starts to play with my penis.")
ShowMessageFace("",0,0,2,55)
ShowMessage("She uses her tongue to force my body onto the roof of her mouth, as she gently flicks my penis.")
ShowMessageFace("",0,0,2,56)
ShowMessage("Wrapped in her tongue, I explode inside of her mouth.")
ShowMessageFace("",0,0,2,57)
ShowMessage("My penis starts trembling from her skillful tongue.\nI feel I'm about to ejaculate...")
ShowMessageFace("",0,0,2,58)
ShowMessage("\\n<Luka>Auu... I'm going to come again...")
ShowMessageFace("",0,0,2,59)
ShowMessage("I yell out as it feels like my lower body is melting in pleasure. Wrapped in her mouth and attacked by her tongue, there's no way I can hold on any longer...")
ShowMessageFace("sandw_fc1",1,0,2,60)
ShowMessage("\\n<Dahlia>Mmmm... *Lick*\nI want more of your delicious semen...")
ShowMessageFace("",0,0,2,61)
ShowMessage("\\n<Luka>Aaaaaah!!")
ShowMessageFace("",0,0,2,62)
ShowMessage("Dalia's tongue clings to the tip of my penis, then...")
RunCommonEvent(104)
PictureDisplay(5,"ev_sandw_h4",0,0,0,0,100,100,255,0)
PictureDisplay(6,"ev_sandw_ct02",0,0,0,0,100,100,255,0)
RunCommonEvent(105)
ShowMessageFace("sandw_fc1",1,0,2,63)
ShowMessage("\\n<Dahlia>Mmm... *Slurrrrrp*")
ShowMessageFace("",0,0,2,64)
ShowMessage("A strong suction pulls violently at my body as Dahlia sucks down my semen as I shoot it out.")
ShowMessageFace("",0,0,2,65)
ShowMessage("\\n<Luka>Ahh... Your sucking...")
ShowMessageFace("sandw_fc1",1,0,2,66)
ShowMessage("\\n<Dahlia>*Suck* *Suck*")
ShowMessageFace("",0,0,2,67)
ShowMessage("Even after she finished drinking down the last of my semen, she continues sucking on me.")
ShowMessageFace("",0,0,2,68)
ShowMessage("\\n<Luka>Aiyeee...! Aaaah...!!")
ShowMessageFace("",0,0,2,69)
ShowMessage("The upper half of my body writhes in futility as her lips tighten around my body.")
ShowMessageFace("",0,0,2,70)
ShowMessage("With my lower half inside her mouth and suspended so far above the ground, there's no escape...")
ShowMessageFace("",0,0,2,71)
ShowMessage("\\n<Luka>Hyaaa...! Aaaaaah!!")
ShowMessageFace("",0,0,2,72)
ShowMessage("Her mouth narrows as the suction increases.\nIt feels as though the entire lower half of my body is being squeezed between the roof of her mouth and her tongue.")
ShowMessageFace("",0,0,2,73)
ShowMessage("As if sucking everything directly out of me by sheer force, my body relaxes as I give in again.")
RunCommonEvent(104)
PictureDisplay(5,"ev_sandw_h5",0,0,0,0,100,100,255,0)
PictureDisplay(6,"ev_sandw_ct03",0,0,0,0,100,100,255,0)
RunCommonEvent(105)
ShowMessageFace("",0,0,2,74)
ShowMessage("\\n<Luka>Aaah...")
ShowMessageFace("sandw_fc1",1,0,2,75)
ShowMessage("\\n<Dahlia>*Suck* *Suck*")
ShowMessageFace("",0,0,2,76)
ShowMessage("She fiercely sucks on me after every spurt of semen, swallowing it down as fast as it comes out.")
ShowMessageFace("",0,0,2,77)
ShowMessage("Not stopping for a single moment, she quickly forces me to another ejaculation right after my last.")
RunCommonEvent(104)
RunCommonEvent(105)
ShowMessageFace("",0,0,2,78)
ShowMessage("\\n<Luka>Aaaaah...")
ShowMessageFace("",0,0,2,79)
ShowMessage("Unable to do anything, I finally surrender to her mouth.")
ShowMessageFace("",0,0,2,80)
ShowMessage("With all of my power drained, I accept being sucked by her.")
ShowMessageFace("sandw_fc1",1,0,2,81)
ShowMessage("\\n<Dahlia>*Suck* *Suck*")
ShowMessageFace("",0,0,2,82)
ShowMessage("\\n<Luka>Huaaa...")
RunCommonEvent(104)
PictureDisplay(6,"ev_sandw_ct04",0,0,0,0,100,100,255,0)
RunCommonEvent(105)
ShowMessageFace("",0,0,2,83)
ShowMessage("Each orgasm makes me feel even weaker.\nAfter the repeated orgasms, I'm too exhausted to even move my head.")
ShowMessageFace("",0,0,2,84)
ShowMessage("Even though I know that if she keeps sucking on me, I'll die...")
ShowMessageFace("",0,0,2,85)
ShowMessage("I can't do anything but drown in the pleasure.\nEven though I know it's killing me, I want to feel even more...")
ShowMessageFace("",0,0,2,86)
ShowMessage("\\n<Luka>Aaaaah...")
RunCommonEvent(104)
RunCommonEvent(105)
ShowMessageFace("",0,0,2,87)
ShowMessage("A white fog envelops me as my consciousness starts to fade. Dahlia is sucking everything out of me...")
ShowMessageFace("",0,0,2,88)
ShowMessage("Until nothing's left, I'll be sucked in her mouth...")
RunCommonEvent(104)
RunCommonEvent(105)
221()
PictureClear(5)
PictureClear(6)
246(2)
ShowMessageFace("sandw_fc1",2,0,2,89)
ShowMessage("\\n<Dahlia>I sucked too much... I'm sorry...")
ShowMessageFace("",0,0,2,90)
ShowMessage("Dahlia sucked every drop out of me, leaving only a shriveled up corpse behind. A miserable end for those who seek pleasure from dangerous monsters...")
ShowMessageFace("",0,0,2,91)
ShowMessage("......")
242(2)
Wait(120)
ChangeVariable(1002,1002,0,0,0)
216(1)
355("forced_transfer(154,18,52)")
355("release_temp_actors")
355("$game_map.screen.clear")
0()
