// EVENT 0336
Name "Esta Arrival"

If(1,1062,0,0,0)
 ShowMessageFace("",0,0,2,1)
 ShowMessage("There's a guard posted at the entrance to town...")
 ShowMessageFace("",0,0,2,2)
 ShowMessage("\\n<Guard>By orders of Her Majesty the Queen, entry into Esta is forbidden to anyone not part of the official investigation.")
 If(0,4,0)
  ShowMessageFace("alice_fc5",3,0,2,3)
  ShowMessage("\\n<Alice>Bah, it looks like we can't get in. Our best bet is to get permission from the queen.")
  0()
 EndIf()
 If(0,5,0)
  ShowMessageFace("iriasu_fc4",2,0,2,4)
  ShowMessage("\\n<Ilias>I'll bring the wrath of the Heavens down on you for not letting us in... Anyway, let's get permission from the queen.")
  0()
 EndIf()
 If(0,6,0)
  If(4,129,0)
   ShowMessageFace("brunhild_fc1",0,0,2,5)
   ShowMessage("\\n<Hild>Considering the difference in our combat capabilities, we can easily force our way in. Initiate combat sequence?")
   ShowMessageFace("sonia_fc2",5,0,2,6)
   ShowMessage("\\n<Sonya>NO!!")
   0()
  EndIf()
  0()
 EndIf()
 EndEventProcessing()
 0()
EndIf()
If(1,1062,0,1,0)
 ShowMessageFace("",0,0,2,7)
 ShowMessage("There's a guard posted at the entrance to town...")
 ShowMessageFace("",0,0,2,8)
 ShowMessage("\\n<Guard>Hero Luka? You may pass. Good luck with the investigation.")
 If(0,4,0)
  ShowMessageFace("alice_fc5",0,0,2,9)
  ShowMessage("\\n<Alice>Everyone from this town mysteriously disappeared, and it happens to be right next to a Tartarus rift...")
  ShowMessageFace("alice_fc5",0,0,2,10)
  ShowMessage("\\n<Alice>Let's leave no stone unturned. Come on!")
  0()
 EndIf()
 If(0,5,0)
  ShowMessageFace("iriasu_fc4",7,0,2,11)
  ShowMessage("\\n<Ilias>It baffles me as to how everyone from this town disappeared. It does happen to be right next to a Tartarus rift...")
  ShowMessageFace("iriasu_fc4",7,0,2,12)
  ShowMessage("\\n<Ilias>We must thoroughly investigate every nook and cranny. Let's not waste any more time!")
  0()
 EndIf()
 If(4,41,0)
  ShowMessageFace("stein_fc2",1,0,2,13)
  ShowMessage("\\n<Promestein>I'm all prepared to collect samples. I'm giddy at the prospects of what we might find...")
  If(4,167,0)
   ShowMessageFace("lusia_fc1",0,0,2,14)
   ShowMessage("\\n<Lucia>I'll assist you in collecting samples. There may be things that only a scientist would notice.")
   ShowMessageFace("stein_fc2",1,0,2,15)
   ShowMessage("\\n<Promestein>Excellent. I'm happy to have another like-minded individual around.")
   0()
  EndIf()
  0()
 EndIf()
 ShowMessageFace("",0,0,2,16)
 ShowMessage("Thus, we enter the place where all those people disappeared...")
 ChangeSwitch(127,127,0)
 ChangeSwitch(228,228,0)
 ChangeSwitch(100,100,0)
 281(0)
 250(bytes(0x04,0x08,0x6f,0x3a,0x0c,0x52,0x50,0x47,0x3a,0x3a,0x53,0x45,0x08,0x3a,0x0a,0x40,0x6e,0x61,0x6d,0x65,0x49,0x22,0x09,0x4d,0x6f,0x76,0x65,0x06,0x3a,0x06,0x45,0x54,0x3a,0x0b,0x40,0x70,0x69,0x74,0x63,0x68,0x69,0x69,0x3a,0x0c,0x40,0x76,0x6f,0x6c,0x75,0x6d,0x65,0x69,0x55))
 216(1)
 TeleportPlayer(0,733,1,25,6,1)
 ShowMessageFace("ruka_fc1",0,0,2,17)
 ShowMessage("\\n<Luka>Huh...? Where in the world?")
 ShowMessageFace("ruka_fc1",0,0,2,18)
 ShowMessage("\\n<Luka>Wait, why am I alone? Where did my party go!?")
 EndEventProcessing()
 0()
EndIf()
If(1,1062,0,2,1)
 281(0)
 250(bytes(0x04,0x08,0x6f,0x3a,0x0c,0x52,0x50,0x47,0x3a,0x3a,0x53,0x45,0x08,0x3a,0x0a,0x40,0x6e,0x61,0x6d,0x65,0x49,0x22,0x09,0x4d,0x6f,0x76,0x65,0x06,0x3a,0x06,0x45,0x54,0x3a,0x0b,0x40,0x70,0x69,0x74,0x63,0x68,0x69,0x69,0x3a,0x0c,0x40,0x76,0x6f,0x6c,0x75,0x6d,0x65,0x69,0x55))
 TeleportPlayer(0,33,1,34,6,0)
 EndEventProcessing()
 0()
EndIf()
0()
