// EVENT 4508
Name "Bandersnatch Girl 3"

If(0,25,1)
 221()
 PictureClear(5)
 PictureClear(6)
 ShowMessageFace("",0,0,2,0)
 ShowMessage("......")
 242(2)
 Wait(120)
 241(bytes(0x04,0x08,0x6f,0x3a,0x0d,0x52,0x50,0x47,0x3a,0x3a,0x42,0x47,0x4d,0x08,0x3a,0x0a,0x40,0x6e,0x61,0x6d,0x65,0x49,0x22,0x0c,0x63,0x61,0x73,0x74,0x6c,0x65,0x36,0x06,0x3a,0x06,0x45,0x54,0x3a,0x0c,0x40,0x76,0x6f,0x6c,0x75,0x6d,0x65,0x69,0x69,0x3a,0x0b,0x40,0x70,0x69,0x74,0x63,0x68,0x69,0x69))
 EndEventProcessing()
 0()
EndIf()
PictureDisplay(5,"80_bander_st01",0,0,0,0,100,100,255,0)
ShowMessageFace("bander_fc1",0,0,2,1)
ShowMessage("\\n<Banachi>You're staring at my breasts...\nDo you want to taste pleasure in my breasts?")
ShowMessageFace("",0,0,2,2)
ShowMessage("\\n<Luka>Y-yes...\nBut, I don't want my energy drained...")
PictureDisplay(5,"80_bander_st02",0,0,0,0,100,100,255,0)
ShowMessageFace("bander_fc1",1,0,2,3)
ShowMessage("\\n<Banachi>You just want pleasure, without giving anything in trade?\nWhat a greedy boy... Well, just this once.")
ShowMessageFace("",0,0,2,4)
ShowMessage("Banachi's huge arm grabs hold of me.")
241(bytes(0x04,0x08,0x6f,0x3a,0x0d,0x52,0x50,0x47,0x3a,0x3a,0x42,0x47,0x4d,0x08,0x3a,0x0a,0x40,0x6e,0x61,0x6d,0x65,0x49,0x22,0x09,0x65,0x72,0x6f,0x31,0x06,0x3a,0x06,0x45,0x54,0x3a,0x0c,0x40,0x76,0x6f,0x6c,0x75,0x6d,0x65,0x69,0x69,0x3a,0x0b,0x40,0x70,0x69,0x74,0x63,0x68,0x69,0x69))
245(bytes(0x04,0x08,0x6f,0x3a,0x0d,0x52,0x50,0x47,0x3a,0x3a,0x42,0x47,0x53,0x08,0x3a,0x0a,0x40,0x6e,0x61,0x6d,0x65,0x49,0x22,0x17,0x6d,0x6f,0x6e,0x5f,0x68,0x73,0x65,0x61,0x6e,0x31,0x37,0x5f,0x73,0x69,0x67,0x6f,0x6b,0x69,0x06,0x3a,0x06,0x45,0x54,0x3a,0x0c,0x40,0x76,0x6f,0x6c,0x75,0x6d,0x65,0x69,0x55,0x3a,0x0b,0x40,0x70,0x69,0x74,0x63,0x68,0x69,0x69))
PictureDisplay(5,"ev_bander_hc1",0,0,0,0,100,100,0,0)
PictureMove(5,null,0,0,0,0,100,100,255,0,30,true)
ShowMessageFace("",0,0,2,5)
ShowMessage("Banachi pushes my body tightly against her.")
ShowMessage("No... It might be more accurate to say she's pressing me up against her breasts.")
ShowMessageFace("",0,0,2,6)
ShowMessage("My penis is buried deep into her breasts.")
ShowMessageFace("",0,0,2,7)
ShowMessage("\\n<Luka>Ah, Ooooh...!")
ShowMessageFace("",0,0,2,8)
ShowMessage("Her soft, warm breasts press against me.")
ShowMessage("I feel like I could melt between her huge breasts.")
ShowMessageFace("",0,0,2,9)
ShowMessage("\\n<Luka>Amazing... They're so soft...")
ShowMessageFace("",0,0,2,10)
ShowMessage("They're so huge and soft, I could sink into them.")
ShowMessage("With my penis pressed between them, this is truly like heaven.")
ShowMessageFace("",0,0,2,11)
ShowMessage("With my whole body almost buried under them, I can feel their softness all over.")
ShowMessage("I quickly go limp at the excessive pleasure.")
ShowMessageFace("",0,0,2,12)
ShowMessage("\\n<Luka>Aaah...Huaaa...")
ShowMessageFace("bander_fc1",1,0,2,13)
ShowMessage("\\n<Banachi>What's wrong? I'm not draining your energy...\nYet why are you so limp in pleasure?")
ShowMessageFace("bander_fc1",1,0,2,14)
ShowMessage("\\n<Banachi>You're a lucky man...\nAble to taste these breasts, only for pleasure...")
ShowMessageFace("",0,0,2,15)
ShowMessage("\\n<Luka>Nnngh...")
ShowMessageFace("",0,0,2,16)
ShowMessage("Drowning in her soft breasts, I'm left totally weak.")
ShowMessage("My buried penis rubs against her smooth skin with every movement.")
ShowMessageFace("",0,0,2,17)
ShowMessage("This sweet comfort brings me close to a climax.")
ShowMessage("Drowning in her breasts, I'm going to come...")
ShowMessageFace("bander_fc1",1,0,2,18)
ShowMessage("\\n<Banachi>Are you going to come...?\nDon't hold back, just let go...")
ShowMessageFace("",0,0,2,19)
ShowMessage("\\n<Luka>Unnngh...")
ShowMessageFace("",0,0,2,20)
ShowMessage("I want to come while feeling these breasts.")
ShowMessage("I give myself over to that desire.")
ShowMessageFace("",0,0,2,21)
ShowMessage("\\n<Luka>Ah... Coming! Aah...")
RunCommonEvent(104)
PictureDisplay(5,"ev_bander_hc2",0,0,0,0,100,100,255,0)
RunCommonEvent(105)
ShowMessageFace("",0,0,2,22)
ShowMessage("My penis pulses in her soft breasts.")
ShowMessage("My semen scatters all over her breasts, dirtying her.")
ShowMessageFace("",0,0,2,23)
ShowMessage("As I come, my penis is rubbed against her skin.")
ShowMessage("Feeling everything, I'm immersed in heaven until my climax is over.")
ShowMessageFace("",0,0,2,24)
ShowMessage("\\n<Luka>Nnngh...")
ShowMessageFace("bander_fc1",1,0,2,25)
ShowMessage("\\n<Banachi>Fufu... Such a quick orgasm.\nAll just from being pressed against my breasts.")
ShowMessageFace("bander_fc1",1,0,2,26)
ShowMessage("\\n<Banachi>Are you satisfied with just this?\nYou should drown in my breasts to your heart's content...")
ShowMessageFace("",0,0,2,27)
ShowMessage("\\n<Luka>Ah... Nnngh...")
ShowMessageFace("",0,0,2,28)
ShowMessage("Her soft breasts press against me from both sides.")
ShowMessage("My penis sinks into them as she presses them together.")
ShowMessageFace("",0,0,2,29)
ShowMessage("It feels like my whole body is rubbing against her softness.")
ShowMessage("It's a truly heavenly feeling.")
ShowMessageFace("",0,0,2,30)
ShowMessage("\\n<Luka>Ah, aaah...")
ShowMessageFace("",0,0,2,31)
ShowMessage("Totally weak to this feeling, I moan without holding back.")
ShowMessage("I surrender myself to Banachi's breasts.")
ShowMessageFace("bander_fc1",1,0,2,32)
ShowMessage("\\n<Banachi>Fufu, how sad...\nGive your precious semen to my breasts...")
ShowMessageFace("",0,0,2,33)
ShowMessage("Banachi moves her breasts up and down, rubbing my penis against them.")
ShowMessage("The sweet oppression forces me to an instant climax.")
ShowMessageFace("",0,0,2,34)
ShowMessage("\\n<Luka>Ah, aaaaaah!!")
RunCommonEvent(104)
PictureDisplay(5,"ev_bander_hc3",0,0,0,0,100,100,255,0)
RunCommonEvent(105)
ShowMessageFace("",0,0,2,35)
ShowMessage("I'm led to a quick forced orgasm.")
ShowMessage("My semen overflows from between her breasts, leaking out.")
ShowMessageFace("bander_fc1",1,0,2,36)
ShowMessage("\\n<Banachi>I'll squeeze out more...\nDrown in my breasts until you're satisfied.")
ShowMessageFace("",0,0,2,37)
ShowMessage("\\n<Luka>Nnngh...")
ShowMessageFace("",0,0,2,38)
ShowMessage("Drowning in breasts, coming over and over...")
ShowMessage("This is just what I desired.")
ShowMessageFace("",0,0,2,39)
ShowMessage("My penis trembles in pure joy between her breasts.")
ShowMessage("Enjoying the pleasure of a male, I just climax without holding back.")
ShowMessageFace("",0,0,2,40)
ShowMessage("My mind and body are both in Banachi's control.")
ShowMessage("Drowning in pleasure with no compensation...")
ShowMessageFace("bander_fc1",1,0,2,41)
ShowMessage("\\n<Banachi>Not holding back at all?\nCome all over my breasts...")
ShowMessageFace("",0,0,2,42)
ShowMessage("\\n<Luka>Nnngh... Ah, aaaah...!!")
246(2)
RunCommonEvent(104)
PictureDisplay(5,"ev_bander_hc4",0,0,0,0,100,100,255,0)
RunCommonEvent(105)
ShowMessageFace("",0,0,2,43)
ShowMessage("A huge amount of semen drips out from between her breasts.")
ShowMessage("Left too weak after my orgasms, I start to lose consciousness.")
ShowMessageFace("bander_fc1",1,0,2,44)
ShowMessage("\\n<Banachi>Are you satisfied with that?\nYou're the only one I'll allow to use my breasts only for pleasure.")
ShowMessageFace("bander_fc1",1,0,2,45)
ShowMessage("\\n<Banachi>But next time, I'll drain your energy.\nYou'll need to give me a lot in gratitude...")
ShowMessageFace("",0,0,2,46)
ShowMessage("Releasing my limp body, Banachi laughs.")
221()
PictureClear(5)
PictureClear(6)
ShowMessageFace("",0,0,2,47)
ShowMessage("......")
242(2)
Wait(120)
241(bytes(0x04,0x08,0x6f,0x3a,0x0d,0x52,0x50,0x47,0x3a,0x3a,0x42,0x47,0x4d,0x08,0x3a,0x0a,0x40,0x6e,0x61,0x6d,0x65,0x49,0x22,0x0c,0x63,0x61,0x73,0x74,0x6c,0x65,0x36,0x06,0x3a,0x06,0x45,0x54,0x3a,0x0c,0x40,0x76,0x6f,0x6c,0x75,0x6d,0x65,0x69,0x69,0x3a,0x0b,0x40,0x70,0x69,0x74,0x63,0x68,0x69,0x69))
0()
