﻿// EVENT 0806
Name "器速武器レジェンド"

ChangeVariable(11,11,0,2,1,42)
If(1,11,0,1,0)
 ChangeInventoryWeapon(1021,0,0,1,false)
 EndEventProcessing()
 0()
EndIf()
If(1,11,0,2,0)
 ChangeInventoryWeapon(1022,0,0,1,false)
 EndEventProcessing()
 0()
EndIf()
If(1,11,0,3,0)
 ChangeInventoryWeapon(1023,0,0,1,false)
 EndEventProcessing()
 0()
EndIf()
If(1,11,0,4,0)
 ChangeInventoryWeapon(1371,0,0,1,false)
 EndEventProcessing()
 0()
EndIf()
If(1,11,0,5,0)
 ChangeInventoryWeapon(1372,0,0,1,false)
 EndEventProcessing()
 0()
EndIf()
If(1,11,0,6,0)
 ChangeInventoryWeapon(1373,0,0,1,false)
 EndEventProcessing()
 0()
EndIf()
If(1,11,0,7,0)
 ChangeInventoryWeapon(1374,0,0,1,false)
 EndEventProcessing()
 0()
EndIf()
If(1,11,0,8,0)
 ChangeInventoryWeapon(1375,0,0,1,false)
 EndEventProcessing()
 0()
EndIf()
If(1,11,0,9,0)
 ChangeInventoryWeapon(1671,0,0,1,false)
 EndEventProcessing()
 0()
EndIf()
If(1,11,0,10,0)
 ChangeInventoryWeapon(1672,0,0,1,false)
 EndEventProcessing()
 0()
EndIf()
If(1,11,0,11,0)
 ChangeInventoryWeapon(1673,0,0,1,false)
 EndEventProcessing()
 0()
EndIf()
If(1,11,0,12,0)
 ChangeInventoryWeapon(1674,0,0,1,false)
 EndEventProcessing()
 0()
EndIf()
If(1,11,0,13,0)
 ChangeInventoryWeapon(1675,0,0,1,false)
 EndEventProcessing()
 0()
EndIf()
If(1,11,0,14,0)
 ChangeInventoryWeapon(1771,0,0,1,false)
 EndEventProcessing()
 0()
EndIf()
If(1,11,0,15,0)
 ChangeInventoryWeapon(1772,0,0,1,false)
 EndEventProcessing()
 0()
EndIf()
If(1,11,0,16,0)
 ChangeInventoryWeapon(1773,0,0,1,false)
 EndEventProcessing()
 0()
EndIf()
If(1,11,0,17,0)
 ChangeInventoryWeapon(1774,0,0,1,false)
 EndEventProcessing()
 0()
EndIf()
If(1,11,0,18,0)
 ChangeInventoryWeapon(2571,0,0,1,false)
 EndEventProcessing()
 0()
EndIf()
If(1,11,0,19,0)
 ChangeInventoryWeapon(2572,0,0,1,false)
 EndEventProcessing()
 0()
EndIf()
If(1,11,0,20,0)
 ChangeInventoryWeapon(2573,0,0,1,false)
 EndEventProcessing()
 0()
EndIf()
If(1,11,0,21,0)
 ChangeInventoryWeapon(2574,0,0,1,false)
 EndEventProcessing()
 0()
EndIf()
If(1,11,0,22,0)
 ChangeInventoryWeapon(2671,0,0,1,false)
 EndEventProcessing()
 0()
EndIf()
If(1,11,0,23,0)
 ChangeInventoryWeapon(2672,0,0,1,false)
 EndEventProcessing()
 0()
EndIf()
If(1,11,0,24,0)
 ChangeInventoryWeapon(2673,0,0,1,false)
 EndEventProcessing()
 0()
EndIf()
If(1,11,0,25,0)
 ChangeInventoryWeapon(2674,0,0,1,false)
 EndEventProcessing()
 0()
EndIf()
If(1,11,0,26,0)
 ChangeInventoryWeapon(2675,0,0,1,false)
 EndEventProcessing()
 0()
EndIf()
If(1,11,0,27,0)
 ChangeInventoryWeapon(2871,0,0,1,false)
 EndEventProcessing()
 0()
EndIf()
If(1,11,0,28,0)
 ChangeInventoryWeapon(2872,0,0,1,false)
 EndEventProcessing()
 0()
EndIf()
If(1,11,0,29,0)
 ChangeInventoryWeapon(2873,0,0,1,false)
 EndEventProcessing()
 0()
EndIf()
If(1,11,0,30,0)
 ChangeInventoryWeapon(3771,0,0,1,false)
 EndEventProcessing()
 0()
EndIf()
If(1,11,0,31,0)
 ChangeInventoryWeapon(3772,0,0,1,false)
 EndEventProcessing()
 0()
EndIf()
If(1,11,0,32,0)
 ChangeInventoryWeapon(3773,0,0,1,false)
 EndEventProcessing()
 0()
EndIf()
If(1,11,0,33,0)
 ChangeInventoryWeapon(3774,0,0,1,false)
 EndEventProcessing()
 0()
EndIf()
If(1,11,0,34,0)
 ChangeInventoryWeapon(3775,0,0,1,false)
 EndEventProcessing()
 0()
EndIf()
If(1,11,0,35,0)
 ChangeInventoryWeapon(1024,0,0,1,false)
 EndEventProcessing()
 0()
EndIf()
If(1,11,0,36,0)
 ChangeInventoryWeapon(2575,0,0,1,false)
 EndEventProcessing()
 0()
EndIf()
If(1,11,0,37,0)
 ChangeInventoryWeapon(1376,0,0,1,false)
 EndEventProcessing()
 0()
EndIf()
If(1,11,0,38,0)
 ChangeInventoryWeapon(1676,0,0,1,false)
 EndEventProcessing()
 0()
EndIf()
If(1,11,0,39,0)
 ChangeInventoryWeapon(1775,0,0,1,false)
 EndEventProcessing()
 0()
EndIf()
If(1,11,0,40,0)
 ChangeInventoryWeapon(2874,0,0,1,false)
 EndEventProcessing()
 0()
EndIf()
If(1,11,0,41,0)
 ChangeInventoryWeapon(3776,0,0,1,false)
 EndEventProcessing()
 0()
EndIf()
If(1,11,0,42,0)
 ChangeInventoryWeapon(2676,0,0,1,false)
 EndEventProcessing()
 0()
EndIf()
0()
