// EVENT 4095
Name "Rami 5"

If(0,25,1)
 221()
 PictureClear(5)
 PictureClear(6)
 ShowMessageFace("",0,0,2,0)
 ShowMessage("......")
 242(2)
 Wait(120)
 241(bytes(0x04,0x08,0x6f,0x3a,0x0d,0x52,0x50,0x47,0x3a,0x3a,0x42,0x47,0x4d,0x08,0x3a,0x0a,0x40,0x6e,0x61,0x6d,0x65,0x49,0x22,0x0c,0x63,0x61,0x73,0x74,0x6c,0x65,0x36,0x06,0x3a,0x06,0x45,0x54,0x3a,0x0c,0x40,0x76,0x6f,0x6c,0x75,0x6d,0x65,0x69,0x69,0x3a,0x0b,0x40,0x70,0x69,0x74,0x63,0x68,0x69,0x69))
 EndEventProcessing()
 0()
EndIf()
PictureDisplay(5,"80_inp_st02",0,0,0,0,100,100,255,0)
ShowMessageFace("inp_fc1",1,0,2,1)
ShowMessage("\\n<Rami>You want me to milk you with my breasts?\nYou really love my breasts, huh? ♪")
ShowMessageFace("",0,0,2,2)
ShowMessage("\\n<Luka>P-please...")
ShowMessageFace("",0,0,2,3)
ShowMessage("Rami giggles at me as I timidly nod.")
ShowMessage("A superior smile crosses her face.")
ShowMessageFace("inp_fc1",1,0,2,4)
ShowMessage("\\n<Rami>I'll wear the bathing suit!\nThen milk you lots. ♪")
ShowMessageFace("",0,0,2,5)
ShowMessage("I followed Rami to her room...")
221()
PictureClear(5)
PictureDisplay(1,"bg195",0,0,0,0,100,100,255,0)
PictureDisplay(5,"ev_inp_hg1",0,0,0,0,100,100,255,0)
222()
241(bytes(0x04,0x08,0x6f,0x3a,0x0d,0x52,0x50,0x47,0x3a,0x3a,0x42,0x47,0x4d,0x08,0x3a,0x0a,0x40,0x6e,0x61,0x6d,0x65,0x49,0x22,0x09,0x65,0x72,0x6f,0x31,0x06,0x3a,0x06,0x45,0x54,0x3a,0x0c,0x40,0x76,0x6f,0x6c,0x75,0x6d,0x65,0x69,0x69,0x3a,0x0b,0x40,0x70,0x69,0x74,0x63,0x68,0x69,0x69))
245(bytes(0x04,0x08,0x6f,0x3a,0x0d,0x52,0x50,0x47,0x3a,0x3a,0x42,0x47,0x53,0x08,0x3a,0x0a,0x40,0x6e,0x61,0x6d,0x65,0x49,0x22,0x17,0x6d,0x6f,0x6e,0x5f,0x68,0x73,0x65,0x61,0x6e,0x31,0x37,0x5f,0x73,0x69,0x67,0x6f,0x6b,0x69,0x06,0x3a,0x06,0x45,0x54,0x3a,0x0c,0x40,0x76,0x6f,0x6c,0x75,0x6d,0x65,0x69,0x55,0x3a,0x0b,0x40,0x70,0x69,0x74,0x63,0x68,0x69,0x69))
ShowMessageFace("",0,0,2,6)
ShowMessage("Rami approaches me as soon as I enter the room.")
ShowMessage("Tearing off my clothes, she places her huge breasts onto my groin.")
ShowMessageFace("",0,0,2,7)
ShowMessage("My penis is buried in her huge breasts, wrapping me up in her softness!")
ShowMessageFace("",0,0,2,8)
ShowMessage("\\n<Luka>Unnngh...")
ShowMessageFace("",0,0,2,9)
ShowMessage("Strength leaves my body as my penis is pressed between her large breasts.")
ShowMessage("The Imp uses her hands to press her breasts together even harder.")
ShowMessageFace("",0,0,2,10)
ShowMessage("It feels so good, you would think her breasts were designed to be genitals themselves.")
ShowMessageFace("inp_fc1",1,0,2,11)
ShowMessage("\\n<Rami>Ehehe... My breasts feel good, don't they?\nAnd while wearing a swimsuit, too!")
ShowMessageFace("inp_fc1",1,0,2,12)
ShowMessage("\\n<Rami>If I wear this, my breasts will press together and be even tighter.\nSo you'll be in heaven in no time~♪")
ShowMessageFace("",0,0,2,13)
ShowMessage("\\n<Luka>S...Stop...Unnngh...")
ShowMessageFace("",0,0,2,14)
ShowMessage("Rami presses her breasts together even harder, shaking them up and down at the same time.")
ShowMessageFace("",0,0,2,15)
ShowMessage("The feeling of her tight breasts makes me feel weak in ecstasy. With her on top of me, I can't even pull out.")
ShowMessageFace("inp_fc1",1,0,2,16)
ShowMessage("\\n<Rami>Ahaha, you can't move anymore?\nYou can't resist the power of the swimsuit. ♪")
ShowMessageFace("inp_fc1",1,0,2,17)
ShowMessage("\\n<Rami>All right, I'll make you come now.\nGo ahead, you can come all over my breasts. ♪")
ShowMessageFace("",0,0,2,18)
ShowMessage("Rami wiggles her body, shaking her breasts side to side. It feels like a marshmallow heaven between her breasts.")
ShowMessageFace("",0,0,2,19)
ShowMessage("\\n<Luka>Unnngh...I'm coming already...")
ShowMessageFace("inp_fc1",1,0,2,20)
ShowMessage("\\n<Rami>Ahaha, come, come! ♪\nYou're just another victim of a little Imp now. ♪")
ShowMessageFace("",0,0,2,21)
ShowMessage("Rami giggles and smiles, pressing her breasts tighter together.")
ShowMessage("Like that, she bounces her breasts up and down...")
ShowMessageFace("",0,0,2,22)
ShowMessage("\\n<Luka>Ah, aaaaaah!")
RunCommonEvent(104)
PictureDisplay(5,"ev_inp_hg2",0,0,0,0,100,100,255,0)
RunCommonEvent(105)
ShowMessageFace("",0,0,2,23)
ShowMessage("I explode between her breasts.")
ShowMessage("Wrapped in her softness, it feels amazing with every pulse of semen.")
ShowMessageFace("inp_fc1",1,0,2,24)
ShowMessage("\\n<Rami>Aha, you're coming, you're coming...♪\nSquish squish.")
ShowMessageFace("",0,0,2,25)
ShowMessage("Even as I come, Rami presses her breasts together.")
ShowMessageFace("",0,0,2,26)
ShowMessage("Milked by her breasts, she squeezes out every drop from me.")
ShowMessageFace("",0,0,2,27)
ShowMessage("\\n<Luka>Ah, unnngh...")
ShowMessageFace("",0,0,2,28)
ShowMessage("Such an easy ejaculation, caught between her breasts... I feel a little pitiful at how easy I came.")
ShowMessageFace("",0,0,2,29)
ShowMessage("But Rami doesn't let me go yet...")
ShowMessageFace("inp_fc1",1,0,2,30)
ShowMessage("\\n<Rami>Ehehe, you came all over my breasts. ♪\nBut I'm going to squeeze more of your milk out. ♪")
ShowMessageFace("",0,0,2,31)
ShowMessage("\\n<Luka>Let's stop...Hnnngh...!")
ShowMessageFace("",0,0,2,32)
ShowMessage("Rami bounces her breasts up and down, forcing more pleasure into me.")
ShowMessageFace("",0,0,2,33)
ShowMessage("Even more stimulation, after I had already yielded to her.")
ShowMessage("The ticklish sensation makes my waist go numb again.")
ShowMessageFace("",0,0,2,34)
ShowMessage("\\n<Luka>Ah... Hyaaa...!!")
ShowMessageFace("",0,0,2,35)
ShowMessage("Being crushed by her breasts feels so good.")
ShowMessage("The intense ecstasy makes my head go white.")
ShowMessageFace("",0,0,2,36)
ShowMessage("All my strength fades as I give in.")
RunCommonEvent(104)
PictureDisplay(5,"ev_inp_hg3",0,0,0,0,100,100,255,0)
RunCommonEvent(105)
ShowMessageFace("",0,0,2,37)
ShowMessage("\\n<Luka>Nnngh...")
ShowMessageFace("",0,0,2,38)
ShowMessage("In only moments, I defile Rami's breasts again.")
ShowMessage("Overflowing from my penis, my semen drips off of her breasts.")
ShowMessageFace("inp_fc1",1,0,2,39)
ShowMessage("\\n<Rami>Ahaha... A little bit of bullying and your penis comes right away.\nYou came twice in no time. ♪")
ShowMessageFace("inp_fc1",1,0,2,40)
ShowMessage("\\n<Rami>Look at it all, too. ♪")
ShowMessageFace("",0,0,2,41)
ShowMessage("While giggling, Rami continues to toy with me.")
ShowMessage("This tiny Imp's huge breasts keep crushing my penis between them.")
ShowMessageFace("",0,0,2,42)
ShowMessage("The soft sense of oppression as they rub against me is unbearable.")
ShowMessageFace("",0,0,2,43)
ShowMessage("I'm completely drowned in this sensation.")
ShowMessage("My waist pushes forward as I chase after more of this sweet pleasure.")
ShowMessageFace("",0,0,2,44)
ShowMessage("\\n<Luka>Th-that feels good...Nnngh...")
RunCommonEvent(104)
PictureDisplay(5,"ev_inp_hg4",0,0,0,0,100,100,255,0)
RunCommonEvent(105)
ShowMessageFace("",0,0,2,45)
ShowMessage("Led to an almost instant climax, I explode between her breasts.")
ShowMessage("My body trembles as more of my semen defiles her.")
246(1)
ShowMessageFace("inp_fc1",1,0,2,46)
ShowMessage("\\n<Rami>Awww... Coming so much like that, you're such a bad boy.\nI need to give some proper discipline to that naughty penis of yours. ♪")
ShowMessageFace("",0,0,2,47)
ShowMessage("\\n<Luka>Ah, unnngh...")
ShowMessageFace("inp_fc1",1,0,2,48)
ShowMessage("\\n<Rami>So come back to me again, ok?\nI'll train that naughty penis of yours...")
ShowMessageFace("",0,0,2,49)
ShowMessage("\\n<Luka>......")
ShowMessageFace("",0,0,2,50)
ShowMessage("I can't go against this little Imp any longer.")
ShowMessage("This humiliating milking of hers may tear down my heart and body...")
221()
PictureClear(5)
PictureClear(6)
ShowMessageFace("",0,0,2,51)
ShowMessage("......")
242(2)
Wait(120)
241(bytes(0x04,0x08,0x6f,0x3a,0x0d,0x52,0x50,0x47,0x3a,0x3a,0x42,0x47,0x4d,0x08,0x3a,0x0a,0x40,0x6e,0x61,0x6d,0x65,0x49,0x22,0x0c,0x63,0x61,0x73,0x74,0x6c,0x65,0x36,0x06,0x3a,0x06,0x45,0x54,0x3a,0x0c,0x40,0x76,0x6f,0x6c,0x75,0x6d,0x65,0x69,0x69,0x3a,0x0b,0x40,0x70,0x69,0x74,0x63,0x68,0x69,0x69))
0()
