// EVENT 4141
Name "Rat Girl 1"

If(0,25,1)
 221()
 PictureClear(5)
 PictureClear(6)
 ShowMessageFace("",0,0,2,0)
 ShowMessage("......")
 242(2)
 Wait(120)
 241(bytes(0x04,0x08,0x6f,0x3a,0x0d,0x52,0x50,0x47,0x3a,0x3a,0x42,0x47,0x4d,0x08,0x3a,0x0a,0x40,0x6e,0x61,0x6d,0x65,0x49,0x22,0x0c,0x63,0x61,0x73,0x74,0x6c,0x65,0x36,0x06,0x3a,0x06,0x45,0x54,0x3a,0x0c,0x40,0x76,0x6f,0x6c,0x75,0x6d,0x65,0x69,0x69,0x3a,0x0b,0x40,0x70,0x69,0x74,0x63,0x68,0x69,0x69))
 EndEventProcessing()
 0()
EndIf()
PictureDisplay(5,"80_nezumi_st01",0,0,0,0,100,100,255,0)
ShowMessageFace("nezumi_fc1",0,0,2,1)
ShowMessage("\\n<Ratty>You want to do lewd things with me...?")
ShowMessageFace("",0,0,2,2)
ShowMessage("\\n<Luka>Y...Yes... Please...")
ShowMessageFace("nezumi_fc1",1,0,2,3)
ShowMessage("\\n<Ratty>With a rat... You're so strange...\nOk, let's go to a private room.")
ShowMessageFace("",0,0,2,4)
ShowMessage("With that, I was invited to her room...")
221()
PictureDisplay(1,"bg195",0,0,0,0,100,100,255,0)
PictureDisplay(5,"ev_nezumi_hb1",0,0,0,0,100,100,255,0)
222()
241(bytes(0x04,0x08,0x6f,0x3a,0x0d,0x52,0x50,0x47,0x3a,0x3a,0x42,0x47,0x4d,0x08,0x3a,0x0a,0x40,0x6e,0x61,0x6d,0x65,0x49,0x22,0x09,0x65,0x72,0x6f,0x31,0x06,0x3a,0x06,0x45,0x54,0x3a,0x0c,0x40,0x76,0x6f,0x6c,0x75,0x6d,0x65,0x69,0x69,0x3a,0x0b,0x40,0x70,0x69,0x74,0x63,0x68,0x69,0x69))
ShowMessageFace("",0,0,2,5)
ShowMessage("Ratty straddles me, and looks at my penis.")
ShowMessage("She giggles at my already erect cock.")
ShowMessageFace("nezumi_fc1",1,0,2,6)
ShowMessage("\\n<Ratty>You want to mate with me, right?\nBut not today...♪")
245(bytes(0x04,0x08,0x6f,0x3a,0x0d,0x52,0x50,0x47,0x3a,0x3a,0x42,0x47,0x53,0x08,0x3a,0x0a,0x40,0x6e,0x61,0x6d,0x65,0x49,0x22,0x17,0x6d,0x6f,0x6e,0x5f,0x68,0x73,0x65,0x61,0x6e,0x31,0x37,0x5f,0x73,0x69,0x67,0x6f,0x6b,0x69,0x06,0x3a,0x06,0x45,0x54,0x3a,0x0c,0x40,0x76,0x6f,0x6c,0x75,0x6d,0x65,0x69,0x55,0x3a,0x0b,0x40,0x70,0x69,0x74,0x63,0x68,0x69,0x69))
PictureDisplay(5,"ev_nezumi_ha1",0,0,0,0,100,100,255,0)
ShowMessageFace("",0,0,2,7)
ShowMessage("Ratty reaches out to my penis.")
ShowMessage("She starts to use her fingertips to play with me.")
ShowMessageFace("nezumi_fc1",1,0,2,8)
ShowMessage("\\n<Ratty>I'll just use my hands to make you come...\nEhehe...♪")
ShowMessageFace("",0,0,2,9)
ShowMessage("\\n<Luka>Unnngh...")
ShowMessageFace("",0,0,2,10)
ShowMessage("Her fingers glide all over the tip of my penis.")
ShowMessage("Her soft tips gently glide around under the head of my penis.")
ShowMessageFace("",0,0,2,11)
ShowMessage("Her other hand reaches out and grabs my balls.")
ShowMessage("Kneading very softly, she massages me.")
ShowMessageFace("nezumi_fc1",1,0,2,12)
ShowMessage("\\n<Ratty>Instead of mating with me, I'm just going to use my hands to milk you, you know...?\nThat's too bad for you, ehehe...")
ShowMessageFace("",0,0,2,13)
ShowMessage("\\n<Luka>Th...that...")
ShowMessageFace("nezumi_fc1",1,0,2,14)
ShowMessage("\\n<Ratty>This thing wants to be inside me...\nHow pathetic for it. Teehee.")
ShowMessageFace("",0,0,2,15)
ShowMessage("Her fingertips caress my glans.")
ShowMessage("Her tiny pinky plays with my urethral opening at the same time.")
ShowMessageFace("",0,0,2,16)
ShowMessage("As if being trained, my body squirms at her every touch.")
ShowMessage("At this rate, I'm going to come in Ratty's hand...")
ShowMessageFace("nezumi_fc1",1,0,2,17)
ShowMessage("\\n<Ratty>Now to drool all over you.\nEhehe, can you endure this...?")
PictureDisplay(5,"ev_nezumi_ha2",0,0,0,0,100,100,255,0)
ShowMessageFace("nezumi_fc1",1,0,2,18)
ShowMessage("\\n<Ratty>Nnn... *Drip*")
ShowMessageFace("",0,0,2,19)
ShowMessage("More saliva drips out of her mouth onto me.")
ShowMessage("The warm, wet sensation clings to me as it falls on me.")
ShowMessageFace("",0,0,2,20)
ShowMessage("\\n<Luka>Ah, aaah...")
ShowMessageFace("",0,0,2,21)
ShowMessage("Her saliva quickly covers my penis from tip to root.")
ShowMessage("The wetness causes her fingers to glide even easier around my penis.")
ShowMessageFace("nezumi_fc1",1,0,2,22)
ShowMessage("\\n<Ratty>If I tease it like this, there's no way you won't come fast...♪")
ShowMessageFace("",0,0,2,23)
ShowMessage("With her palms covered in her saliva, she grabs hold of my penis.")
ShowMessage("Like that, she massages me from base to tip.")
ShowMessageFace("",0,0,2,24)
ShowMessage("The sweet friction granted by her saliva makes my waist go numb.")
ShowMessage("As she strokes my penis, I give myself over to the pleasure.")
ShowMessageFace("",0,0,2,25)
ShowMessage("\\n<Luka>Ah... Haaaa...")
ShowMessageFace("nezumi_fc1",1,0,2,26)
ShowMessage("\\n<Ratty>Ehehe, you're covered in drool...♪")
ShowMessageFace("",0,0,2,27)
ShowMessage("As she strokes up and down, her fingers continue to toy with my tip.")
ShowMessage("All the while, her other hand continues to massage my balls.")
ShowMessageFace("",0,0,2,28)
ShowMessage("After only moments, I couldn't withstand it any longer.")
ShowMessage("Surrendering to the pleasure, I let it all go.")
ShowMessageFace("",0,0,2,29)
ShowMessage("\\n<Luka>N-noooo... Aaaah...!")
246(2)
RunCommonEvent(104)
PictureDisplay(5,"ev_nezumi_ha3",0,0,0,0,100,100,255,0)
RunCommonEvent(105)
ShowMessageFace("",0,0,2,30)
ShowMessage("As Ratty uses her hand to toy with me, I climax.")
ShowMessage("A humiliating orgasm, covered in drool.")
ShowMessageFace("nezumi_fc1",1,0,2,31)
ShowMessage("\\n<Ratty>Ahaha, you came~♪\nUnable to mate, and just simply milked...")
ShowMessageFace("",0,0,2,32)
ShowMessage("\\n<Luka>Nnngh...")
ShowMessageFace("nezumi_fc1",1,0,2,33)
ShowMessage("\\n<Ratty>Does it feel frustrating...?\nEhehehe...♪")
ShowMessageFace("",0,0,2,34)
ShowMessage("Ratty laughs as the gently strokes my penis, still covered in semen.")
ShowMessage("Too ashamed at being handled so easily, I can't even reply.")
221()
PictureClear(5)
ShowMessageFace("",0,0,2,35)
ShowMessage("......")
242(2)
Wait(120)
241(bytes(0x04,0x08,0x6f,0x3a,0x0d,0x52,0x50,0x47,0x3a,0x3a,0x42,0x47,0x4d,0x08,0x3a,0x0a,0x40,0x6e,0x61,0x6d,0x65,0x49,0x22,0x0c,0x63,0x61,0x73,0x74,0x6c,0x65,0x36,0x06,0x3a,0x06,0x45,0x54,0x3a,0x0c,0x40,0x76,0x6f,0x6c,0x75,0x6d,0x65,0x69,0x69,0x3a,0x0b,0x40,0x70,0x69,0x74,0x63,0x68,0x69,0x69))
0()
