﻿// EVENT 1188
Name "Talk: Nekomata"

If(1,20,0,1,0)
 JumpToLabel("情報")
 0()
EndIf()
If(1,20,0,2,0)
 JumpToLabel("質問")
 0()
EndIf()
If(1,20,0,3,0)
 JumpToLabel("要求")
 0()
EndIf()
If(1,20,0,4,0)
 JumpToLabel("贈与")
 0()
EndIf()
DefineLabel("情報")
ChangeVariable(13,13,0,2,1,100)
If(1,13,0,10,2)
 ShowMessageFace("nekomata_fc1",2,0,2,1)
 ShowMessage("\\n<Nekomata>Nya!")
 EndEventProcessing()
 0()
EndIf()
If(1,13,0,20,2)
 ShowMessageFace("nekomata_fc1",4,0,2,2)
 ShowMessage("\\n<Nekomata>...Nya?")
 EndEventProcessing()
 0()
EndIf()
If(1,13,0,30,2)
 ShowMessageFace("nekomata_fc1",0,0,2,3)
 ShowMessage("\\n<Nekomata>Nya! Nya!")
 EndEventProcessing()
 0()
EndIf()
If(1,13,0,40,2)
 ShowMessageFace("nekomata_fc1",1,0,2,4)
 ShowMessage("\\n<Nekomata>Fsss!")
 EndEventProcessing()
 0()
EndIf()
If(1,13,0,50,2)
 ShowMessageFace("nekomata_fc1",2,0,2,5)
 ShowMessage("\\n<Nekomata>Nyaaa♪")
 EndEventProcessing()
 0()
EndIf()
If(1,13,0,60,2)
 ShowMessageFace("nekomata_fc1",2,0,2,6)
 ShowMessage("\\n<Nekomata>Purrrr...")
 EndEventProcessing()
 0()
EndIf()
If(1,13,0,70,2)
 ShowMessageFace("nekomata_fc1",2,0,2,7)
 ShowMessage("\\n<Nekomata>Unya!")
 EndEventProcessing()
 0()
EndIf()
If(1,13,0,80,2)
 ShowMessageFace("nekomata_fc1",0,0,2,8)
 ShowMessage("\\n<Nekomata>Nyanyanyanyanyanya...")
 EndEventProcessing()
 0()
EndIf()
If(1,13,0,90,2)
 ShowMessageFace("nekomata_fc1",0,0,2,9)
 ShowMessage("\\n<Nekomata>Nya! Nya! Nya!")
 EndEventProcessing()
 0()
EndIf()
If(1,13,0,100,2)
 ShowMessageFace("nekomata_fc1",2,0,2,10)
 ShowMessage("\\n<Nekomata>Unyaaa♪")
 EndEventProcessing()
 0()
EndIf()
DefineLabel("質問")
ChangeVariable(13,13,0,2,1,30)
If(1,13,0,10,2)
 ShowMessageFace("nekomata_fc1",0,0,2,11)
 ShowMessage("\\n<Nekomata>Nya...!")
 ShowMessageFace("",0,0,2,12)
 ShowMessage("The Nekomata extends her paw.\nWhat will you do?")
 ShowChoices(strings("Ignore her","Hold out your hand","Knock her paw away"),0)
 IfPlayerPicksChoice(0,"無視する")
  ShowMessageFace("nekomata_fc1",0,0,2,13)
  ShowMessage("\\n<Nekomata>............")
  0()
 IfPlayerPicksChoice(1,"お手をする")
  ShowMessageFace("nekomata_fc1",2,0,2,14)
  ShowMessage("\\n<Nekomata>Nyaaa♪")
  ShowMessageFace("",0,0,2,15)
  ShowMessage("The Nekomata looks content!")
  355("change_friend(10)")
  0()
 IfPlayerPicksChoice(2,"手を振り払う")
  ShowMessageFace("nekomata_fc1",1,0,2,16)
  ShowMessage("\\n<Nekomata>Fsss!")
  ShowMessageFace("",0,0,2,17)
  ShowMessage("The Nekomata was angered!")
  355("change_friend(-5)")
  0()
 404()
 EndEventProcessing()
 0()
EndIf()
If(1,13,0,20,2)
 ShowMessageFace("nekomata_fc1",0,0,2,18)
 ShowMessage("\\n<Nekomata>............")
 ShowMessageFace("",0,0,2,19)
 ShowMessage("The Nekomata is looking at the food you have.")
 ShowChoices(strings("Give it to her","Don't give it to her","Pretend to eat it in front of her"),0)
 IfPlayerPicksChoice(0,"あげる")
  ShowMessageFace("nekomata_fc1",2,0,2,20)
  ShowMessage("\\n<Nekomata>Nyaaa♪")
  ShowMessageFace("",0,0,2,21)
  ShowMessage("The Nekomata looks pleased!")
  355("change_friend(10)")
  0()
 IfPlayerPicksChoice(1,"あげない")
  ShowMessageFace("nekomata_fc1",1,0,2,22)
  ShowMessage("\\n<Nekomata>Fsss!")
  ShowMessageFace("",0,0,2,23)
  ShowMessage("The Nekomata was angered!")
  355("change_friend(-5)")
  0()
 IfPlayerPicksChoice(2,"あげるフリをして自分で食べる")
  ShowMessageFace("nekomata_fc1",4,0,2,24)
  ShowMessage("\\n<Nekomata>.....?!?!")
  ShowMessageFace("",0,0,2,25)
  ShowMessage("The Nekomata stares at you in disbelief...")
  355("change_friend(-10)")
  0()
 404()
 EndEventProcessing()
 0()
EndIf()
If(1,13,0,30,2)
 ShowMessageFace("nekomata_fc1",2,0,2,26)
 ShowMessage("\\n<Nekomata>Unya!")
 ShowMessageFace("",0,0,2,27)
 ShowMessage("The Nekomata appears to be greeting you. What will you do?")
 ShowChoices(strings("Greet her with human words","Greet her like a cat","Don't greet her"),0)
 IfPlayerPicksChoice(0,"人間の言葉で挨拶する")
  ShowMessageFace("ruka_fc1",0,0,2,28)
  ShowMessage("\\n<Luka>Hello.")
  ShowMessageFace("nekomata_fc1",2,0,2,29)
  ShowMessage("\\n<Nekomata>Nyaaa♪")
  ShowMessageFace("",0,0,2,30)
  ShowMessage("The Nekomata acknowledges your greeting...")
  355("change_friend(10)")
  0()
 IfPlayerPicksChoice(1,"猫の言葉で挨拶する")
  ShowMessageFace("ruka_fc1",0,0,2,31)
  ShowMessage("\\n<Luka>Meow!")
  ShowMessageFace("nekomata_fc1",4,0,2,32)
  ShowMessage("\\n<Nekomata>Nya?!")
  ShowMessageFace("",0,0,2,33)
  ShowMessage("The Nekomata looks confused...")
  0()
 IfPlayerPicksChoice(2,"挨拶しない")
  ShowMessageFace("ruka_fc1",0,0,2,34)
  ShowMessage("\\n<Luka>............")
  ShowMessageFace("nekomata_fc1",0,0,2,35)
  ShowMessage("\\n<Nekomata>............")
  ShowMessageFace("",0,0,2,36)
  ShowMessage("An awkward air fills the silence...")
  355("change_friend(-5)")
  0()
 404()
 EndEventProcessing()
 0()
EndIf()
DefineLabel("要求")
ChangeVariable(13,13,0,2,1,30)
If(1,13,0,10,2)
 If(8,334)
  ShowMessageFace("nekomata_fc1",2,0,2,37)
  ShowMessage("\\n<Nekomata>Nyaaa♪")
  ShowMessageFace("",0,0,2,38)
  ShowMessage("She is begging for your dried bonito!")
  ChangeVariable(24,24,0,3,0,334,0)
  ShowMessageFace("",0,0,2,39)
  ShowMessage("Do you want to give a \\ii[334]? (Have:\\V[24])")
  ShowChoices(strings("Yes","No"),2)
  IfPlayerPicksChoice(0,"Yes")
   ShowMessageFace("nekomata_fc1",2,0,2,40)
   ShowMessage("\\n<Nekomata>Purrrr...")
   ChangeInventory_Item(334,1,0,1)
   355("change_friend(20)")
   EndEventProcessing()
   0()
  IfPlayerPicksChoice(1,"Yes")
   ShowMessageFace("nekomata_fc1",1,0,2,41)
   ShowMessage("\\n<Nekomata>Fsss!")
   EndEventProcessing()
   0()
  404()
  0()
 Else()
  ChangeVariable(13,13,0,0,20)
  0()
 EndIf()
 0()
EndIf()
If(1,13,0,20,2)
 If(8,322)
  ShowMessageFace("nekomata_fc1",2,0,2,42)
  ShowMessage("\\n<Nekomata>Nyaaa♪")
  ShowMessageFace("",0,0,2,43)
  ShowMessage("She is begging for your fish!")
  ChangeVariable(24,24,0,3,0,322,0)
  ShowMessageFace("",0,0,2,44)
  ShowMessage("Do you want to give a \\ii[322]? (Have:\\V[24])")
  ShowChoices(strings("Yes","No"),2)
  IfPlayerPicksChoice(0,"Yes")
   ShowMessageFace("nekomata_fc1",2,0,2,45)
   ShowMessage("\\n<Nekomata>Purrrr...")
   ChangeInventory_Item(322,1,0,1)
   355("change_friend(30)")
   EndEventProcessing()
   0()
  IfPlayerPicksChoice(1,"No")
   ShowMessageFace("nekomata_fc1",1,0,2,46)
   ShowMessage("\\n<Nekomata>Fsss!")
   EndEventProcessing()
   0()
  404()
  0()
 Else()
  ChangeVariable(13,13,0,0,30)
  0()
 EndIf()
 0()
EndIf()
If(1,13,0,30,2)
 ShowMessageFace("nekomata_fc1",2,0,2,47)
 ShowMessage("\\n<Nekomata>Nyaaa♪")
 ShowMessageFace("",0,0,2,48)
 ShowMessage("She is begging for money!")
 If(7,522,0)
  ChangeVariable(24,24,0,3,7,2,0)
  ShowMessageFace("",0,0,2,49)
  ShowMessage("Do you want to give 522G? (Remaining:\\V[24])")
  ShowChoices(strings("Yes","No"),2)
  IfPlayerPicksChoice(0,"Yes")
   ShowMessageFace("nekomata_fc1",2,0,2,50)
   ShowMessage("\\n<Nekomata>Purrrr...")
   125(1,0,522)
   355("change_friend(25)")
   EndEventProcessing()
   0()
  IfPlayerPicksChoice(1,"No")
   ShowMessageFace("nekomata_fc1",1,0,2,51)
   ShowMessage("\\n<Nekomata>Fsss!")
   EndEventProcessing()
   0()
  404()
  0()
 Else()
  ShowMessageFace("",0,0,2,52)
  ShowMessage("However, she realized you weren't carrying any and turned away!")
  EndEventProcessing()
  0()
 EndIf()
 0()
EndIf()
DefineLabel("贈与")
ChangeVariable(13,13,0,2,1,30)
If(1,25,0,1,0)
 ChangeVariable(13,13,0,0,30)
 ChangeVariable(25,25,0,0,0)
 0()
EndIf()
If(1,25,0,2,0)
 ChangeVariable(13,13,0,2,1,20)
 ChangeVariable(25,25,0,0,0)
 0()
EndIf()
If(1,13,0,10,2)
 ShowMessageFace("nekomata_fc1",2,0,2,53)
 ShowMessage("\\n<Nekomata>Nya♪")
 250(bytes(0x04,0x08,0x6f,0x3a,0x0c,0x52,0x50,0x47,0x3a,0x3a,0x53,0x45,0x08,0x3a,0x0a,0x40,0x6e,0x61,0x6d,0x65,0x49,0x22,0x0a,0x49,0x74,0x65,0x6d,0x31,0x06,0x3a,0x06,0x45,0x54,0x3a,0x0b,0x40,0x70,0x69,0x74,0x63,0x68,0x69,0x69,0x3a,0x0c,0x40,0x76,0x6f,0x6c,0x75,0x6d,0x65,0x69,0x55))
 ChangeInventory_Item(206,0,0,1)
 ShowMessageFace("",0,0,2,54)
 ShowMessage("The Nekomata gave you \\ii[206]!")
 EndEventProcessing()
 0()
EndIf()
If(1,13,0,20,2)
 ShowMessageFace("nekomata_fc1",2,0,2,55)
 ShowMessage("\\n<Nekomata>Nya♪")
 250(bytes(0x04,0x08,0x6f,0x3a,0x0c,0x52,0x50,0x47,0x3a,0x3a,0x53,0x45,0x08,0x3a,0x0a,0x40,0x6e,0x61,0x6d,0x65,0x49,0x22,0x0a,0x49,0x74,0x65,0x6d,0x31,0x06,0x3a,0x06,0x45,0x54,0x3a,0x0b,0x40,0x70,0x69,0x74,0x63,0x68,0x69,0x69,0x3a,0x0c,0x40,0x76,0x6f,0x6c,0x75,0x6d,0x65,0x69,0x55))
 ChangeInventory_Item(210,0,0,1)
 ShowMessageFace("",0,0,2,56)
 ShowMessage("The Nekomata gave you \\ii[210]!")
 EndEventProcessing()
 0()
EndIf()
If(1,13,0,30,2)
 ShowMessageFace("nekomata_fc1",2,0,2,57)
 ShowMessage("\\n<Nekomata>Nya♪")
 250(bytes(0x04,0x08,0x6f,0x3a,0x0c,0x52,0x50,0x47,0x3a,0x3a,0x53,0x45,0x08,0x3a,0x0a,0x40,0x6e,0x61,0x6d,0x65,0x49,0x22,0x0a,0x49,0x74,0x65,0x6d,0x31,0x06,0x3a,0x06,0x45,0x54,0x3a,0x0b,0x40,0x70,0x69,0x74,0x63,0x68,0x69,0x69,0x3a,0x0c,0x40,0x76,0x6f,0x6c,0x75,0x6d,0x65,0x69,0x55))
 125(0,0,870)
 ShowMessageFace("",0,0,2,58)
 ShowMessage("The Nekomata gave you 870G!")
 EndEventProcessing()
 0()
EndIf()
0()
