﻿// EVENT 5772
Name "サキュバスSQ"

PictureDisplay(5,"80_succubusq_st01",0,0,0,0,100,100,0,0)
PictureMove(5,null,0,0,0,0,100,100,255,0,30,true)
ShowMessageFace("",0,0,2,1)
ShowMessage("\\n<Luka>")
ShowMessage("お……お願い……")
ShowMessageFace("succubusq_fc1",0,0,2,2)
ShowMessage("\\n<サキュバス>")
ShowMessage("いいわ、快楽の夢を見せてあげる。")
ShowMessage("それじゃあ、楽しみましょ……♡")
ShowMessageFace("",0,0,2,3)
ShowMessage("サキュバスは、屈服した僕へとのしかかってきた。")
ShowMessage("体をまたいで馬乗りになると、ペニスを自身の秘所へと導き――")
ShowMessageFace("succubusq_fc1",0,0,2,4)
ShowMessage("\\n<サキュバス>")
ShowMessage("うふふっ、いただきまぁす……♡")
ShowMessageFace("",0,0,2,5)
ShowMessage("\\n<Luka>")
ShowMessage("あ……あぁぁぁ……")
ShowMessageFace("",0,0,2,6)
ShowMessage("サキュバスは、そのままゆっくりと腰を落としてくる。")
ShowMessage("なすすべもなく、僕は夢の交わりを受け入れ――")
241(bytes(0x04,0x08,0x6f,0x3a,0x0d,0x52,0x50,0x47,0x3a,0x3a,0x42,0x47,0x4d,0x08,0x3a,0x0a,0x40,0x6e,0x61,0x6d,0x65,0x49,0x22,0x09,0x65,0x72,0x6f,0x31,0x06,0x3a,0x06,0x45,0x54,0x3a,0x0c,0x40,0x76,0x6f,0x6c,0x75,0x6d,0x65,0x69,0x69,0x3a,0x0b,0x40,0x70,0x69,0x74,0x63,0x68,0x69,0x69))
245(bytes(0x04,0x08,0x6f,0x3a,0x0d,0x52,0x50,0x47,0x3a,0x3a,0x42,0x47,0x53,0x08,0x3a,0x0a,0x40,0x6e,0x61,0x6d,0x65,0x49,0x22,0x1e,0x6d,0x6f,0x6e,0x5f,0x68,0x73,0x65,0x61,0x6e,0x30,0x34,0x5f,0x69,0x6e,0x6e,0x65,0x72,0x77,0x6f,0x72,0x6b,0x73,0x5f,0x61,0x34,0x06,0x3a,0x06,0x45,0x54,0x3a,0x0c,0x40,0x76,0x6f,0x6c,0x75,0x6d,0x65,0x69,0x55,0x3a,0x0b,0x40,0x70,0x69,0x74,0x63,0x68,0x69,0x69))
PictureDisplay(5,"ev_succubusq_h1",0,0,0,0,100,100,0,0)
PictureMove(5,null,0,0,0,0,100,100,255,0,30,true)
ShowMessageFace("",0,0,2,7)
ShowMessage("にゅぐっ……と、僕のモノが魔性の秘所に咥え込まれてしまった。")
ShowMessage("柔肉がペニスを甘く包み、じっくりと締め付けてくる――")
ShowMessageFace("",0,0,2,8)
ShowMessage("\\n<Luka>")
ShowMessage("あ、あぁぁ……気持ちいい……")
ShowMessageFace("succubusq_fc1",0,0,2,9)
ShowMessage("\\n<サキュバス>")
ShowMessage("うふふっ、もう感じてるのね。")
ShowMessage("もっともっと、気持ち良くしてあげるわぁ……♡")
ShowMessageFace("succubusq_fc1",0,0,2,10)
ShowMessage("\\n<サキュバス>")
ShowMessage("エナジードレインで吸われるの、大好きでしょ？")
ShowMessage("さあ……搾り尽くしてあげる♡")
ShowMessageFace("",0,0,2,11)
ShowMessage("\\n<Luka>")
ShowMessage("ふぁ……あぁぁぁ……")
PictureDisplay(5,"ev_succubusq_h2",0,0,0,0,100,100,255,0)
ShowMessageFace("",0,0,2,12)
ShowMessage("ゆっくり、じわじわと精気が吸われ始める。")
ShowMessage("その際の快感は、凄まじいものだった。")
ShowMessageFace("",0,0,2,13)
ShowMessage("まるで、膣内でペニスが溶かされていくかのよう。")
ShowMessage("股間から全身へ、甘く狂おしい恍惚感が広がっていく――")
ShowMessageFace("succubusq_fc1",0,0,2,14)
ShowMessage("\\n<サキュバス>")
ShowMessage("気持ち良いわよねぇ……？")
ShowMessage("さあ、イっちゃいなさい♡")
ShowMessageFace("",0,0,2,15)
ShowMessage("\\n<Luka>")
ShowMessage("あ……ふぁぁぁ……")
ShowMessageFace("",0,0,2,16)
ShowMessage("じんわりとろける快感に、僕はみるみる脱力した。")
ShowMessage("腰の奥から、甘い疼きがこみ上げ――")
RunCommonEvent(104)
PictureDisplay(5,"ev_succubusq_h3",0,0,0,0,100,100,255,0)
RunCommonEvent(105)
ShowMessageFace("",0,0,2,17)
ShowMessage("\\n<Luka>")
ShowMessage("はぅぅぅ……")
ShowMessageFace("",0,0,2,18)
ShowMessage("あっけなく、膣内にドクドクと放出してしまった。")
ShowMessage("サキュバスの蜜壺は艶めかしくうねり、精を吸い上げていく――")
PictureDisplay(5,"ev_succubusq_h4",0,0,0,0,100,100,255,0)
ShowMessageFace("succubusq_fc1",0,0,2,19)
ShowMessage("\\n<サキュバス>")
ShowMessage("うふふっ、イイわぁ……")
ShowMessage("あなたの精、もっと味わわせて……♡")
ShowMessageFace("",0,0,2,20)
ShowMessage("\\n<Luka>")
ShowMessage("あ……あぁぁぁ……")
ShowMessageFace("",0,0,2,21)
ShowMessage("蜜壺がじゅぶじゅぶと収縮し、精を吸い上げていく。")
ShowMessage("その快感は、ペニスを全く萎えさせない。")
ShowMessageFace("",0,0,2,22)
ShowMessage("これは、サキュバスにとっての捕食なのだ。")
ShowMessage("僕は精を貪られ、餌にされている――")
ShowMessageFace("",0,0,2,23)
ShowMessage("\\n<Luka>")
ShowMessage("はぅぅぅ……きもちいいよぉ……")
ShowMessageFace("",0,0,2,24)
ShowMessage("それが分かっていながら、僕は吸精の快楽に甘んじていた。")
ShowMessage("とろけそうな快楽に身を委ね、ぶるぶると腰を震わせ――")
RunCommonEvent(104)
PictureDisplay(5,"ev_succubusq_h5",0,0,0,0,100,100,255,0)
RunCommonEvent(105)
ShowMessageFace("",0,0,2,25)
ShowMessage("\\n<Luka>")
ShowMessage("ふぁぁぁ……")
ShowMessageFace("",0,0,2,26)
ShowMessage("そのまま、どっぷりと精を捧げてしまった。")
ShowMessage("溢れ出た精液が、蜜壺にじゅるじゅると飲み込まれていく――")
ShowMessageFace("succubusq_fc1",0,0,2,27)
ShowMessage("\\n<サキュバス>")
ShowMessage("うふふっ……キミの精、おいしい……♡")
ShowMessage("でも、まだ満足できないわ……")
ShowMessageFace("",0,0,2,28)
ShowMessage("\\n<Luka>")
ShowMessage("はぅ……あぅぅぅ……")
ShowMessageFace("",0,0,2,29)
ShowMessage("僕はすっかり、吸精の快楽に酔いしれていた。")
ShowMessage("甘いうねりと、艶めかしい吸い付きのままに腰を震わせ――")
ShowMessageFace("",0,0,2,30)
ShowMessage("\\n<Luka>")
ShowMessage("あ、あぅぅぅ……")
RunCommonEvent(104)
PictureDisplay(5,"ev_succubusq_h6",0,0,0,0,100,100,255,0)
RunCommonEvent(105)
ShowMessageFace("",0,0,2,31)
ShowMessage("そして、蜜壺の中へと精液を捧げていく。")
ShowMessage("頭の中はとろけ、体もすっかり弛緩していた――")
ShowMessageFace("succubusq_fc1",0,0,2,32)
ShowMessage("\\n<サキュバス>")
ShowMessage("もっと、いっぱいちょうだい……")
ShowMessage("気持ち良くしてあげるから……♡")
ShowMessageFace("",0,0,2,33)
ShowMessage("\\n<Luka>")
ShowMessage("あ……あぁぁぁ……")
RunCommonEvent(104)
RunCommonEvent(105)
ShowMessageFace("succubusq_fc1",0,0,2,34)
ShowMessage("\\n<サキュバス>")
ShowMessage("まだ足りないわよ。")
ShowMessage("もっと、もっと出しなさい……")
ShowMessageFace("",0,0,2,35)
ShowMessage("\\n<Luka>")
ShowMessage("はぅぅぅ……")
RunCommonEvent(104)
RunCommonEvent(105)
ShowMessageFace("succubusq_fc1",0,0,2,36)
ShowMessage("\\n<サキュバス>")
ShowMessage("私の中で、ドクドク出して……")
ShowMessage("もっと、もっと……")
ShowMessageFace("",0,0,2,37)
ShowMessage("\\n<Luka>")
ShowMessage("うぁ……あぁぁ……")
RunCommonEvent(104)
RunCommonEvent(105)
ShowMessageFace("",0,0,2,38)
ShowMessage("こうして僕は、快楽の夢に堕ちてしまった。")
ShowMessage("延々と悦びに溺れ、精を捧げ続けたのである――")
ShowMessageFace("succubusq_fc1",0,0,2,39)
ShowMessage("\\n<サキュバス>")
ShowMessage("うふふふふっ……")
ShowMessage("いいわぁ……♡　もっとちょうだい……♡")
ShowMessageFace("",0,0,2,40)
ShowMessage("\\n<Luka>")
ShowMessage("はぅぅぅぅ……")
RunCommonEvent(104)
RunCommonEvent(105)
221()
PictureClear(5)
PictureClear(6)
246(2)
ShowMessageFace("",0,0,2,41)
ShowMessage("こうして僕は、サキュバスに延々と犯された。")
ShowMessage("一晩の間、快楽の夢を楽しんだのである――")
ShowMessageFace("",0,0,2,42)
ShowMessage("・・・・・・・・")
RunCommonEvent(3998)
0()
