﻿// EVENT 2129
Name "Seduction: Mirage Girl"

If(0,25,1)
 EndEventProcessing()
 0()
EndIf()
355("$game_troop.lose_event_id = 3129")
ChangeVariable(26,26,0,3,3,1,4)
ChangeVariable(26,26,4,0,10)
ShowMessageFace("sinkiro_fc1",3,0,2,1)
ShowMessage("\\n<Mirage Girl>Help me! I'm going to die!")
ShowMessageFace("sinkiro_fc1",4,0,2,2)
ShowMessage("\\n<Mirage Girl>I'll service you with this body...\nSo could you please forgive me?")
ChangeSwitch(98,98,0)
ChangeSwitch(96,96,0)
ShowChoices(strings("Ignore her","Give in to temptation"),1)
IfPlayerPicksChoice(0,"Ignore her")
 ShowMessageFace("",0,0,2,3)
 ShowMessage("Luka resists her temptation!")
 RunCommonEvent(1999)
 EndEventProcessing()
 0()
IfPlayerPicksChoice(1,"Give in to temptation")
 0()
404()
ShowMessageFace("sinkiro_fc1",0,0,2,4)
ShowMessage("\\n<Mirage Girl>Well then, let's have sex! ♪\nI'm a ghost, but you don't mind right?")
ShowMessageFace("",0,0,2,5)
ShowMessage("Mirage Girl pushes Luka down and clings to him with her ethereal lower body! She doesn't appear to have anything like a human vagina there...")
ShowMessageFace("sinkiro_fc1",0,0,2,6)
ShowMessage("\\n<Mirage Girl>Since I have a ghost's body, I'm not sure about the proper position to have sex, but...\nI think it's around here. ♪")
ChangeVariable(26,26,3,0,4)
250(bytes(0x04,0x08,0x6f,0x3a,0x0c,0x52,0x50,0x47,0x3a,0x3a,0x53,0x45,0x08,0x3a,0x0a,0x40,0x6e,0x61,0x6d,0x65,0x49,0x22,0x11,0x6d,0x6f,0x6e,0x5f,0x65,0x72,0x6f,0x5f,0x70,0x79,0x75,0x33,0x06,0x3a,0x06,0x45,0x54,0x3a,0x0b,0x40,0x70,0x69,0x74,0x63,0x68,0x69,0x69,0x3a,0x0c,0x40,0x76,0x6f,0x6c,0x75,0x6d,0x65,0x69,0x69))
311(0,1,1,1,26,true)
ShowMessageFace("",0,0,2,7)
ShowMessage("The Mirage Girl pushes her waist against Luka, wrapping his penis in her ethereal body!\nA peculiar sensation wraps around Luka's dick!\\D")
ShowMessage("Luka takes \\V[26] damage!")
ChangeVariable(27,27,0,3,3,1,2)
If(1,27,0,0,0)
 JumpToLabel("射精1")
 0()
EndIf()
ShowMessageFace("",0,0,2,8)
ShowMessage("\\n<Luka>Aaah... What is this...")
ShowMessageFace("",0,0,2,9)
ShowMessage("A soft feeling flows through me.\nIn addition, I'm feeling a gradual weakness as the Mirage Girl's ethereal body wraps around my penis.")
ShowMessageFace("sinkiro_fc1",0,0,2,10)
ShowMessage("\\n<Mirage Girl>Because my ethereal body is touching your flesh, your energy is being sucked away...\nNow, let's keep going! ♪")
250(bytes(0x04,0x08,0x6f,0x3a,0x0c,0x52,0x50,0x47,0x3a,0x3a,0x53,0x45,0x08,0x3a,0x0a,0x40,0x6e,0x61,0x6d,0x65,0x49,0x22,0x13,0x6d,0x6f,0x6e,0x5f,0x65,0x72,0x6f,0x5f,0x63,0x68,0x75,0x70,0x61,0x33,0x06,0x3a,0x06,0x45,0x54,0x3a,0x0b,0x40,0x70,0x69,0x74,0x63,0x68,0x69,0x69,0x3a,0x0c,0x40,0x76,0x6f,0x6c,0x75,0x6d,0x65,0x69,0x69))
311(0,1,1,1,26,true)
ShowMessageFace("",0,0,2,11)
ShowMessage("The Mirage Girl shakes her ethereal waist as she rapes Luka! A peculiar feeling rubs against Luka's penis as his energy is gradually absorbed!\\D")
ShowMessage("Luka takes \\V[26] damage!")
ChangeVariable(27,27,0,3,3,1,2)
If(1,27,0,0,0)
 JumpToLabel("射精1")
 0()
EndIf()
ShowMessageFace("sinkiro_fc1",0,0,2,12)
ShowMessage("\\n<Mirage Girl>Areee? Are you coming already...?\nThen please let out a lot! ♪")
250(bytes(0x04,0x08,0x6f,0x3a,0x0c,0x52,0x50,0x47,0x3a,0x3a,0x53,0x45,0x08,0x3a,0x0a,0x40,0x6e,0x61,0x6d,0x65,0x49,0x22,0x13,0x6d,0x6f,0x6e,0x5f,0x65,0x72,0x6f,0x5f,0x63,0x68,0x75,0x70,0x61,0x33,0x06,0x3a,0x06,0x45,0x54,0x3a,0x0b,0x40,0x70,0x69,0x74,0x63,0x68,0x69,0x69,0x3a,0x0c,0x40,0x76,0x6f,0x6c,0x75,0x6d,0x65,0x69,0x69))
311(0,1,1,1,26,true)
ShowMessageFace("",0,0,2,13)
ShowMessage("The Mirage Girl's ethereal lower body mysteriously swells! Enveloped by the strange sensation, his semen is gradually drawn out!\\D")
ShowMessage("Luka takes \\V[26] damage!")
ChangeVariable(27,27,0,3,3,1,2)
If(1,27,0,0,0)
 JumpToLabel("射精1")
 0()
EndIf()
DefineLabel("射精1")
ShowMessageFace("",0,0,2,14)
ShowMessage("\\n<Luka>Aaah, I'm coming...")
RunCommonEvent(104)
RunCommonEvent(105)
ShowMessageFace("",0,0,2,15)
ShowMessage("Having my energy absorbed brings about an enchanting feeling of release. My semen pours steadily into her ethereal lower body.")
ShowMessageFace("sinkiro_fc1",0,0,2,16)
ShowMessage("\\n<Mirage Girl>Ahaha, you let out so much...\nYour semen is very delicious. ♪")
RunCommonEvent(2000)
EndEventProcessing()
0()
