﻿// EVENT 7074
Name "Kate: Victory"

PictureClear(6)
PictureDisplay(5,"80_mob_maid1_st06",0,0,0,0,100,100,255,0)
ShowMessageFace("mob_maid1_fc1",5,0,2,1)
ShowMessage("\\n<Kate>You held on... It's my loss.")
250(bytes(0x04,0x08,0x6f,0x3a,0x0c,0x52,0x50,0x47,0x3a,0x3a,0x53,0x45,0x08,0x3a,0x0a,0x40,0x6e,0x61,0x6d,0x65,0x49,0x22,0x0d,0x6d,0x6f,0x6e,0x5f,0x6c,0x76,0x75,0x70,0x06,0x3a,0x06,0x45,0x54,0x3a,0x0b,0x40,0x70,0x69,0x74,0x63,0x68,0x69,0x69,0x3a,0x0c,0x40,0x76,0x6f,0x6c,0x75,0x6d,0x65,0x69,0x69))
ChangeSwitch(98,98,1)
ChangeSwitch(96,96,1)
ShowMessageFace("",0,0,2,2)
ShowMessage("Luka emerged from the battle fuck victorious!")
If(1,808,0,2,1)
 PictureDisplay(5,"80_mob_maid1_st05",0,0,0,0,100,100,255,0)
 ShowMessageFace("mob_maid1_fc1",4,0,2,3)
 ShowMessage("\\n<Kate>You've already won before though.\nSorry, but no prize this time.")
 0()
Else()
 PictureDisplay(5,"80_mob_maid1_st02",0,0,0,0,100,100,255,0)
 ShowMessageFace("mob_maid1_fc1",1,0,2,4)
 ShowMessage("\\n<Kate>Congratulations, here's your prize.\nIf you equip it, your job experience will increase faster.")
 250(bytes(0x04,0x08,0x6f,0x3a,0x0c,0x52,0x50,0x47,0x3a,0x3a,0x53,0x45,0x08,0x3a,0x0a,0x40,0x6e,0x61,0x6d,0x65,0x49,0x22,0x0a,0x49,0x74,0x65,0x6d,0x31,0x06,0x3a,0x06,0x45,0x54,0x3a,0x0b,0x40,0x70,0x69,0x74,0x63,0x68,0x69,0x69,0x3a,0x0c,0x40,0x76,0x6f,0x6c,0x75,0x6d,0x65,0x69,0x55))
 ChangeInventoryArmor(1691,0,0,1,false)
 ChangeVariable(808,808,0,0,2)
 RunCommonEvent(6999)
 0()
EndIf()
PictureDisplay(5,"80_mob_maid1_st05",0,0,0,0,100,100,255,0)
ShowMessageFace("mob_maid1_fc1",4,0,2,5)
ShowMessage("\\n<Kate>I still need to train more.\nI'll practice, and we can have another match.")
If(0,2331,1)
 PictureClear(5)
 281(1)
 TeleportPlayer(0,31,30,7,2,0)
 216(0)
 0()
EndIf()
EndEventProcessing()
0()
