﻿// EVENT 0044
Name "Skill: Play 41-50"

ChangeVariable(11,11,0,2,1,5)
If(1,100,0,41,0)
 If(1,11,0,1,0)
  ShowMessageFace("stein_fc2",0,0,2,1)
  ShowMessage("\\n<Promestein>Now, let's say \\*\\fix\\*\\fi equals the number of prey and \\*\\fiy\\*\\fi equals the number of predators.\nIf we have \\*\\fiT\\*\\fi equal to the period of time, we can demonstrate the speed at which the prey increases with the equation...")
  ShowMessageFace("",0,0,2,2)
  ShowMessage("Promestein starts a lecture!\nBut no one is listening...")
  EndEventProcessing()
  0()
 EndIf()
 If(1,11,0,2,0)
  ShowMessageFace("stein_fc2",1,0,2,3)
  ShowMessage("\\n<Promestein>Let's test the growth on this thing.")
  355("interrupt_skill(3299)")
  EndEventProcessing()
  0()
 EndIf()
 If(1,11,0,3,0)
  ShowMessageFace("stein_fc2",1,0,2,4)
  ShowMessage("\\n<Promestein>I just invented a new cooking device that utilizes electromagnetic waves!\nTime to put some bread in and test it out!")
  355("interrupt_skill(2139)")
  EndEventProcessing()
  0()
 EndIf()
 If(1,11,0,4,0)
  ShowMessageFace("stein_fc2",1,0,2,5)
  ShowMessage("\\n<Promestein>I have succeeded in turning this health potion into a gas!\nNow to add some MP recovery potion and we'll have an elixir in aroma form!")
  355("interrupt_skill(3304)")
  EndEventProcessing()
  0()
 EndIf()
 If(1,11,0,5,0)
  ShowMessageFace("stein_fc2",1,0,2,6)
  ShowMessage("\\n<Promestein>I created a machine that automatically washes the dishes!\nI'll just flip this switch here, and...")
  355("interrupt_skill(3306)")
  EndEventProcessing()
  0()
 EndIf()
 0()
EndIf()
If(1,100,0,45,0)
 If(1,11,0,1,0)
  ShowMessageFace("alicetromeria_fc1",4,0,2,7)
  ShowMessage("\\n<Alicetroemeria>Ufufufufu...")
  ShowMessageFace("",0,0,2,8)
  ShowMessage("Alicetroemeria is giggling...")
  EndEventProcessing()
  0()
 EndIf()
 If(1,11,0,2,0)
  ShowMessageFace("alicetromeria_fc1",4,0,2,9)
  ShowMessage("\\n<Alicetroemeria>............")
  ShowMessageFace("",0,0,2,10)
  ShowMessage("Alicetroemeria is thinking evil thoughts...")
  EndEventProcessing()
  0()
 EndIf()
 If(1,11,0,3,0)
  ShowMessageFace("alicetromeria_fc1",1,0,2,11)
  ShowMessage("\\n<Alicetroemeria>So, in the castle... Was it delicious?")
  ShowMessageFace("",0,0,2,12)
  ShowMessage("Alicetroemeria is having a conversation with her bear...")
  EndEventProcessing()
  0()
 EndIf()
 If(1,11,0,4,0)
  ShowMessageFace("alicetromeria_fc1",0,0,2,13)
  ShowMessage("\\n<Alicetroemeria>Oh my, Beary ate...\nNo, Beary discovered this.")
  ShowMessageFace("",0,0,2,14)
  ShowMessage("Alicetroemeria found a corpse!")
  250(bytes(0x04,0x08,0x6f,0x3a,0x0c,0x52,0x50,0x47,0x3a,0x3a,0x53,0x45,0x08,0x3a,0x0a,0x40,0x6e,0x61,0x6d,0x65,0x49,0x22,0x0a,0x49,0x74,0x65,0x6d,0x31,0x06,0x3a,0x06,0x45,0x54,0x3a,0x0b,0x40,0x70,0x69,0x74,0x63,0x68,0x69,0x69,0x3a,0x0c,0x40,0x76,0x6f,0x6c,0x75,0x6d,0x65,0x69,0x55))
  ChangeInventory_Item(444,0,0,1)
  ShowMessageFace("",0,0,2,15)
  ShowMessage("You obtain a \\ii[444]!")
  EndEventProcessing()
  0()
 EndIf()
 If(1,11,0,5,0)
  ShowMessageFace("alicetromeria_fc1",0,0,2,16)
  ShowMessage("\\n<Alicetroemeria>Beary Bomb, Eii!")
  355("interrupt_skill(3306)")
  EndEventProcessing()
  0()
 EndIf()
 0()
EndIf()
0()
