﻿// EVENT 0526
Name "コラボC12：魔剣三姉妹"

ShowSpeechBalloon(-1,1,false)
212(10,501,false)
Wait(30)
ChangeSwitch(31,31,0)
212(11,501,false)
Wait(30)
ChangeSwitch(32,32,0)
212(12,501,false)
Wait(30)
ChangeSwitch(33,33,0)
Wait(60)
ShowMessageFace("muzet_fc1",0,0,2,1)
ShowMessage("\\n<Musette>")
ShowMessage("来たわね、勇者達……")
ShowMessage("私がいる以上、先には進ませないわよ。")
ShowMessageFace("",0,0,2,2)
ShowMessage("12-2")
SetBattleBGM(bytes(0x04,0x08,0x6f,0x3a,0x0d,0x52,0x50,0x47,0x3a,0x3a,0x42,0x47,0x4d,0x08,0x3a,0x0a,0x40,0x6e,0x61,0x6d,0x65,0x49,0x22,0x0a,0x62,0x6f,0x73,0x73,0x33,0x06,0x3a,0x06,0x45,0x54,0x3a,0x0c,0x40,0x76,0x6f,0x6c,0x75,0x6d,0x65,0x69,0x69,0x3a,0x0b,0x40,0x70,0x69,0x74,0x63,0x68,0x69,0x69))
Battle(0,1413,false,false)
SetBattleBGM(bytes(0x04,0x08,0x6f,0x3a,0x0d,0x52,0x50,0x47,0x3a,0x3a,0x42,0x47,0x4d,0x08,0x3a,0x0a,0x40,0x6e,0x61,0x6d,0x65,0x49,0x22,0x0b,0x62,0x61,0x74,0x74,0x6c,0x65,0x06,0x3a,0x06,0x45,0x54,0x3a,0x0c,0x40,0x76,0x6f,0x6c,0x75,0x6d,0x65,0x69,0x69,0x3a,0x0b,0x40,0x70,0x69,0x74,0x63,0x68,0x69,0x69))
ShowMessageFace("muzet_fc1",0,0,2,3)
ShowMessage("\\n<Musette>")
ShowMessage("こんな……まさか、この私が……！")
ShowMessageFace("rest_fc1",0,0,2,4)
ShowMessage("\\n<Lest>")
ShowMessage("僕達の勝ちだ！")
ShowMessage("観念しろ、ミュゼット！！")
ShowMessageFace("bell_fc1",0,0,2,5)
ShowMessage("\\n<Bell>")
ShowMessage("ミュゼット様、どうします……？")
ShowMessageFace("lira_fc1",0,0,2,6)
ShowMessage("\\n<Lyla>")
ShowMessage("どうしよう……大ピンチ！")
ShowMessageFace("muzet_fc1",0,0,2,7)
ShowMessage("\\n<Musette>")
ShowMessage("私は、まだ負けないわ……！")
ShowMessage("ベル、リラ！　退くわよ！")
212(10,501,false)
Wait(30)
ChangeSwitch(31,31,1)
Wait(60)
ShowMessageFace("bell_fc1",0,0,2,8)
ShowMessage("\\n<Bell>")
ShowMessage("くっ……今度こそ、吠え面をかかせてやるわ！")
ShowMessageFace("lira_fc1",0,0,2,9)
ShowMessage("\\n<Lyla>")
ShowMessage("あっ、待って～！")
212(11,501,false)
Wait(30)
ChangeSwitch(32,32,1)
212(12,501,false)
Wait(30)
ChangeSwitch(33,33,1)
Wait(60)
ChangeVariable(1212,1212,0,0,2)
ShowMessageFace("",0,0,2,10)
ShowMessage("C12-2")
EndEventProcessing()
0()
