// EVENT 4126
Name "Tiny Lamia"

If(0,25,1)
 221()
 PictureClear(5)
 PictureClear(6)
 ShowMessageFace("",0,0,2,0)
 ShowMessage("......")
 242(2)
 Wait(120)
 241(bytes(0x04,0x08,0x6f,0x3a,0x0d,0x52,0x50,0x47,0x3a,0x3a,0x42,0x47,0x4d,0x08,0x3a,0x0a,0x40,0x6e,0x61,0x6d,0x65,0x49,0x22,0x0c,0x63,0x61,0x73,0x74,0x6c,0x65,0x36,0x06,0x3a,0x06,0x45,0x54,0x3a,0x0c,0x40,0x76,0x6f,0x6c,0x75,0x6d,0x65,0x69,0x69,0x3a,0x0b,0x40,0x70,0x69,0x74,0x63,0x68,0x69,0x69))
 EndEventProcessing()
 0()
EndIf()
PictureDisplay(5,"80_pramia_st01",0,0,0,0,100,100,255,0)
ShowMessageFace("pramia_fc1",0,0,2,1)
ShowMessage("\\n<Teeny>Hey, we have way more dishes to wash than I can handle... Would you mind helping?")
ShowMessageFace("",0,0,2,2)
ShowMessage("\\n<Luka>Oh? Sure, why not?")
ShowMessageFace("",0,0,2,3)
ShowMessage("The moment I turn to walk to the kitchen, Teeny's eyes flash!")
ShowMessageFace("pramia_fc1",1,0,2,4)
ShowMessage("\\n<Teeny>Now's my chance!")
ShowMessageFace("",0,0,2,5)
ShowMessage("\\n<Luka>Whoa! What are you doing!?")
241(bytes(0x04,0x08,0x6f,0x3a,0x0d,0x52,0x50,0x47,0x3a,0x3a,0x42,0x47,0x4d,0x08,0x3a,0x0a,0x40,0x6e,0x61,0x6d,0x65,0x49,0x22,0x09,0x65,0x72,0x6f,0x31,0x06,0x3a,0x06,0x45,0x54,0x3a,0x0c,0x40,0x76,0x6f,0x6c,0x75,0x6d,0x65,0x69,0x69,0x3a,0x0b,0x40,0x70,0x69,0x74,0x63,0x68,0x69,0x69))
PictureDisplay(5,"ev_pramia_h1",0,0,0,0,100,100,0,0)
PictureDisplay(6,"ev_pramia_ct01",0,0,0,0,100,100,0,0)
PictureMove(5,null,0,0,80,37,100,100,255,0,30,false)
PictureMove(6,null,0,0,0,0,100,100,255,0,30,true)
ShowMessageFace("",0,0,2,6)
ShowMessage("Teeny rams into me! Knocked off guard, she wraps me up in her tail and leans over me!")
ShowMessageFace("pramia_fc1",1,0,2,7)
ShowMessage("\\n<Teeny>Let me suck out some of your semen to prove we're friends, okay? I'll only take a little...♪")
ShowMessageFace("",0,0,2,8)
ShowMessage("\\n<Luka>Th-that doesn't make any sense!")
ShowMessageFace("pramia_fc1",1,0,2,9)
ShowMessage("\\n<Teeny>I'm going to violate you anyway.\nHora hora, I'm putting it in now, okay?")
ShowMessageFace("pramia_fc1",1,0,2,10)
ShowMessage("\\n<Teeny>I'll get you addicted to my tight vagina.\nYour white and sticky semen... give me lots!")
ShowMessageFace("",0,0,2,11)
ShowMessage("Teeny slowly forces me into her narrow entrance...")
245(bytes(0x04,0x08,0x6f,0x3a,0x0d,0x52,0x50,0x47,0x3a,0x3a,0x42,0x47,0x53,0x08,0x3a,0x0a,0x40,0x6e,0x61,0x6d,0x65,0x49,0x22,0x1e,0x6d,0x6f,0x6e,0x5f,0x68,0x73,0x65,0x61,0x6e,0x30,0x33,0x5f,0x69,0x6e,0x6e,0x65,0x72,0x77,0x6f,0x72,0x6b,0x73,0x5f,0x61,0x33,0x06,0x3a,0x06,0x45,0x54,0x3a,0x0c,0x40,0x76,0x6f,0x6c,0x75,0x6d,0x65,0x69,0x55,0x3a,0x0b,0x40,0x70,0x69,0x74,0x63,0x68,0x69,0x69))
PictureDisplay(5,"ev_pramia_h2",0,0,0,0,100,100,255,0)
PictureDisplay(6,"ev_pramia_ct02",0,0,0,0,100,100,255,0)
ShowMessageFace("",0,0,2,12)
ShowMessage("Screwing into her tightness, I start to let out a sigh.")
ShowMessage("Her overwhelming pressure forces my waist to writhe around.")
ShowMessageFace("",0,0,2,13)
ShowMessage("\\n<Luka>Aahh! Ahhhh!")
ShowMessageFace("pramia_fc1",1,0,2,14)
ShowMessage("\\n<Teeny>Hahaha, my pussy is amazing, I know.\nLet me bully your penis more!")
ShowMessageFace("",0,0,2,15)
ShowMessage("Still recovering from my last ejaculation, Teeny strangles my dick, from my base to the tip.")
ShowMessageFace("",0,0,2,16)
ShowMessage("\\n<Luka>Auuu! I'm... I'm stuck!")
ShowMessageFace("pramia_fc1",1,0,2,17)
ShowMessage("\\n<Teeny>Fufu... what a nice voice.\nI'm raping you while holding you down with my tail! Hahaha.")
ShowMessageFace("",0,0,2,18)
ShowMessage("Her tiny tail, wrapped around my body, starts to forcefully thrust me deeper into her.")
ShowMessageFace("",0,0,2,19)
ShowMessage("Completely defeated, I can't do anything but accept her torture.")
ShowMessageFace("pramia_fc1",1,0,2,20)
ShowMessage("\\n<Teeny>Haha, not resisting?")
ShowMessageFace("pramia_fc1",1,0,2,21)
ShowMessage("\\n<Teeny>If you don't do anything, I'm just going to milk you dry...")
ShowMessageFace("",0,0,2,22)
ShowMessage("\\n<Luka>Ahiii!")
ShowMessageFace("",0,0,2,23)
ShowMessage("Completely locked inside of Teeny, I feel her start to rhythmically tighten and loosen around me...")
ShowMessageFace("",0,0,2,24)
ShowMessage("My body starts to writhe at her rhythmic waves that are milking my member.")
ShowMessageFace("pramia_fc1",1,0,2,25)
ShowMessage("\\n<Teeny>Hahaha! You're soooo weak!\nAlready giving up... do you want me to strangle you that much?")
ShowMessageFace("",0,0,2,26)
ShowMessage("Laughing at me, Teeny continues squeezing me inside of her.")
ShowMessageFace("",0,0,2,27)
ShowMessage("Suddenly, she tightens up around the head of my dick, at her deepest part.")
ShowMessageFace("",0,0,2,28)
ShowMessage("Hitting my weakest point, my back arches up.")
ShowMessageFace("",0,0,2,29)
ShowMessage("\\n<Luka>Stop it... no more...")
ShowMessageFace("pramia_fc1",1,0,2,30)
ShowMessage("\\n<Teeny>Already going to come again?\nHahaha, how laame!")
ShowMessageFace("pramia_fc1",1,0,2,31)
ShowMessage("\\n<Teeny>Just come, you pathetic loser!")
ShowMessageFace("",0,0,2,32)
ShowMessage("Suddenly, Teeny contracts her pussy tighter than ever before!")
ShowMessageFace("",0,0,2,33)
ShowMessage("\\n<Luka>Aaaaaaaahhh!")
RunCommonEvent(104)
PictureDisplay(5,"ev_pramia_h3",0,0,0,0,100,100,255,0)
PictureDisplay(6,"ev_pramia_ct03",0,0,0,0,100,100,255,0)
RunCommonEvent(105)
ShowMessageFace("",0,0,2,34)
ShowMessage("As soon as she tightened, I started to explode into her.")
ShowMessage("Right as I start ejaculating, she squeezes me, and stops me from fully coming!")
ShowMessageFace("pramia_fc1",1,0,2,35)
ShowMessage("\\n<Teeny>Haha, I can make it even tighter than that, you know!")
ShowMessageFace("",0,0,2,36)
ShowMessage("\\n<Luka>Ahgg! Don't do... that!\nAhhhhh!")
245(bytes(0x04,0x08,0x6f,0x3a,0x0d,0x52,0x50,0x47,0x3a,0x3a,0x42,0x47,0x53,0x08,0x3a,0x0a,0x40,0x6e,0x61,0x6d,0x65,0x49,0x22,0x1e,0x6d,0x6f,0x6e,0x5f,0x68,0x73,0x65,0x61,0x6e,0x30,0x37,0x5f,0x69,0x6e,0x6e,0x65,0x72,0x77,0x6f,0x72,0x6b,0x73,0x5f,0x61,0x37,0x06,0x3a,0x06,0x45,0x54,0x3a,0x0c,0x40,0x76,0x6f,0x6c,0x75,0x6d,0x65,0x69,0x55,0x3a,0x0b,0x40,0x70,0x69,0x74,0x63,0x68,0x69,0x69))
ShowMessageFace("",0,0,2,37)
ShowMessage("My ejaculation unfinished, she strangles my cock, not letting anything else out.")
ShowMessageFace("",0,0,2,38)
ShowMessage("I desperately try to push her off me, but her tail is too tightly wound for me to do anything.")
ShowMessageFace("pramia_fc1",1,0,2,39)
ShowMessage("\\n<Teeny>Hahaha, you won't get me off!\nI want to get even more milk from you, after all!")
ShowMessageFace("",0,0,2,40)
ShowMessage("\\n<Luka>Aahh! Ahhhh!")
ShowMessageFace("",0,0,2,41)
ShowMessage("I writhe around and cling to the little lamia who's torturing me so mercilessly.")
ShowMessageFace("",0,0,2,42)
ShowMessage("Not having fully finished my last orgasm, I already feel another one trying to explode.")
ShowMessageFace("pramia_fc1",1,0,2,43)
ShowMessage("\\n<Teeny>Haha, every time I squeeze you, you let loose such a cute scream.\nSo pathetic!")
ShowMessageFace("pramia_fc1",1,0,2,44)
ShowMessage("\\n<Teeny>I'll let you come, screaming like a loser!")
ShowMessageFace("",0,0,2,45)
ShowMessage("\\n<Luka>Haaaa! Ahhhhh!")
RunCommonEvent(104)
PictureDisplay(5,"ev_pramia_h4",0,0,0,0,100,100,255,0)
PictureDisplay(6,"ev_pramia_ct04",0,0,0,0,100,100,255,0)
RunCommonEvent(105)
ShowMessageFace("",0,0,2,46)
ShowMessage("While screaming pitifully, I violently climax, shooting my seed inside of her.")
ShowMessage("This little girl is milking me dry...")
ShowMessageFace("pramia_fc1",1,0,2,47)
ShowMessage("\\n<Teeny>Your semen is so delicious.\nLet me wring even more from you.")
ShowMessageFace("",0,0,2,48)
ShowMessage("\\n<Luka>Ahhh...\nPlea....se... no more...")
ShowMessageFace("",0,0,2,49)
ShowMessage("Despite my pleas, Teeny doesn't let up.")
ShowMessage("Still feeling the overwhelming stimulation, my vision starts to slowly go hazy.")
ShowMessageFace("pramia_fc1",1,0,2,50)
ShowMessage("\\n<Teeny>Haha, I won't quit!\nYou're just a Lamia's prey now, after all.")
ShowMessageFace("pramia_fc1",1,0,2,51)
ShowMessage("\\n<Teeny>Until you're completely empty, I won't stop milking you.")
ShowMessageFace("pramia_fc1",1,0,2,52)
ShowMessage("\\n<Teeny>Until you become dry and shriveled, I'll keep going!")
ShowMessageFace("",0,0,2,53)
ShowMessage("\\n<Luka>Ahhh! N..o... way...")
ShowMessageFace("",0,0,2,54)
ShowMessage("Writhing in pleasure, I try to protest one last time.")
ShowMessage("As I look down at where we're stuck together, she laughs at me.")
ShowMessageFace("",0,0,2,55)
ShowMessage("\\n<Luka>N..o! Faaaaa!")
RunCommonEvent(104)
PictureDisplay(5,"ev_pramia_h5",0,0,0,0,100,100,255,0)
PictureDisplay(6,"ev_pramia_ct05",0,0,0,0,100,100,255,0)
RunCommonEvent(105)
ShowMessageFace("",0,0,2,56)
ShowMessage("I'm brought to yet another climax.")
ShowMessage("Over and over, I'm forced to ejaculate without mercy.")
RunCommonEvent(104)
RunCommonEvent(105)
ShowMessageFace("",0,0,2,57)
ShowMessage("In the overwhelming ecstasy, my consciousness starts to fade.")
ShowMessageFace("pramia_fc1",1,0,2,58)
ShowMessage("\\n<Teeny>Oh? Did you faint?")
ShowMessageFace("pramia_fc1",1,0,2,59)
ShowMessage("\\n<Teeny>Fainting from the pleasure, you're so pathetic!")
ShowMessageFace("",0,0,2,60)
ShowMessage("\\n<Luka>Aa......")
ShowMessageFace("",0,0,2,61)
ShowMessage("Even as my vision goes black, Teeny continues to squeeze me.")
ShowMessageFace("",0,0,2,62)
ShowMessage("Coming inside of the small lamia one last time, I lose consciousness.")
221()
PictureClear(5)
PictureClear(6)
246(2)
ShowMessageFace("",0,0,2,63)
ShowMessage("...............")
242(2)
Wait(120)
241(bytes(0x04,0x08,0x6f,0x3a,0x0d,0x52,0x50,0x47,0x3a,0x3a,0x42,0x47,0x4d,0x08,0x3a,0x0a,0x40,0x6e,0x61,0x6d,0x65,0x49,0x22,0x0c,0x63,0x61,0x73,0x74,0x6c,0x65,0x36,0x06,0x3a,0x06,0x45,0x54,0x3a,0x0c,0x40,0x76,0x6f,0x6c,0x75,0x6d,0x65,0x69,0x69,0x3a,0x0b,0x40,0x70,0x69,0x74,0x63,0x68,0x69,0x69))
0()
