﻿// EVENT 1374
Name "Talk: S-2"

If(1,20,0,1,0)
 JumpToLabel("情報")
 0()
EndIf()
If(1,20,0,2,0)
 JumpToLabel("質問")
 0()
EndIf()
If(1,20,0,3,0)
 JumpToLabel("要求")
 0()
EndIf()
If(1,20,0,4,0)
 JumpToLabel("贈与")
 0()
EndIf()
DefineLabel("情報")
ChangeVariable(13,13,0,2,1,100)
If(1,13,0,10,2)
 ShowMessageFace("c_s2_fc1",0,0,2,1)
 ShowMessage("\\n<S-2>Bubblebubble... Awawa...")
 EndEventProcessing()
 0()
EndIf()
If(1,13,0,20,2)
 ShowMessageFace("c_s2_fc1",0,0,2,2)
 ShowMessage("\\n<S-2>I want to go play outside...")
 EndEventProcessing()
 0()
EndIf()
If(1,13,0,30,2)
 ShowMessageFace("c_s2_fc1",0,0,2,3)
 ShowMessage("\\n<S-2>It's a human...\nCan I suck your semen...?")
 EndEventProcessing()
 0()
EndIf()
If(1,13,0,40,2)
 ShowMessageFace("c_s2_fc1",0,0,2,4)
 ShowMessage("\\n<S-2>Awawawa...\nA lot of bubbles came out...")
 EndEventProcessing()
 0()
EndIf()
If(1,13,0,50,2)
 ShowMessageFace("c_s2_fc1",0,0,2,5)
 ShowMessage("\\n<S-2>My tentacles can stretch...\nSquishsquish...")
 EndEventProcessing()
 0()
EndIf()
If(1,13,0,60,2)
 ShowMessageFace("c_s2_fc1",0,0,2,6)
 ShowMessage("\\n<S-2>I don't want to go back to the lab...")
 EndEventProcessing()
 0()
EndIf()
If(1,13,0,70,2)
 ShowMessageFace("c_s2_fc1",0,0,2,7)
 ShowMessage("\\n<S-2>I used to have the tentacles on my hair cut before. Now I shorten them myself...")
 EndEventProcessing()
 0()
EndIf()
If(1,13,0,80,2)
 ShowMessageFace("c_s2_fc1",2,0,2,8)
 ShowMessage("\\n<S-2>There's another lab person. I'm a bit scared...")
 EndEventProcessing()
 0()
EndIf()
If(1,13,0,90,2)
 ShowMessageFace("c_s2_fc1",0,0,2,9)
 ShowMessage("\\n<S-2>I wonder what happened to the lab...?")
 EndEventProcessing()
 0()
EndIf()
If(1,13,0,100,2)
 ShowMessageFace("c_s2_fc1",0,0,2,10)
 ShowMessage("\\n<S-2>I played all day until it was dark...\nI'll sleep well tonight.")
 EndEventProcessing()
 0()
EndIf()
DefineLabel("質問")
ChangeVariable(13,13,0,2,1,50)
If(1,13,0,10,2)
 ShowMessageFace("c_s2_fc1",0,0,2,11)
 ShowMessage("\\n<S-2>Awawa... Am I a slime? Or a Scylla?")
 ShowChoices(strings("Slime","Scylla","Chimera"),0)
 IfPlayerPicksChoice(0,"スライム")
  ShowMessageFace("c_s2_fc1",0,0,2,12)
  ShowMessage("\\n<S-2>Bubblebubble, awawa...♪")
  355("change_friend(10)")
  0()
 IfPlayerPicksChoice(1,"スキュラ")
  ShowMessageFace("c_s2_fc1",0,0,2,13)
  ShowMessage("\\n<S-2>Squishsquish, mushmush...♪")
  355("change_friend(10)")
  0()
 IfPlayerPicksChoice(2,"キメラ")
  ShowMessageFace("c_s2_fc1",2,0,2,14)
  ShowMessage("\\n<S-2>I don't understand difficult things...")
  0()
 404()
 EndEventProcessing()
 0()
EndIf()
If(1,13,0,20,2)
 ShowMessageFace("c_s2_fc1",0,0,2,15)
 ShowMessage("\\n<S-2>Who is the one that made me...?")
 ShowChoices(strings("Ilias","Promestein","Me"),0)
 IfPlayerPicksChoice(0,"イリアス")
  ShowMessageFace("c_s2_fc1",0,0,2,16)
  ShowMessage("\\n<S-2>I read in a picture book that all living things were made by Ilias. But I heard that was a lie...?")
  0()
 IfPlayerPicksChoice(1,"プロメスティン")
  ShowMessageFace("c_s2_fc1",0,0,2,17)
  ShowMessage("\\n<S-2>So... Master, the one who named me...")
  355("change_friend(10)")
  0()
 IfPlayerPicksChoice(2,"僕")
  ShowMessageFace("c_s2_fc1",2,0,2,18)
  ShowMessage("\\n<S-2>Someone different...")
  355("change_friend(-5)")
  0()
 404()
 EndEventProcessing()
 0()
EndIf()
If(1,13,0,30,2)
 ShowMessageFace("c_s2_fc1",0,0,2,19)
 ShowMessage("\\n<S-2>Why was I created...?")
 ShowChoices(strings("For experimentation","To fight","To play freely"),0)
 IfPlayerPicksChoice(0,"実験するため")
  ShowMessageFace("c_s2_fc1",2,0,2,20)
  ShowMessage("\\n<S-2>I don't like being an experiment...")
  355("change_friend(-5)")
  0()
 IfPlayerPicksChoice(1,"戦うため")
  ShowMessageFace("c_s2_fc1",0,0,2,21)
  ShowMessage("\\n<S-2>Then I'll fight...!")
  0()
 IfPlayerPicksChoice(2,"のびのび遊ぶため")
  ShowMessageFace("c_s2_fc1",0,0,2,22)
  ShowMessage("\\n<S-2>If that's so, that makes me happy...♪")
  355("change_friend(10)")
  0()
 404()
 EndEventProcessing()
 0()
EndIf()
If(1,13,0,40,2)
 ShowMessageFace("c_s2_fc1",0,0,2,23)
 ShowMessage("\\n<S-2>Hey, let's play...\nHow would you like to play?")
 ShowChoices(strings("Play with our bodies","Play with our minds","Naughty play"),0)
 IfPlayerPicksChoice(0,"体を使う遊び")
  ShowMessageFace("c_s2_fc1",0,0,2,24)
  ShowMessage("\\n<S-2>I like moving...♪ Let's play a lot. ♪")
  355("change_friend(10)")
  0()
 IfPlayerPicksChoice(1,"頭を使う遊び")
  ShowMessageFace("c_s2_fc1",2,0,2,25)
  ShowMessage("\\n<S-2>I'm not good at using my head...")
  355("change_friend(-5)")
  0()
 IfPlayerPicksChoice(2,"エッチな遊び")
  ShowMessageFace("c_s2_fc1",0,0,2,26)
  ShowMessage("\\n<S-2>With my bubbles...?\nOr do you want my squishy tentacles?")
  355("change_friend(10)")
  0()
 404()
 EndEventProcessing()
 0()
EndIf()
If(1,13,0,50,2)
 ShowMessageFace("c_s2_fc1",0,0,2,27)
 ShowMessage("\\n<S-2>Do my tentacles look delicious...?")
 ShowChoices(strings("Looks delicious","Looks yucky","They are delicious"),0)
 IfPlayerPicksChoice(0,"おいしそう")
  ShowMessageFace("c_s2_fc1",0,0,2,28)
  ShowMessage("\\n<S-2>Don't eat them...")
  355("change_friend(-5)")
  0()
 IfPlayerPicksChoice(1,"まずそう")
  ShowMessageFace("c_s2_fc1",0,0,2,29)
  ShowMessage("\\n<S-2>Don't eat them, they don't taste good.")
  355("change_friend(10)")
  0()
 IfPlayerPicksChoice(2,"おいしかった")
  ShowMessageFace("c_s2_fc1",2,0,2,30)
  ShowMessage("\\n<S-2>You already ate them?!\nI didn't even notice...")
  355("change_friend(-5)")
  0()
 404()
 EndEventProcessing()
 0()
EndIf()
DefineLabel("要求")
ChangeVariable(13,13,0,2,1,30)
If(1,13,0,10,2)
 If(8,329)
  ShowMessageFace("c_s2_fc1",0,0,2,31)
  ShowMessage("\\n<S-2>Meat, please...")
  ChangeVariable(24,24,0,3,0,329,0)
  ShowMessageFace("",0,0,2,32)
  ShowMessage("Do you want to give some \\ii[329]? (Have:\\V[24])")
  ShowChoices(strings("Yes","No"),2)
  IfPlayerPicksChoice(0,"Yes")
   ShowMessageFace("c_s2_fc1",0,0,2,33)
   ShowMessage("\\n<S-2>I'm happy...♪ Awawa♪")
   ChangeInventory_Item(329,1,0,1)
   355("change_friend(20)")
   EndEventProcessing()
   0()
  IfPlayerPicksChoice(1,"No")
   ShowMessageFace("c_s2_fc1",2,0,2,34)
   ShowMessage("\\n<S-2>Bubblebubble...")
   EndEventProcessing()
   0()
  404()
  0()
 Else()
  ChangeVariable(13,13,0,0,20)
  0()
 EndIf()
 0()
EndIf()
If(1,13,0,20,2)
 If(8,331)
  ShowMessageFace("c_s2_fc1",0,0,2,35)
  ShowMessage("\\n<S-2>I want to eat sausage...")
  ChangeVariable(24,24,0,3,0,331,0)
  ShowMessageFace("",0,0,2,36)
  ShowMessage("Do you want to give a \\ii[331]? (Have:\\V[24])")
  ShowChoices(strings("Yes","No"),2)
  IfPlayerPicksChoice(0,"Yes")
   ShowMessageFace("c_s2_fc1",0,0,2,37)
   ShowMessage("\\n<S-2>I'm happy...♪ Awawa♪")
   ChangeInventory_Item(331,1,0,1)
   355("change_friend(30)")
   EndEventProcessing()
   0()
  IfPlayerPicksChoice(1,"No")
   ShowMessageFace("c_s2_fc1",2,0,2,38)
   ShowMessage("\\n<S-2>Bubblebubble...")
   EndEventProcessing()
   0()
  404()
  0()
 Else()
  ChangeVariable(13,13,0,0,30)
  0()
 EndIf()
 0()
EndIf()
If(1,13,0,30,2)
 ShowMessageFace("c_s2_fc1",0,0,2,39)
 ShowMessage("\\n<S-2>Give me money...")
 If(7,1230,0)
  ChangeVariable(24,24,0,3,7,2,0)
  ShowMessageFace("",0,0,2,40)
  ShowMessage("Do you want to give 1230G? (Remaining:\\V[24])")
  ShowChoices(strings("Yes","No"),2)
  IfPlayerPicksChoice(0,"Yes")
   ShowMessageFace("c_s2_fc1",0,0,2,41)
   ShowMessage("\\n<S-2>I'm happy...♪ Awawa♪")
   125(1,0,1230)
   355("change_friend(25)")
   EndEventProcessing()
   0()
  IfPlayerPicksChoice(1,"No")
   ShowMessageFace("c_s2_fc1",2,0,2,42)
   ShowMessage("\\n<S-2>Bubblebubble...")
   EndEventProcessing()
   0()
  404()
  0()
 Else()
  ShowMessageFace("c_s2_fc1",2,0,2,43)
  ShowMessage("\\n<S-2>...I don't see any.")
  EndEventProcessing()
  0()
 EndIf()
 0()
EndIf()
DefineLabel("贈与")
ChangeVariable(13,13,0,2,1,30)
If(1,25,0,1,0)
 ChangeVariable(13,13,0,0,30)
 ChangeVariable(25,25,0,0,0)
 0()
EndIf()
If(1,25,0,2,0)
 ChangeVariable(13,13,0,2,1,20)
 ChangeVariable(25,25,0,0,0)
 0()
EndIf()
If(1,13,0,10,2)
 ShowMessageFace("c_s2_fc1",0,0,2,44)
 ShowMessage("\\n<S-2>Awawa... I'll give you these mysterious cells. ♪")
 250(bytes(0x04,0x08,0x6f,0x3a,0x0c,0x52,0x50,0x47,0x3a,0x3a,0x53,0x45,0x08,0x3a,0x0a,0x40,0x6e,0x61,0x6d,0x65,0x49,0x22,0x0a,0x49,0x74,0x65,0x6d,0x31,0x06,0x3a,0x06,0x45,0x54,0x3a,0x0b,0x40,0x70,0x69,0x74,0x63,0x68,0x69,0x69,0x3a,0x0c,0x40,0x76,0x6f,0x6c,0x75,0x6d,0x65,0x69,0x55))
 ChangeInventory_Item(225,0,0,1)
 ShowMessageFace("",0,0,2,45)
 ShowMessage("S-2 gave you an \\ii[225]!")
 EndEventProcessing()
 0()
EndIf()
If(1,13,0,20,2)
 ShowMessageFace("c_s2_fc1",0,0,2,46)
 ShowMessage("\\n<S-2>Awawa... I picked up a pretty stone and washed it.\nI'll give it to you. ♪")
 250(bytes(0x04,0x08,0x6f,0x3a,0x0c,0x52,0x50,0x47,0x3a,0x3a,0x53,0x45,0x08,0x3a,0x0a,0x40,0x6e,0x61,0x6d,0x65,0x49,0x22,0x0a,0x49,0x74,0x65,0x6d,0x31,0x06,0x3a,0x06,0x45,0x54,0x3a,0x0b,0x40,0x70,0x69,0x74,0x63,0x68,0x69,0x69,0x3a,0x0c,0x40,0x76,0x6f,0x6c,0x75,0x6d,0x65,0x69,0x55))
 ChangeInventory_Item(57,0,0,1)
 ShowMessageFace("",0,0,2,47)
 ShowMessage("S-2 gave you a \\ii[57]!")
 EndEventProcessing()
 0()
EndIf()
If(1,13,0,30,2)
 ShowMessageFace("c_s2_fc1",0,0,2,48)
 ShowMessage("\\n<S-2>Awawa... I'll give you money. ♪")
 250(bytes(0x04,0x08,0x6f,0x3a,0x0c,0x52,0x50,0x47,0x3a,0x3a,0x53,0x45,0x08,0x3a,0x0a,0x40,0x6e,0x61,0x6d,0x65,0x49,0x22,0x0a,0x49,0x74,0x65,0x6d,0x31,0x06,0x3a,0x06,0x45,0x54,0x3a,0x0b,0x40,0x70,0x69,0x74,0x63,0x68,0x69,0x69,0x3a,0x0c,0x40,0x76,0x6f,0x6c,0x75,0x6d,0x65,0x69,0x55))
 125(0,0,2050)
 ShowMessageFace("",0,0,2,49)
 ShowMessage("S-2 gave you 2050G!")
 EndEventProcessing()
 0()
EndIf()
0()
