﻿
DisplayName "Hellgondo Cave 1F"



EVENT   2
 PAGE   1
  250(bytes(0x04,0x08,0x6f,0x3a,0x0c,0x52,0x50,0x47,0x3a,0x3a,0x53,0x45,0x08,0x3a,0x0a,0x40,0x6e,0x61,0x6d,0x65,0x49,0x22,0x09,0x4d,0x6f,0x76,0x65,0x06,0x3a,0x06,0x45,0x54,0x3a,0x0b,0x40,0x70,0x69,0x74,0x63,0x68,0x69,0x69,0x3a,0x0c,0x40,0x76,0x6f,0x6c,0x75,0x6d,0x65,0x69,0x55))
  TeleportPlayer(0,161,31,38,0,0)
  0()



EVENT   3
 PAGE   1
  250(bytes(0x04,0x08,0x6f,0x3a,0x0c,0x52,0x50,0x47,0x3a,0x3a,0x53,0x45,0x08,0x3a,0x0a,0x40,0x6e,0x61,0x6d,0x65,0x49,0x22,0x09,0x4d,0x6f,0x76,0x65,0x06,0x3a,0x06,0x45,0x54,0x3a,0x0b,0x40,0x70,0x69,0x74,0x63,0x68,0x69,0x69,0x3a,0x0c,0x40,0x76,0x6f,0x6c,0x75,0x6d,0x65,0x69,0x55))
  TeleportPlayer(0,161,32,38,0,0)
  0()



EVENT   5
 PAGE   1
  ChangeSwitch(100,100,1)
  250(bytes(0x04,0x08,0x6f,0x3a,0x0c,0x52,0x50,0x47,0x3a,0x3a,0x53,0x45,0x08,0x3a,0x0a,0x40,0x6e,0x61,0x6d,0x65,0x49,0x22,0x09,0x4d,0x6f,0x76,0x65,0x06,0x3a,0x06,0x45,0x54,0x3a,0x0b,0x40,0x70,0x69,0x74,0x63,0x68,0x69,0x69,0x3a,0x0c,0x40,0x76,0x6f,0x6c,0x75,0x6d,0x65,0x69,0x55))
  TeleportPlayer(0,194,112,77,2,0)
  0()



EVENT   6
 PAGE   1
  250(bytes(0x04,0x08,0x6f,0x3a,0x0c,0x52,0x50,0x47,0x3a,0x3a,0x53,0x45,0x08,0x3a,0x0a,0x40,0x6e,0x61,0x6d,0x65,0x49,0x22,0x0a,0x43,0x68,0x65,0x73,0x74,0x06,0x3a,0x06,0x45,0x54,0x3a,0x0b,0x40,0x70,0x69,0x74,0x63,0x68,0x69,0x69,0x3a,0x0c,0x40,0x76,0x6f,0x6c,0x75,0x6d,0x65,0x69,0x55))
  205(0,bytes(0x04,0x08,0x6f,0x3a,0x13,0x52,0x50,0x47,0x3a,0x3a,0x4d,0x6f,0x76,0x65,0x52,0x6f,0x75,0x74,0x65,0x09,0x3a,0x0c,0x40,0x72,0x65,0x70,0x65,0x61,0x74,0x46,0x3a,0x0f,0x40,0x73,0x6b,0x69,0x70,0x70,0x61,0x62,0x6c,0x65,0x46,0x3a,0x0a,0x40,0x77,0x61,0x69,0x74,0x54,0x3a,0x0a,0x40,0x6c,0x69,0x73,0x74,0x5b,0x0b,0x6f,0x3a,0x15,0x52,0x50,0x47,0x3a,0x3a,0x4d,0x6f,0x76,0x65,0x43,0x6f,0x6d,0x6d,0x61,0x6e,0x64,0x07,0x3a,0x0a,0x40,0x63,0x6f,0x64,0x65,0x69,0x29,0x3a,0x10,0x40,0x70,0x61,0x72,0x61,0x6d,0x65,0x74,0x65,0x72,0x73,0x5b,0x00,0x6f,0x3b,0x0a,0x07,0x3b,0x0b,0x69,0x16,0x3b,0x0c,0x5b,0x00,0x6f,0x3b,0x0a,0x07,0x3b,0x0b,0x69,0x14,0x3b,0x0c,0x5b,0x06,0x69,0x08,0x6f,0x3b,0x0a,0x07,0x3b,0x0b,0x69,0x17,0x3b,0x0c,0x5b,0x00,0x6f,0x3b,0x0a,0x07,0x3b,0x0b,0x69,0x14,0x3b,0x0c,0x5b,0x06,0x69,0x08,0x6f,0x3b,0x0a,0x07,0x3b,0x0b,0x69,0x00,0x3b,0x0c,0x5b,0x00))
  ChangeSelfSwitch("A",0)
  ChangeInventory_Item(53,0,0,1)
  0()
 PAGE   2
  // condition: self-switch A is ON
  0()



EVENT   7
 PAGE   1
  250(bytes(0x04,0x08,0x6f,0x3a,0x0c,0x52,0x50,0x47,0x3a,0x3a,0x53,0x45,0x08,0x3a,0x0a,0x40,0x6e,0x61,0x6d,0x65,0x49,0x22,0x0a,0x43,0x68,0x65,0x73,0x74,0x06,0x3a,0x06,0x45,0x54,0x3a,0x0b,0x40,0x70,0x69,0x74,0x63,0x68,0x69,0x69,0x3a,0x0c,0x40,0x76,0x6f,0x6c,0x75,0x6d,0x65,0x69,0x55))
  205(0,bytes(0x04,0x08,0x6f,0x3a,0x13,0x52,0x50,0x47,0x3a,0x3a,0x4d,0x6f,0x76,0x65,0x52,0x6f,0x75,0x74,0x65,0x09,0x3a,0x0c,0x40,0x72,0x65,0x70,0x65,0x61,0x74,0x46,0x3a,0x0f,0x40,0x73,0x6b,0x69,0x70,0x70,0x61,0x62,0x6c,0x65,0x46,0x3a,0x0a,0x40,0x77,0x61,0x69,0x74,0x54,0x3a,0x0a,0x40,0x6c,0x69,0x73,0x74,0x5b,0x0b,0x6f,0x3a,0x15,0x52,0x50,0x47,0x3a,0x3a,0x4d,0x6f,0x76,0x65,0x43,0x6f,0x6d,0x6d,0x61,0x6e,0x64,0x07,0x3a,0x0a,0x40,0x63,0x6f,0x64,0x65,0x69,0x29,0x3a,0x10,0x40,0x70,0x61,0x72,0x61,0x6d,0x65,0x74,0x65,0x72,0x73,0x5b,0x00,0x6f,0x3b,0x0a,0x07,0x3b,0x0b,0x69,0x16,0x3b,0x0c,0x5b,0x00,0x6f,0x3b,0x0a,0x07,0x3b,0x0b,0x69,0x14,0x3b,0x0c,0x5b,0x06,0x69,0x08,0x6f,0x3b,0x0a,0x07,0x3b,0x0b,0x69,0x17,0x3b,0x0c,0x5b,0x00,0x6f,0x3b,0x0a,0x07,0x3b,0x0b,0x69,0x14,0x3b,0x0c,0x5b,0x06,0x69,0x08,0x6f,0x3b,0x0a,0x07,0x3b,0x0b,0x69,0x00,0x3b,0x0c,0x5b,0x00))
  ChangeSelfSwitch("A",0)
  ChangeInventoryWeapon(29,0,0,1)
  0()
 PAGE   2
  // condition: self-switch A is ON
  0()



EVENT   8
 PAGE   1
  ChangeSelfSwitch("A",0)
  If(0,4,0)
   ShowMessageFace("alice_fc5",2,0,2,1)
   ShowMessage("\\n<Alice>If we go through this cave, we can get into the Hellgondo Continent. Naturally, the road is rugged, and the monsters will be powerful.")
   ShowMessageFace("ruka_fc1",0,0,2,2)
   ShowMessage("\\n<Luka>I expected as much from the cave leading into the Monster Continent. Now, let's get into the fighting spirit!")
   If(4,45,0)
    ShowMessageFace("alicetromeria_fc1",4,0,2,3)
    ShowMessage("\\n<Alicetroemeria>Ufufu, this adventure is a lot of fun.\nIt's as if we're making a round trip between wonderland and reality...")
    ShowMessageFace("alice_fc5",2,0,2,4)
    ShowMessage("\\n<Alice>...What are you scheming?")
    ShowMessageFace("alicetromeria_fc1",4,0,2,5)
    ShowMessage("\\n<Alicetroemeria>Ara... You don't understand, even though you're the Monster Lord?")
    ShowMessageFace("alice_fc5",3,0,2,6)
    ShowMessage("\\n<Alice>............")
    0()
   EndIf()
   EndEventProcessing()
   0()
  EndIf()
  If(0,5,0)
   ShowMessageFace("iriasu_fc4",2,0,2,7)
   ShowMessage("\\n<Ilias>If we can pass through this cave, we'll be able to break into the Hellgondo Continent. As would be expected, the path will not be easy, and the monsters will be powerful.")
   ShowMessageFace("ruka_fc1",0,0,2,8)
   ShowMessage("\\n<Luka>I expected as much from the cave leading into the Monster Continent. Now, let's get into the fighting spirit!")
   ShowMessageFace("heinrich_fc1",7,0,2,9)
   ShowMessage("\\n<Heinrich>So this is the dream trial given to me by Ilias... I suppose this will be like a rehearsal before I head for the Monster Lord's castle in reality.")
   If(0,6,0)
    ShowMessageFace("sonia_fc2",2,0,2,10)
    ShowMessage("\\n<Sonya>I still feel kind of bad for deceiving him...")
    ShowMessageFace("iriasu_fc4",0,0,2,11)
    ShowMessage("\\n<Ilias>Actually, this will be good training for Heinrich. After all, he must soon challenge Black Alice by himself.")
    0()
   EndIf()
   ShowMessageFace("heinrich_fc1",7,0,2,12)
   ShowMessage("\\n<Heinrich>That said, I wonder where Alicetroemeria's gone off to? Oh right, this is just a dream, so there's no reason for her to be here...")
   ShowMessageFace("iriasu_fc4",0,0,2,13)
   ShowMessage("\\n<Ilias>Heinrich... You should forget about that woman.\nYou mustn't listen to that voice of evil.")
   ShowMessageFace("heinrich_fc1",7,0,2,14)
   ShowMessage("\\n<Heinrich>You're always telling me that, Ilias...\nBut I know she's not an evil being.")
   ShowMessageFace("iriasu_fc4",2,0,2,15)
   ShowMessage("\\n<Ilias>(I...am going to repeat the same thing over again...)")
   EndEventProcessing()
   0()
  EndIf()
  0()
 PAGE   2
  // condition: self-switch A is ON
  0()
