﻿
DisplayName "Succubus Village"



EVENT   1
 PAGE   1
  0()



EVENT   2
 PAGE   1
  0()



EVENT   3
 PAGE   1
  0()



EVENT   4
 PAGE   1
  0()



EVENT   5
 PAGE   1
  0()



EVENT   6
 PAGE   1
  0()



EVENT   7
 PAGE   1
  0()



EVENT   8
 PAGE   1
  0()



EVENT   9
 PAGE   1
  0()



EVENT   10
 PAGE   1
  0()



EVENT   11
 PAGE   1
  0()



EVENT   12
 PAGE   1
  0()



EVENT   13
 PAGE   1
  0()



EVENT   14
 PAGE   1
  0()



EVENT   15
 PAGE   1
  0()



EVENT   16
 PAGE   1
  0()



EVENT   17
 PAGE   1
  0()



EVENT   18
 PAGE   1
  If(1,1069,0,2,2)
   ShowMessageFace("",0,0,2,1)
   ShowMessage("The residents have their door shut tight in hiding...")
   EndEventProcessing()
   0()
  EndIf()
  If(1,1069,0,3,1)
   250(bytes(0x04,0x08,0x6f,0x3a,0x0c,0x52,0x50,0x47,0x3a,0x3a,0x53,0x45,0x08,0x3a,0x0a,0x40,0x6e,0x61,0x6d,0x65,0x49,0x22,0x0a,0x4f,0x70,0x65,0x6e,0x31,0x06,0x3a,0x06,0x45,0x54,0x3a,0x0b,0x40,0x70,0x69,0x74,0x63,0x68,0x69,0x69,0x3a,0x0c,0x40,0x76,0x6f,0x6c,0x75,0x6d,0x65,0x69,0x55))
   205(0,bytes(0x04,0x08,0x6f,0x3a,0x13,0x52,0x50,0x47,0x3a,0x3a,0x4d,0x6f,0x76,0x65,0x52,0x6f,0x75,0x74,0x65,0x09,0x3a,0x0c,0x40,0x72,0x65,0x70,0x65,0x61,0x74,0x46,0x3a,0x0f,0x40,0x73,0x6b,0x69,0x70,0x70,0x61,0x62,0x6c,0x65,0x46,0x3a,0x0a,0x40,0x77,0x61,0x69,0x74,0x54,0x3a,0x0a,0x40,0x6c,0x69,0x73,0x74,0x5b,0x0c,0x6f,0x3a,0x15,0x52,0x50,0x47,0x3a,0x3a,0x4d,0x6f,0x76,0x65,0x43,0x6f,0x6d,0x6d,0x61,0x6e,0x64,0x07,0x3a,0x0a,0x40,0x63,0x6f,0x64,0x65,0x69,0x16,0x3a,0x10,0x40,0x70,0x61,0x72,0x61,0x6d,0x65,0x74,0x65,0x72,0x73,0x5b,0x00,0x6f,0x3b,0x0a,0x07,0x3b,0x0b,0x69,0x14,0x3b,0x0c,0x5b,0x06,0x69,0x08,0x6f,0x3b,0x0a,0x07,0x3b,0x0b,0x69,0x17,0x3b,0x0c,0x5b,0x00,0x6f,0x3b,0x0a,0x07,0x3b,0x0b,0x69,0x14,0x3b,0x0c,0x5b,0x06,0x69,0x08,0x6f,0x3b,0x0a,0x07,0x3b,0x0b,0x69,0x18,0x3b,0x0c,0x5b,0x00,0x6f,0x3b,0x0a,0x07,0x3b,0x0b,0x69,0x2a,0x3b,0x0c,0x5b,0x00,0x6f,0x3b,0x0a,0x07,0x3b,0x0b,0x69,0x00,0x3b,0x0c,0x5b,0x00))
   205(-1,bytes(0x04,0x08,0x6f,0x3a,0x13,0x52,0x50,0x47,0x3a,0x3a,0x4d,0x6f,0x76,0x65,0x52,0x6f,0x75,0x74,0x65,0x09,0x3a,0x0c,0x40,0x72,0x65,0x70,0x65,0x61,0x74,0x46,0x3a,0x0f,0x40,0x73,0x6b,0x69,0x70,0x70,0x61,0x62,0x6c,0x65,0x54,0x3a,0x0a,0x40,0x77,0x61,0x69,0x74,0x54,0x3a,0x0a,0x40,0x6c,0x69,0x73,0x74,0x5b,0x07,0x6f,0x3a,0x15,0x52,0x50,0x47,0x3a,0x3a,0x4d,0x6f,0x76,0x65,0x43,0x6f,0x6d,0x6d,0x61,0x6e,0x64,0x07,0x3a,0x0a,0x40,0x63,0x6f,0x64,0x65,0x69,0x11,0x3a,0x10,0x40,0x70,0x61,0x72,0x61,0x6d,0x65,0x74,0x65,0x72,0x73,0x5b,0x00,0x6f,0x3b,0x0a,0x07,0x3b,0x0b,0x69,0x00,0x3b,0x0c,0x5b,0x00))
   250(bytes(0x04,0x08,0x6f,0x3a,0x0c,0x52,0x50,0x47,0x3a,0x3a,0x53,0x45,0x08,0x3a,0x0a,0x40,0x6e,0x61,0x6d,0x65,0x49,0x22,0x09,0x4d,0x6f,0x76,0x65,0x06,0x3a,0x06,0x45,0x54,0x3a,0x0b,0x40,0x70,0x69,0x74,0x63,0x68,0x69,0x69,0x3a,0x0c,0x40,0x76,0x6f,0x6c,0x75,0x6d,0x65,0x69,0x55))
   TeleportPlayer(0,515,5,15,0,0)
   EndEventProcessing()
   0()
  EndIf()
  0()



EVENT   19
 PAGE   1
  If(1,1069,0,2,2)
   ShowMessageFace("",0,0,2,1)
   ShowMessage("The residents have their door shut tight in hiding...")
   EndEventProcessing()
   0()
  EndIf()
  If(1,1069,0,3,1)
   250(bytes(0x04,0x08,0x6f,0x3a,0x0c,0x52,0x50,0x47,0x3a,0x3a,0x53,0x45,0x08,0x3a,0x0a,0x40,0x6e,0x61,0x6d,0x65,0x49,0x22,0x0a,0x4f,0x70,0x65,0x6e,0x31,0x06,0x3a,0x06,0x45,0x54,0x3a,0x0b,0x40,0x70,0x69,0x74,0x63,0x68,0x69,0x69,0x3a,0x0c,0x40,0x76,0x6f,0x6c,0x75,0x6d,0x65,0x69,0x55))
   205(0,bytes(0x04,0x08,0x6f,0x3a,0x13,0x52,0x50,0x47,0x3a,0x3a,0x4d,0x6f,0x76,0x65,0x52,0x6f,0x75,0x74,0x65,0x09,0x3a,0x0c,0x40,0x72,0x65,0x70,0x65,0x61,0x74,0x46,0x3a,0x0f,0x40,0x73,0x6b,0x69,0x70,0x70,0x61,0x62,0x6c,0x65,0x46,0x3a,0x0a,0x40,0x77,0x61,0x69,0x74,0x54,0x3a,0x0a,0x40,0x6c,0x69,0x73,0x74,0x5b,0x0c,0x6f,0x3a,0x15,0x52,0x50,0x47,0x3a,0x3a,0x4d,0x6f,0x76,0x65,0x43,0x6f,0x6d,0x6d,0x61,0x6e,0x64,0x07,0x3a,0x0a,0x40,0x63,0x6f,0x64,0x65,0x69,0x16,0x3a,0x10,0x40,0x70,0x61,0x72,0x61,0x6d,0x65,0x74,0x65,0x72,0x73,0x5b,0x00,0x6f,0x3b,0x0a,0x07,0x3b,0x0b,0x69,0x14,0x3b,0x0c,0x5b,0x06,0x69,0x08,0x6f,0x3b,0x0a,0x07,0x3b,0x0b,0x69,0x17,0x3b,0x0c,0x5b,0x00,0x6f,0x3b,0x0a,0x07,0x3b,0x0b,0x69,0x14,0x3b,0x0c,0x5b,0x06,0x69,0x08,0x6f,0x3b,0x0a,0x07,0x3b,0x0b,0x69,0x18,0x3b,0x0c,0x5b,0x00,0x6f,0x3b,0x0a,0x07,0x3b,0x0b,0x69,0x2a,0x3b,0x0c,0x5b,0x00,0x6f,0x3b,0x0a,0x07,0x3b,0x0b,0x69,0x00,0x3b,0x0c,0x5b,0x00))
   205(-1,bytes(0x04,0x08,0x6f,0x3a,0x13,0x52,0x50,0x47,0x3a,0x3a,0x4d,0x6f,0x76,0x65,0x52,0x6f,0x75,0x74,0x65,0x09,0x3a,0x0c,0x40,0x72,0x65,0x70,0x65,0x61,0x74,0x46,0x3a,0x0f,0x40,0x73,0x6b,0x69,0x70,0x70,0x61,0x62,0x6c,0x65,0x54,0x3a,0x0a,0x40,0x77,0x61,0x69,0x74,0x54,0x3a,0x0a,0x40,0x6c,0x69,0x73,0x74,0x5b,0x07,0x6f,0x3a,0x15,0x52,0x50,0x47,0x3a,0x3a,0x4d,0x6f,0x76,0x65,0x43,0x6f,0x6d,0x6d,0x61,0x6e,0x64,0x07,0x3a,0x0a,0x40,0x63,0x6f,0x64,0x65,0x69,0x11,0x3a,0x10,0x40,0x70,0x61,0x72,0x61,0x6d,0x65,0x74,0x65,0x72,0x73,0x5b,0x00,0x6f,0x3b,0x0a,0x07,0x3b,0x0b,0x69,0x00,0x3b,0x0c,0x5b,0x00))
   250(bytes(0x04,0x08,0x6f,0x3a,0x0c,0x52,0x50,0x47,0x3a,0x3a,0x53,0x45,0x08,0x3a,0x0a,0x40,0x6e,0x61,0x6d,0x65,0x49,0x22,0x09,0x4d,0x6f,0x76,0x65,0x06,0x3a,0x06,0x45,0x54,0x3a,0x0b,0x40,0x70,0x69,0x74,0x63,0x68,0x69,0x69,0x3a,0x0c,0x40,0x76,0x6f,0x6c,0x75,0x6d,0x65,0x69,0x55))
   TeleportPlayer(0,515,66,15,0,0)
   EndEventProcessing()
   0()
  EndIf()
  0()



EVENT   20
 PAGE   1
  If(1,1069,0,2,2)
   ShowMessageFace("",0,0,2,1)
   ShowMessage("The residents have their door shut tight in hiding...")
   EndEventProcessing()
   0()
  EndIf()
  If(1,1069,0,3,1)
   250(bytes(0x04,0x08,0x6f,0x3a,0x0c,0x52,0x50,0x47,0x3a,0x3a,0x53,0x45,0x08,0x3a,0x0a,0x40,0x6e,0x61,0x6d,0x65,0x49,0x22,0x0a,0x4f,0x70,0x65,0x6e,0x31,0x06,0x3a,0x06,0x45,0x54,0x3a,0x0b,0x40,0x70,0x69,0x74,0x63,0x68,0x69,0x69,0x3a,0x0c,0x40,0x76,0x6f,0x6c,0x75,0x6d,0x65,0x69,0x55))
   205(0,bytes(0x04,0x08,0x6f,0x3a,0x13,0x52,0x50,0x47,0x3a,0x3a,0x4d,0x6f,0x76,0x65,0x52,0x6f,0x75,0x74,0x65,0x09,0x3a,0x0c,0x40,0x72,0x65,0x70,0x65,0x61,0x74,0x46,0x3a,0x0f,0x40,0x73,0x6b,0x69,0x70,0x70,0x61,0x62,0x6c,0x65,0x46,0x3a,0x0a,0x40,0x77,0x61,0x69,0x74,0x54,0x3a,0x0a,0x40,0x6c,0x69,0x73,0x74,0x5b,0x0c,0x6f,0x3a,0x15,0x52,0x50,0x47,0x3a,0x3a,0x4d,0x6f,0x76,0x65,0x43,0x6f,0x6d,0x6d,0x61,0x6e,0x64,0x07,0x3a,0x0a,0x40,0x63,0x6f,0x64,0x65,0x69,0x16,0x3a,0x10,0x40,0x70,0x61,0x72,0x61,0x6d,0x65,0x74,0x65,0x72,0x73,0x5b,0x00,0x6f,0x3b,0x0a,0x07,0x3b,0x0b,0x69,0x14,0x3b,0x0c,0x5b,0x06,0x69,0x08,0x6f,0x3b,0x0a,0x07,0x3b,0x0b,0x69,0x17,0x3b,0x0c,0x5b,0x00,0x6f,0x3b,0x0a,0x07,0x3b,0x0b,0x69,0x14,0x3b,0x0c,0x5b,0x06,0x69,0x08,0x6f,0x3b,0x0a,0x07,0x3b,0x0b,0x69,0x18,0x3b,0x0c,0x5b,0x00,0x6f,0x3b,0x0a,0x07,0x3b,0x0b,0x69,0x2a,0x3b,0x0c,0x5b,0x00,0x6f,0x3b,0x0a,0x07,0x3b,0x0b,0x69,0x00,0x3b,0x0c,0x5b,0x00))
   205(-1,bytes(0x04,0x08,0x6f,0x3a,0x13,0x52,0x50,0x47,0x3a,0x3a,0x4d,0x6f,0x76,0x65,0x52,0x6f,0x75,0x74,0x65,0x09,0x3a,0x0c,0x40,0x72,0x65,0x70,0x65,0x61,0x74,0x46,0x3a,0x0f,0x40,0x73,0x6b,0x69,0x70,0x70,0x61,0x62,0x6c,0x65,0x54,0x3a,0x0a,0x40,0x77,0x61,0x69,0x74,0x54,0x3a,0x0a,0x40,0x6c,0x69,0x73,0x74,0x5b,0x07,0x6f,0x3a,0x15,0x52,0x50,0x47,0x3a,0x3a,0x4d,0x6f,0x76,0x65,0x43,0x6f,0x6d,0x6d,0x61,0x6e,0x64,0x07,0x3a,0x0a,0x40,0x63,0x6f,0x64,0x65,0x69,0x11,0x3a,0x10,0x40,0x70,0x61,0x72,0x61,0x6d,0x65,0x74,0x65,0x72,0x73,0x5b,0x00,0x6f,0x3b,0x0a,0x07,0x3b,0x0b,0x69,0x00,0x3b,0x0c,0x5b,0x00))
   250(bytes(0x04,0x08,0x6f,0x3a,0x0c,0x52,0x50,0x47,0x3a,0x3a,0x53,0x45,0x08,0x3a,0x0a,0x40,0x6e,0x61,0x6d,0x65,0x49,0x22,0x09,0x4d,0x6f,0x76,0x65,0x06,0x3a,0x06,0x45,0x54,0x3a,0x0b,0x40,0x70,0x69,0x74,0x63,0x68,0x69,0x69,0x3a,0x0c,0x40,0x76,0x6f,0x6c,0x75,0x6d,0x65,0x69,0x55))
   TeleportPlayer(0,515,6,38,0,0)
   EndEventProcessing()
   0()
  EndIf()
  0()



EVENT   21
 PAGE   1
  If(1,1069,0,2,2)
   ShowMessageFace("",0,0,2,1)
   ShowMessage("The residents have their door shut tight in hiding...")
   EndEventProcessing()
   0()
  EndIf()
  If(1,1069,0,3,1)
   250(bytes(0x04,0x08,0x6f,0x3a,0x0c,0x52,0x50,0x47,0x3a,0x3a,0x53,0x45,0x08,0x3a,0x0a,0x40,0x6e,0x61,0x6d,0x65,0x49,0x22,0x0a,0x4f,0x70,0x65,0x6e,0x31,0x06,0x3a,0x06,0x45,0x54,0x3a,0x0b,0x40,0x70,0x69,0x74,0x63,0x68,0x69,0x69,0x3a,0x0c,0x40,0x76,0x6f,0x6c,0x75,0x6d,0x65,0x69,0x55))
   205(0,bytes(0x04,0x08,0x6f,0x3a,0x13,0x52,0x50,0x47,0x3a,0x3a,0x4d,0x6f,0x76,0x65,0x52,0x6f,0x75,0x74,0x65,0x09,0x3a,0x0c,0x40,0x72,0x65,0x70,0x65,0x61,0x74,0x46,0x3a,0x0f,0x40,0x73,0x6b,0x69,0x70,0x70,0x61,0x62,0x6c,0x65,0x46,0x3a,0x0a,0x40,0x77,0x61,0x69,0x74,0x54,0x3a,0x0a,0x40,0x6c,0x69,0x73,0x74,0x5b,0x0c,0x6f,0x3a,0x15,0x52,0x50,0x47,0x3a,0x3a,0x4d,0x6f,0x76,0x65,0x43,0x6f,0x6d,0x6d,0x61,0x6e,0x64,0x07,0x3a,0x0a,0x40,0x63,0x6f,0x64,0x65,0x69,0x16,0x3a,0x10,0x40,0x70,0x61,0x72,0x61,0x6d,0x65,0x74,0x65,0x72,0x73,0x5b,0x00,0x6f,0x3b,0x0a,0x07,0x3b,0x0b,0x69,0x14,0x3b,0x0c,0x5b,0x06,0x69,0x08,0x6f,0x3b,0x0a,0x07,0x3b,0x0b,0x69,0x17,0x3b,0x0c,0x5b,0x00,0x6f,0x3b,0x0a,0x07,0x3b,0x0b,0x69,0x14,0x3b,0x0c,0x5b,0x06,0x69,0x08,0x6f,0x3b,0x0a,0x07,0x3b,0x0b,0x69,0x18,0x3b,0x0c,0x5b,0x00,0x6f,0x3b,0x0a,0x07,0x3b,0x0b,0x69,0x2a,0x3b,0x0c,0x5b,0x00,0x6f,0x3b,0x0a,0x07,0x3b,0x0b,0x69,0x00,0x3b,0x0c,0x5b,0x00))
   205(-1,bytes(0x04,0x08,0x6f,0x3a,0x13,0x52,0x50,0x47,0x3a,0x3a,0x4d,0x6f,0x76,0x65,0x52,0x6f,0x75,0x74,0x65,0x09,0x3a,0x0c,0x40,0x72,0x65,0x70,0x65,0x61,0x74,0x46,0x3a,0x0f,0x40,0x73,0x6b,0x69,0x70,0x70,0x61,0x62,0x6c,0x65,0x54,0x3a,0x0a,0x40,0x77,0x61,0x69,0x74,0x54,0x3a,0x0a,0x40,0x6c,0x69,0x73,0x74,0x5b,0x07,0x6f,0x3a,0x15,0x52,0x50,0x47,0x3a,0x3a,0x4d,0x6f,0x76,0x65,0x43,0x6f,0x6d,0x6d,0x61,0x6e,0x64,0x07,0x3a,0x0a,0x40,0x63,0x6f,0x64,0x65,0x69,0x11,0x3a,0x10,0x40,0x70,0x61,0x72,0x61,0x6d,0x65,0x74,0x65,0x72,0x73,0x5b,0x00,0x6f,0x3b,0x0a,0x07,0x3b,0x0b,0x69,0x00,0x3b,0x0c,0x5b,0x00))
   250(bytes(0x04,0x08,0x6f,0x3a,0x0c,0x52,0x50,0x47,0x3a,0x3a,0x53,0x45,0x08,0x3a,0x0a,0x40,0x6e,0x61,0x6d,0x65,0x49,0x22,0x09,0x4d,0x6f,0x76,0x65,0x06,0x3a,0x06,0x45,0x54,0x3a,0x0b,0x40,0x70,0x69,0x74,0x63,0x68,0x69,0x69,0x3a,0x0c,0x40,0x76,0x6f,0x6c,0x75,0x6d,0x65,0x69,0x55))
   TeleportPlayer(0,515,40,42,0,0)
   EndEventProcessing()
   0()
  EndIf()
  0()



EVENT   22
 PAGE   1
  If(1,1069,0,2,2)
   ShowMessageFace("",0,0,2,1)
   ShowMessage("The residents have their door shut tight in hiding...")
   EndEventProcessing()
   0()
  EndIf()
  If(1,1069,0,3,1)
   250(bytes(0x04,0x08,0x6f,0x3a,0x0c,0x52,0x50,0x47,0x3a,0x3a,0x53,0x45,0x08,0x3a,0x0a,0x40,0x6e,0x61,0x6d,0x65,0x49,0x22,0x0a,0x4f,0x70,0x65,0x6e,0x31,0x06,0x3a,0x06,0x45,0x54,0x3a,0x0b,0x40,0x70,0x69,0x74,0x63,0x68,0x69,0x69,0x3a,0x0c,0x40,0x76,0x6f,0x6c,0x75,0x6d,0x65,0x69,0x55))
   205(0,bytes(0x04,0x08,0x6f,0x3a,0x13,0x52,0x50,0x47,0x3a,0x3a,0x4d,0x6f,0x76,0x65,0x52,0x6f,0x75,0x74,0x65,0x09,0x3a,0x0c,0x40,0x72,0x65,0x70,0x65,0x61,0x74,0x46,0x3a,0x0f,0x40,0x73,0x6b,0x69,0x70,0x70,0x61,0x62,0x6c,0x65,0x46,0x3a,0x0a,0x40,0x77,0x61,0x69,0x74,0x54,0x3a,0x0a,0x40,0x6c,0x69,0x73,0x74,0x5b,0x0c,0x6f,0x3a,0x15,0x52,0x50,0x47,0x3a,0x3a,0x4d,0x6f,0x76,0x65,0x43,0x6f,0x6d,0x6d,0x61,0x6e,0x64,0x07,0x3a,0x0a,0x40,0x63,0x6f,0x64,0x65,0x69,0x16,0x3a,0x10,0x40,0x70,0x61,0x72,0x61,0x6d,0x65,0x74,0x65,0x72,0x73,0x5b,0x00,0x6f,0x3b,0x0a,0x07,0x3b,0x0b,0x69,0x14,0x3b,0x0c,0x5b,0x06,0x69,0x08,0x6f,0x3b,0x0a,0x07,0x3b,0x0b,0x69,0x17,0x3b,0x0c,0x5b,0x00,0x6f,0x3b,0x0a,0x07,0x3b,0x0b,0x69,0x14,0x3b,0x0c,0x5b,0x06,0x69,0x08,0x6f,0x3b,0x0a,0x07,0x3b,0x0b,0x69,0x18,0x3b,0x0c,0x5b,0x00,0x6f,0x3b,0x0a,0x07,0x3b,0x0b,0x69,0x2a,0x3b,0x0c,0x5b,0x00,0x6f,0x3b,0x0a,0x07,0x3b,0x0b,0x69,0x00,0x3b,0x0c,0x5b,0x00))
   205(-1,bytes(0x04,0x08,0x6f,0x3a,0x13,0x52,0x50,0x47,0x3a,0x3a,0x4d,0x6f,0x76,0x65,0x52,0x6f,0x75,0x74,0x65,0x09,0x3a,0x0c,0x40,0x72,0x65,0x70,0x65,0x61,0x74,0x46,0x3a,0x0f,0x40,0x73,0x6b,0x69,0x70,0x70,0x61,0x62,0x6c,0x65,0x54,0x3a,0x0a,0x40,0x77,0x61,0x69,0x74,0x54,0x3a,0x0a,0x40,0x6c,0x69,0x73,0x74,0x5b,0x07,0x6f,0x3a,0x15,0x52,0x50,0x47,0x3a,0x3a,0x4d,0x6f,0x76,0x65,0x43,0x6f,0x6d,0x6d,0x61,0x6e,0x64,0x07,0x3a,0x0a,0x40,0x63,0x6f,0x64,0x65,0x69,0x11,0x3a,0x10,0x40,0x70,0x61,0x72,0x61,0x6d,0x65,0x74,0x65,0x72,0x73,0x5b,0x00,0x6f,0x3b,0x0a,0x07,0x3b,0x0b,0x69,0x00,0x3b,0x0c,0x5b,0x00))
   250(bytes(0x04,0x08,0x6f,0x3a,0x0c,0x52,0x50,0x47,0x3a,0x3a,0x53,0x45,0x08,0x3a,0x0a,0x40,0x6e,0x61,0x6d,0x65,0x49,0x22,0x09,0x4d,0x6f,0x76,0x65,0x06,0x3a,0x06,0x45,0x54,0x3a,0x0b,0x40,0x70,0x69,0x74,0x63,0x68,0x69,0x69,0x3a,0x0c,0x40,0x76,0x6f,0x6c,0x75,0x6d,0x65,0x69,0x55))
   TeleportPlayer(0,515,56,38,0,0)
   EndEventProcessing()
   0()
  EndIf()
  0()



EVENT   23
 PAGE   1
  If(1,1069,0,2,2)
   ShowMessageFace("",0,0,2,1)
   ShowMessage("The residents have their door shut tight in hiding...")
   EndEventProcessing()
   0()
  EndIf()
  If(1,1069,0,3,1)
   250(bytes(0x04,0x08,0x6f,0x3a,0x0c,0x52,0x50,0x47,0x3a,0x3a,0x53,0x45,0x08,0x3a,0x0a,0x40,0x6e,0x61,0x6d,0x65,0x49,0x22,0x0a,0x4f,0x70,0x65,0x6e,0x31,0x06,0x3a,0x06,0x45,0x54,0x3a,0x0b,0x40,0x70,0x69,0x74,0x63,0x68,0x69,0x69,0x3a,0x0c,0x40,0x76,0x6f,0x6c,0x75,0x6d,0x65,0x69,0x55))
   205(0,bytes(0x04,0x08,0x6f,0x3a,0x13,0x52,0x50,0x47,0x3a,0x3a,0x4d,0x6f,0x76,0x65,0x52,0x6f,0x75,0x74,0x65,0x09,0x3a,0x0c,0x40,0x72,0x65,0x70,0x65,0x61,0x74,0x46,0x3a,0x0f,0x40,0x73,0x6b,0x69,0x70,0x70,0x61,0x62,0x6c,0x65,0x46,0x3a,0x0a,0x40,0x77,0x61,0x69,0x74,0x54,0x3a,0x0a,0x40,0x6c,0x69,0x73,0x74,0x5b,0x0c,0x6f,0x3a,0x15,0x52,0x50,0x47,0x3a,0x3a,0x4d,0x6f,0x76,0x65,0x43,0x6f,0x6d,0x6d,0x61,0x6e,0x64,0x07,0x3a,0x0a,0x40,0x63,0x6f,0x64,0x65,0x69,0x16,0x3a,0x10,0x40,0x70,0x61,0x72,0x61,0x6d,0x65,0x74,0x65,0x72,0x73,0x5b,0x00,0x6f,0x3b,0x0a,0x07,0x3b,0x0b,0x69,0x14,0x3b,0x0c,0x5b,0x06,0x69,0x08,0x6f,0x3b,0x0a,0x07,0x3b,0x0b,0x69,0x17,0x3b,0x0c,0x5b,0x00,0x6f,0x3b,0x0a,0x07,0x3b,0x0b,0x69,0x14,0x3b,0x0c,0x5b,0x06,0x69,0x08,0x6f,0x3b,0x0a,0x07,0x3b,0x0b,0x69,0x18,0x3b,0x0c,0x5b,0x00,0x6f,0x3b,0x0a,0x07,0x3b,0x0b,0x69,0x2a,0x3b,0x0c,0x5b,0x00,0x6f,0x3b,0x0a,0x07,0x3b,0x0b,0x69,0x00,0x3b,0x0c,0x5b,0x00))
   205(-1,bytes(0x04,0x08,0x6f,0x3a,0x13,0x52,0x50,0x47,0x3a,0x3a,0x4d,0x6f,0x76,0x65,0x52,0x6f,0x75,0x74,0x65,0x09,0x3a,0x0c,0x40,0x72,0x65,0x70,0x65,0x61,0x74,0x46,0x3a,0x0f,0x40,0x73,0x6b,0x69,0x70,0x70,0x61,0x62,0x6c,0x65,0x54,0x3a,0x0a,0x40,0x77,0x61,0x69,0x74,0x54,0x3a,0x0a,0x40,0x6c,0x69,0x73,0x74,0x5b,0x07,0x6f,0x3a,0x15,0x52,0x50,0x47,0x3a,0x3a,0x4d,0x6f,0x76,0x65,0x43,0x6f,0x6d,0x6d,0x61,0x6e,0x64,0x07,0x3a,0x0a,0x40,0x63,0x6f,0x64,0x65,0x69,0x11,0x3a,0x10,0x40,0x70,0x61,0x72,0x61,0x6d,0x65,0x74,0x65,0x72,0x73,0x5b,0x00,0x6f,0x3b,0x0a,0x07,0x3b,0x0b,0x69,0x00,0x3b,0x0c,0x5b,0x00))
   250(bytes(0x04,0x08,0x6f,0x3a,0x0c,0x52,0x50,0x47,0x3a,0x3a,0x53,0x45,0x08,0x3a,0x0a,0x40,0x6e,0x61,0x6d,0x65,0x49,0x22,0x09,0x4d,0x6f,0x76,0x65,0x06,0x3a,0x06,0x45,0x54,0x3a,0x0b,0x40,0x70,0x69,0x74,0x63,0x68,0x69,0x69,0x3a,0x0c,0x40,0x76,0x6f,0x6c,0x75,0x6d,0x65,0x69,0x55))
   TeleportPlayer(0,515,14,61,0,0)
   EndEventProcessing()
   0()
  EndIf()
  0()



EVENT   24
 PAGE   1
  If(1,1069,0,2,2)
   ShowMessageFace("",0,0,2,1)
   ShowMessage("The residents have their door shut tight in hiding...")
   EndEventProcessing()
   0()
  EndIf()
  If(1,1069,0,3,1)
   250(bytes(0x04,0x08,0x6f,0x3a,0x0c,0x52,0x50,0x47,0x3a,0x3a,0x53,0x45,0x08,0x3a,0x0a,0x40,0x6e,0x61,0x6d,0x65,0x49,0x22,0x0a,0x4f,0x70,0x65,0x6e,0x31,0x06,0x3a,0x06,0x45,0x54,0x3a,0x0b,0x40,0x70,0x69,0x74,0x63,0x68,0x69,0x69,0x3a,0x0c,0x40,0x76,0x6f,0x6c,0x75,0x6d,0x65,0x69,0x55))
   205(0,bytes(0x04,0x08,0x6f,0x3a,0x13,0x52,0x50,0x47,0x3a,0x3a,0x4d,0x6f,0x76,0x65,0x52,0x6f,0x75,0x74,0x65,0x09,0x3a,0x0c,0x40,0x72,0x65,0x70,0x65,0x61,0x74,0x46,0x3a,0x0f,0x40,0x73,0x6b,0x69,0x70,0x70,0x61,0x62,0x6c,0x65,0x46,0x3a,0x0a,0x40,0x77,0x61,0x69,0x74,0x54,0x3a,0x0a,0x40,0x6c,0x69,0x73,0x74,0x5b,0x0c,0x6f,0x3a,0x15,0x52,0x50,0x47,0x3a,0x3a,0x4d,0x6f,0x76,0x65,0x43,0x6f,0x6d,0x6d,0x61,0x6e,0x64,0x07,0x3a,0x0a,0x40,0x63,0x6f,0x64,0x65,0x69,0x16,0x3a,0x10,0x40,0x70,0x61,0x72,0x61,0x6d,0x65,0x74,0x65,0x72,0x73,0x5b,0x00,0x6f,0x3b,0x0a,0x07,0x3b,0x0b,0x69,0x14,0x3b,0x0c,0x5b,0x06,0x69,0x08,0x6f,0x3b,0x0a,0x07,0x3b,0x0b,0x69,0x17,0x3b,0x0c,0x5b,0x00,0x6f,0x3b,0x0a,0x07,0x3b,0x0b,0x69,0x14,0x3b,0x0c,0x5b,0x06,0x69,0x08,0x6f,0x3b,0x0a,0x07,0x3b,0x0b,0x69,0x18,0x3b,0x0c,0x5b,0x00,0x6f,0x3b,0x0a,0x07,0x3b,0x0b,0x69,0x2a,0x3b,0x0c,0x5b,0x00,0x6f,0x3b,0x0a,0x07,0x3b,0x0b,0x69,0x00,0x3b,0x0c,0x5b,0x00))
   205(-1,bytes(0x04,0x08,0x6f,0x3a,0x13,0x52,0x50,0x47,0x3a,0x3a,0x4d,0x6f,0x76,0x65,0x52,0x6f,0x75,0x74,0x65,0x09,0x3a,0x0c,0x40,0x72,0x65,0x70,0x65,0x61,0x74,0x46,0x3a,0x0f,0x40,0x73,0x6b,0x69,0x70,0x70,0x61,0x62,0x6c,0x65,0x54,0x3a,0x0a,0x40,0x77,0x61,0x69,0x74,0x54,0x3a,0x0a,0x40,0x6c,0x69,0x73,0x74,0x5b,0x07,0x6f,0x3a,0x15,0x52,0x50,0x47,0x3a,0x3a,0x4d,0x6f,0x76,0x65,0x43,0x6f,0x6d,0x6d,0x61,0x6e,0x64,0x07,0x3a,0x0a,0x40,0x63,0x6f,0x64,0x65,0x69,0x11,0x3a,0x10,0x40,0x70,0x61,0x72,0x61,0x6d,0x65,0x74,0x65,0x72,0x73,0x5b,0x00,0x6f,0x3b,0x0a,0x07,0x3b,0x0b,0x69,0x00,0x3b,0x0c,0x5b,0x00))
   250(bytes(0x04,0x08,0x6f,0x3a,0x0c,0x52,0x50,0x47,0x3a,0x3a,0x53,0x45,0x08,0x3a,0x0a,0x40,0x6e,0x61,0x6d,0x65,0x49,0x22,0x09,0x4d,0x6f,0x76,0x65,0x06,0x3a,0x06,0x45,0x54,0x3a,0x0b,0x40,0x70,0x69,0x74,0x63,0x68,0x69,0x69,0x3a,0x0c,0x40,0x76,0x6f,0x6c,0x75,0x6d,0x65,0x69,0x55))
   TeleportPlayer(0,515,33,73,0,0)
   EndEventProcessing()
   0()
  EndIf()
  0()



EVENT   25
 PAGE   1
  250(bytes(0x04,0x08,0x6f,0x3a,0x0c,0x52,0x50,0x47,0x3a,0x3a,0x53,0x45,0x08,0x3a,0x0a,0x40,0x6e,0x61,0x6d,0x65,0x49,0x22,0x09,0x4d,0x6f,0x76,0x65,0x06,0x3a,0x06,0x45,0x54,0x3a,0x0b,0x40,0x70,0x69,0x74,0x63,0x68,0x69,0x69,0x3a,0x0c,0x40,0x76,0x6f,0x6c,0x75,0x6d,0x65,0x69,0x55))
  TeleportPlayer(0,194,75,119,2,0)
  0()



EVENT   26
 PAGE   1
  250(bytes(0x04,0x08,0x6f,0x3a,0x0c,0x52,0x50,0x47,0x3a,0x3a,0x53,0x45,0x08,0x3a,0x0a,0x40,0x6e,0x61,0x6d,0x65,0x49,0x22,0x09,0x4d,0x6f,0x76,0x65,0x06,0x3a,0x06,0x45,0x54,0x3a,0x0b,0x40,0x70,0x69,0x74,0x63,0x68,0x69,0x69,0x3a,0x0c,0x40,0x76,0x6f,0x6c,0x75,0x6d,0x65,0x69,0x55))
  TeleportPlayer(0,194,75,119,2,0)
  0()



EVENT   27
 PAGE   1
  250(bytes(0x04,0x08,0x6f,0x3a,0x0c,0x52,0x50,0x47,0x3a,0x3a,0x53,0x45,0x08,0x3a,0x0a,0x40,0x6e,0x61,0x6d,0x65,0x49,0x22,0x09,0x4d,0x6f,0x76,0x65,0x06,0x3a,0x06,0x45,0x54,0x3a,0x0b,0x40,0x70,0x69,0x74,0x63,0x68,0x69,0x69,0x3a,0x0c,0x40,0x76,0x6f,0x6c,0x75,0x6d,0x65,0x69,0x55))
  TeleportPlayer(0,194,75,119,2,0)
  0()



EVENT   28
 PAGE   1
  250(bytes(0x04,0x08,0x6f,0x3a,0x0c,0x52,0x50,0x47,0x3a,0x3a,0x53,0x45,0x08,0x3a,0x0a,0x40,0x6e,0x61,0x6d,0x65,0x49,0x22,0x09,0x4d,0x6f,0x76,0x65,0x06,0x3a,0x06,0x45,0x54,0x3a,0x0b,0x40,0x70,0x69,0x74,0x63,0x68,0x69,0x69,0x3a,0x0c,0x40,0x76,0x6f,0x6c,0x75,0x6d,0x65,0x69,0x55))
  TeleportPlayer(0,194,75,119,2,0)
  0()



EVENT   29
 PAGE   1
  250(bytes(0x04,0x08,0x6f,0x3a,0x0c,0x52,0x50,0x47,0x3a,0x3a,0x53,0x45,0x08,0x3a,0x0a,0x40,0x6e,0x61,0x6d,0x65,0x49,0x22,0x09,0x4d,0x6f,0x76,0x65,0x06,0x3a,0x06,0x45,0x54,0x3a,0x0b,0x40,0x70,0x69,0x74,0x63,0x68,0x69,0x69,0x3a,0x0c,0x40,0x76,0x6f,0x6c,0x75,0x6d,0x65,0x69,0x55))
  TeleportPlayer(0,194,75,119,2,0)
  0()



EVENT   30
 PAGE   1
  250(bytes(0x04,0x08,0x6f,0x3a,0x0c,0x52,0x50,0x47,0x3a,0x3a,0x53,0x45,0x08,0x3a,0x0a,0x40,0x6e,0x61,0x6d,0x65,0x49,0x22,0x09,0x4d,0x6f,0x76,0x65,0x06,0x3a,0x06,0x45,0x54,0x3a,0x0b,0x40,0x70,0x69,0x74,0x63,0x68,0x69,0x69,0x3a,0x0c,0x40,0x76,0x6f,0x6c,0x75,0x6d,0x65,0x69,0x55))
  TeleportPlayer(0,194,75,119,2,0)
  0()



EVENT   31
 PAGE   1
  250(bytes(0x04,0x08,0x6f,0x3a,0x0c,0x52,0x50,0x47,0x3a,0x3a,0x53,0x45,0x08,0x3a,0x0a,0x40,0x6e,0x61,0x6d,0x65,0x49,0x22,0x09,0x4d,0x6f,0x76,0x65,0x06,0x3a,0x06,0x45,0x54,0x3a,0x0b,0x40,0x70,0x69,0x74,0x63,0x68,0x69,0x69,0x3a,0x0c,0x40,0x76,0x6f,0x6c,0x75,0x6d,0x65,0x69,0x55))
  TeleportPlayer(0,194,75,119,2,0)
  0()



EVENT   32
 PAGE   1
  250(bytes(0x04,0x08,0x6f,0x3a,0x0c,0x52,0x50,0x47,0x3a,0x3a,0x53,0x45,0x08,0x3a,0x0a,0x40,0x6e,0x61,0x6d,0x65,0x49,0x22,0x09,0x4d,0x6f,0x76,0x65,0x06,0x3a,0x06,0x45,0x54,0x3a,0x0b,0x40,0x70,0x69,0x74,0x63,0x68,0x69,0x69,0x3a,0x0c,0x40,0x76,0x6f,0x6c,0x75,0x6d,0x65,0x69,0x55))
  TeleportPlayer(0,194,75,119,2,0)
  0()



EVENT   33
 PAGE   1
  250(bytes(0x04,0x08,0x6f,0x3a,0x0c,0x52,0x50,0x47,0x3a,0x3a,0x53,0x45,0x08,0x3a,0x0a,0x40,0x6e,0x61,0x6d,0x65,0x49,0x22,0x09,0x4d,0x6f,0x76,0x65,0x06,0x3a,0x06,0x45,0x54,0x3a,0x0b,0x40,0x70,0x69,0x74,0x63,0x68,0x69,0x69,0x3a,0x0c,0x40,0x76,0x6f,0x6c,0x75,0x6d,0x65,0x69,0x55))
  TeleportPlayer(0,194,75,119,2,0)
  0()



EVENT   34
 PAGE   1
  250(bytes(0x04,0x08,0x6f,0x3a,0x0c,0x52,0x50,0x47,0x3a,0x3a,0x53,0x45,0x08,0x3a,0x0a,0x40,0x6e,0x61,0x6d,0x65,0x49,0x22,0x09,0x4d,0x6f,0x76,0x65,0x06,0x3a,0x06,0x45,0x54,0x3a,0x0b,0x40,0x70,0x69,0x74,0x63,0x68,0x69,0x69,0x3a,0x0c,0x40,0x76,0x6f,0x6c,0x75,0x6d,0x65,0x69,0x55))
  TeleportPlayer(0,194,75,119,2,0)
  0()



EVENT   35
 PAGE   1
  250(bytes(0x04,0x08,0x6f,0x3a,0x0c,0x52,0x50,0x47,0x3a,0x3a,0x53,0x45,0x08,0x3a,0x0a,0x40,0x6e,0x61,0x6d,0x65,0x49,0x22,0x09,0x4d,0x6f,0x76,0x65,0x06,0x3a,0x06,0x45,0x54,0x3a,0x0b,0x40,0x70,0x69,0x74,0x63,0x68,0x69,0x69,0x3a,0x0c,0x40,0x76,0x6f,0x6c,0x75,0x6d,0x65,0x69,0x55))
  TeleportPlayer(0,194,75,119,2,0)
  0()



EVENT   36
 PAGE   1
  250(bytes(0x04,0x08,0x6f,0x3a,0x0c,0x52,0x50,0x47,0x3a,0x3a,0x53,0x45,0x08,0x3a,0x0a,0x40,0x6e,0x61,0x6d,0x65,0x49,0x22,0x09,0x4d,0x6f,0x76,0x65,0x06,0x3a,0x06,0x45,0x54,0x3a,0x0b,0x40,0x70,0x69,0x74,0x63,0x68,0x69,0x69,0x3a,0x0c,0x40,0x76,0x6f,0x6c,0x75,0x6d,0x65,0x69,0x55))
  TeleportPlayer(0,194,75,119,2,0)
  0()



EVENT   37
 PAGE   1
  250(bytes(0x04,0x08,0x6f,0x3a,0x0c,0x52,0x50,0x47,0x3a,0x3a,0x53,0x45,0x08,0x3a,0x0a,0x40,0x6e,0x61,0x6d,0x65,0x49,0x22,0x09,0x4d,0x6f,0x76,0x65,0x06,0x3a,0x06,0x45,0x54,0x3a,0x0b,0x40,0x70,0x69,0x74,0x63,0x68,0x69,0x69,0x3a,0x0c,0x40,0x76,0x6f,0x6c,0x75,0x6d,0x65,0x69,0x55))
  TeleportPlayer(0,194,75,119,2,0)
  0()



EVENT   38
 PAGE   1
  250(bytes(0x04,0x08,0x6f,0x3a,0x0c,0x52,0x50,0x47,0x3a,0x3a,0x53,0x45,0x08,0x3a,0x0a,0x40,0x6e,0x61,0x6d,0x65,0x49,0x22,0x09,0x4d,0x6f,0x76,0x65,0x06,0x3a,0x06,0x45,0x54,0x3a,0x0b,0x40,0x70,0x69,0x74,0x63,0x68,0x69,0x69,0x3a,0x0c,0x40,0x76,0x6f,0x6c,0x75,0x6d,0x65,0x69,0x55))
  TeleportPlayer(0,194,75,119,2,0)
  0()



EVENT   39
 PAGE   1
  250(bytes(0x04,0x08,0x6f,0x3a,0x0c,0x52,0x50,0x47,0x3a,0x3a,0x53,0x45,0x08,0x3a,0x0a,0x40,0x6e,0x61,0x6d,0x65,0x49,0x22,0x09,0x4d,0x6f,0x76,0x65,0x06,0x3a,0x06,0x45,0x54,0x3a,0x0b,0x40,0x70,0x69,0x74,0x63,0x68,0x69,0x69,0x3a,0x0c,0x40,0x76,0x6f,0x6c,0x75,0x6d,0x65,0x69,0x55))
  TeleportPlayer(0,194,75,119,2,0)
  0()



EVENT   40
 PAGE   1
  250(bytes(0x04,0x08,0x6f,0x3a,0x0c,0x52,0x50,0x47,0x3a,0x3a,0x53,0x45,0x08,0x3a,0x0a,0x40,0x6e,0x61,0x6d,0x65,0x49,0x22,0x09,0x4d,0x6f,0x76,0x65,0x06,0x3a,0x06,0x45,0x54,0x3a,0x0b,0x40,0x70,0x69,0x74,0x63,0x68,0x69,0x69,0x3a,0x0c,0x40,0x76,0x6f,0x6c,0x75,0x6d,0x65,0x69,0x55))
  TeleportPlayer(0,194,75,119,2,0)
  0()



EVENT   41
 PAGE   1
  250(bytes(0x04,0x08,0x6f,0x3a,0x0c,0x52,0x50,0x47,0x3a,0x3a,0x53,0x45,0x08,0x3a,0x0a,0x40,0x6e,0x61,0x6d,0x65,0x49,0x22,0x09,0x4d,0x6f,0x76,0x65,0x06,0x3a,0x06,0x45,0x54,0x3a,0x0b,0x40,0x70,0x69,0x74,0x63,0x68,0x69,0x69,0x3a,0x0c,0x40,0x76,0x6f,0x6c,0x75,0x6d,0x65,0x69,0x55))
  TeleportPlayer(0,194,75,119,2,0)
  0()



EVENT   42
 PAGE   1
  250(bytes(0x04,0x08,0x6f,0x3a,0x0c,0x52,0x50,0x47,0x3a,0x3a,0x53,0x45,0x08,0x3a,0x0a,0x40,0x6e,0x61,0x6d,0x65,0x49,0x22,0x09,0x4d,0x6f,0x76,0x65,0x06,0x3a,0x06,0x45,0x54,0x3a,0x0b,0x40,0x70,0x69,0x74,0x63,0x68,0x69,0x69,0x3a,0x0c,0x40,0x76,0x6f,0x6c,0x75,0x6d,0x65,0x69,0x55))
  TeleportPlayer(0,194,75,119,2,0)
  0()



EVENT   43
 PAGE   1
  250(bytes(0x04,0x08,0x6f,0x3a,0x0c,0x52,0x50,0x47,0x3a,0x3a,0x53,0x45,0x08,0x3a,0x0a,0x40,0x6e,0x61,0x6d,0x65,0x49,0x22,0x09,0x4d,0x6f,0x76,0x65,0x06,0x3a,0x06,0x45,0x54,0x3a,0x0b,0x40,0x70,0x69,0x74,0x63,0x68,0x69,0x69,0x3a,0x0c,0x40,0x76,0x6f,0x6c,0x75,0x6d,0x65,0x69,0x55))
  TeleportPlayer(0,194,75,119,2,0)
  0()



EVENT   44
 PAGE   1
  // condition: variable 1069 >= 3
  ShowMessageFace("",0,0,2,1)
  ShowMessage("\\n<Guard>Why did monsters as powerful as the Queen Succubi attack this village? Were they actually after the Hero Heinrich?")
  355("actor_label_jump")
  EndEventProcessing()
  DefineLabel("341")
  ShowMessageFace("lilith_fc1",0,0,2,2)
  ShowMessage("\\n<Lilith & Lilim>We just wanted to have a snack...\nWe didn't intend to break the non-aggression pact.")
  EndEventProcessing()
  0()



EVENT   45
 PAGE   1
  250(bytes(0x04,0x08,0x6f,0x3a,0x0c,0x52,0x50,0x47,0x3a,0x3a,0x53,0x45,0x08,0x3a,0x0a,0x40,0x6e,0x61,0x6d,0x65,0x49,0x22,0x09,0x4d,0x6f,0x76,0x65,0x06,0x3a,0x06,0x45,0x54,0x3a,0x0b,0x40,0x70,0x69,0x74,0x63,0x68,0x69,0x69,0x3a,0x0c,0x40,0x76,0x6f,0x6c,0x75,0x6d,0x65,0x69,0x55))
  TeleportPlayer(0,194,75,119,0,0)
  0()



EVENT   46
 PAGE   1
  250(bytes(0x04,0x08,0x6f,0x3a,0x0c,0x52,0x50,0x47,0x3a,0x3a,0x53,0x45,0x08,0x3a,0x0a,0x40,0x6e,0x61,0x6d,0x65,0x49,0x22,0x09,0x4d,0x6f,0x76,0x65,0x06,0x3a,0x06,0x45,0x54,0x3a,0x0b,0x40,0x70,0x69,0x74,0x63,0x68,0x69,0x69,0x3a,0x0c,0x40,0x76,0x6f,0x6c,0x75,0x6d,0x65,0x69,0x55))
  TeleportPlayer(0,194,75,119,0,0)
  0()



EVENT   47
 PAGE   1
  250(bytes(0x04,0x08,0x6f,0x3a,0x0c,0x52,0x50,0x47,0x3a,0x3a,0x53,0x45,0x08,0x3a,0x0a,0x40,0x6e,0x61,0x6d,0x65,0x49,0x22,0x09,0x4d,0x6f,0x76,0x65,0x06,0x3a,0x06,0x45,0x54,0x3a,0x0b,0x40,0x70,0x69,0x74,0x63,0x68,0x69,0x69,0x3a,0x0c,0x40,0x76,0x6f,0x6c,0x75,0x6d,0x65,0x69,0x55))
  TeleportPlayer(0,194,75,119,0,0)
  0()



EVENT   48
 PAGE   1
  250(bytes(0x04,0x08,0x6f,0x3a,0x0c,0x52,0x50,0x47,0x3a,0x3a,0x53,0x45,0x08,0x3a,0x0a,0x40,0x6e,0x61,0x6d,0x65,0x49,0x22,0x09,0x4d,0x6f,0x76,0x65,0x06,0x3a,0x06,0x45,0x54,0x3a,0x0b,0x40,0x70,0x69,0x74,0x63,0x68,0x69,0x69,0x3a,0x0c,0x40,0x76,0x6f,0x6c,0x75,0x6d,0x65,0x69,0x55))
  TeleportPlayer(0,194,75,119,0,0)
  0()



EVENT   49
 PAGE   1
  250(bytes(0x04,0x08,0x6f,0x3a,0x0c,0x52,0x50,0x47,0x3a,0x3a,0x53,0x45,0x08,0x3a,0x0a,0x40,0x6e,0x61,0x6d,0x65,0x49,0x22,0x09,0x4d,0x6f,0x76,0x65,0x06,0x3a,0x06,0x45,0x54,0x3a,0x0b,0x40,0x70,0x69,0x74,0x63,0x68,0x69,0x69,0x3a,0x0c,0x40,0x76,0x6f,0x6c,0x75,0x6d,0x65,0x69,0x55))
  TeleportPlayer(0,194,75,119,0,0)
  0()



EVENT   50
 PAGE   1
  250(bytes(0x04,0x08,0x6f,0x3a,0x0c,0x52,0x50,0x47,0x3a,0x3a,0x53,0x45,0x08,0x3a,0x0a,0x40,0x6e,0x61,0x6d,0x65,0x49,0x22,0x09,0x4d,0x6f,0x76,0x65,0x06,0x3a,0x06,0x45,0x54,0x3a,0x0b,0x40,0x70,0x69,0x74,0x63,0x68,0x69,0x69,0x3a,0x0c,0x40,0x76,0x6f,0x6c,0x75,0x6d,0x65,0x69,0x55))
  TeleportPlayer(0,194,75,119,0,0)
  0()



EVENT   51
 PAGE   1
  250(bytes(0x04,0x08,0x6f,0x3a,0x0c,0x52,0x50,0x47,0x3a,0x3a,0x53,0x45,0x08,0x3a,0x0a,0x40,0x6e,0x61,0x6d,0x65,0x49,0x22,0x09,0x4d,0x6f,0x76,0x65,0x06,0x3a,0x06,0x45,0x54,0x3a,0x0b,0x40,0x70,0x69,0x74,0x63,0x68,0x69,0x69,0x3a,0x0c,0x40,0x76,0x6f,0x6c,0x75,0x6d,0x65,0x69,0x55))
  TeleportPlayer(0,194,75,119,0,0)
  0()



EVENT   52
 PAGE   1
  250(bytes(0x04,0x08,0x6f,0x3a,0x0c,0x52,0x50,0x47,0x3a,0x3a,0x53,0x45,0x08,0x3a,0x0a,0x40,0x6e,0x61,0x6d,0x65,0x49,0x22,0x09,0x4d,0x6f,0x76,0x65,0x06,0x3a,0x06,0x45,0x54,0x3a,0x0b,0x40,0x70,0x69,0x74,0x63,0x68,0x69,0x69,0x3a,0x0c,0x40,0x76,0x6f,0x6c,0x75,0x6d,0x65,0x69,0x55))
  TeleportPlayer(0,194,75,119,0,0)
  0()



EVENT   53
 PAGE   1
  250(bytes(0x04,0x08,0x6f,0x3a,0x0c,0x52,0x50,0x47,0x3a,0x3a,0x53,0x45,0x08,0x3a,0x0a,0x40,0x6e,0x61,0x6d,0x65,0x49,0x22,0x09,0x4d,0x6f,0x76,0x65,0x06,0x3a,0x06,0x45,0x54,0x3a,0x0b,0x40,0x70,0x69,0x74,0x63,0x68,0x69,0x69,0x3a,0x0c,0x40,0x76,0x6f,0x6c,0x75,0x6d,0x65,0x69,0x55))
  TeleportPlayer(0,194,75,119,2,0)
  0()



EVENT   54
 PAGE   1
  250(bytes(0x04,0x08,0x6f,0x3a,0x0c,0x52,0x50,0x47,0x3a,0x3a,0x53,0x45,0x08,0x3a,0x0a,0x40,0x6e,0x61,0x6d,0x65,0x49,0x22,0x09,0x4d,0x6f,0x76,0x65,0x06,0x3a,0x06,0x45,0x54,0x3a,0x0b,0x40,0x70,0x69,0x74,0x63,0x68,0x69,0x69,0x3a,0x0c,0x40,0x76,0x6f,0x6c,0x75,0x6d,0x65,0x69,0x55))
  TeleportPlayer(0,194,75,119,2,0)
  0()



EVENT   55
 PAGE   1
  250(bytes(0x04,0x08,0x6f,0x3a,0x0c,0x52,0x50,0x47,0x3a,0x3a,0x53,0x45,0x08,0x3a,0x0a,0x40,0x6e,0x61,0x6d,0x65,0x49,0x22,0x09,0x4d,0x6f,0x76,0x65,0x06,0x3a,0x06,0x45,0x54,0x3a,0x0b,0x40,0x70,0x69,0x74,0x63,0x68,0x69,0x69,0x3a,0x0c,0x40,0x76,0x6f,0x6c,0x75,0x6d,0x65,0x69,0x55))
  TeleportPlayer(0,194,75,119,2,0)
  0()



EVENT   56
 PAGE   1
  250(bytes(0x04,0x08,0x6f,0x3a,0x0c,0x52,0x50,0x47,0x3a,0x3a,0x53,0x45,0x08,0x3a,0x0a,0x40,0x6e,0x61,0x6d,0x65,0x49,0x22,0x09,0x4d,0x6f,0x76,0x65,0x06,0x3a,0x06,0x45,0x54,0x3a,0x0b,0x40,0x70,0x69,0x74,0x63,0x68,0x69,0x69,0x3a,0x0c,0x40,0x76,0x6f,0x6c,0x75,0x6d,0x65,0x69,0x55))
  TeleportPlayer(0,194,75,119,2,0)
  0()



EVENT   57
 PAGE   1
  250(bytes(0x04,0x08,0x6f,0x3a,0x0c,0x52,0x50,0x47,0x3a,0x3a,0x53,0x45,0x08,0x3a,0x0a,0x40,0x6e,0x61,0x6d,0x65,0x49,0x22,0x09,0x4d,0x6f,0x76,0x65,0x06,0x3a,0x06,0x45,0x54,0x3a,0x0b,0x40,0x70,0x69,0x74,0x63,0x68,0x69,0x69,0x3a,0x0c,0x40,0x76,0x6f,0x6c,0x75,0x6d,0x65,0x69,0x55))
  TeleportPlayer(0,194,75,119,2,0)
  0()



EVENT   58
 PAGE   1
  250(bytes(0x04,0x08,0x6f,0x3a,0x0c,0x52,0x50,0x47,0x3a,0x3a,0x53,0x45,0x08,0x3a,0x0a,0x40,0x6e,0x61,0x6d,0x65,0x49,0x22,0x09,0x4d,0x6f,0x76,0x65,0x06,0x3a,0x06,0x45,0x54,0x3a,0x0b,0x40,0x70,0x69,0x74,0x63,0x68,0x69,0x69,0x3a,0x0c,0x40,0x76,0x6f,0x6c,0x75,0x6d,0x65,0x69,0x55))
  TeleportPlayer(0,194,75,119,2,0)
  0()



EVENT   59
 PAGE   1
  250(bytes(0x04,0x08,0x6f,0x3a,0x0c,0x52,0x50,0x47,0x3a,0x3a,0x53,0x45,0x08,0x3a,0x0a,0x40,0x6e,0x61,0x6d,0x65,0x49,0x22,0x09,0x4d,0x6f,0x76,0x65,0x06,0x3a,0x06,0x45,0x54,0x3a,0x0b,0x40,0x70,0x69,0x74,0x63,0x68,0x69,0x69,0x3a,0x0c,0x40,0x76,0x6f,0x6c,0x75,0x6d,0x65,0x69,0x55))
  TeleportPlayer(0,194,75,119,2,0)
  0()



EVENT   60
 PAGE   1
  250(bytes(0x04,0x08,0x6f,0x3a,0x0c,0x52,0x50,0x47,0x3a,0x3a,0x53,0x45,0x08,0x3a,0x0a,0x40,0x6e,0x61,0x6d,0x65,0x49,0x22,0x09,0x4d,0x6f,0x76,0x65,0x06,0x3a,0x06,0x45,0x54,0x3a,0x0b,0x40,0x70,0x69,0x74,0x63,0x68,0x69,0x69,0x3a,0x0c,0x40,0x76,0x6f,0x6c,0x75,0x6d,0x65,0x69,0x55))
  TeleportPlayer(0,194,75,119,2,0)
  0()



EVENT   61
 PAGE   1
  250(bytes(0x04,0x08,0x6f,0x3a,0x0c,0x52,0x50,0x47,0x3a,0x3a,0x53,0x45,0x08,0x3a,0x0a,0x40,0x6e,0x61,0x6d,0x65,0x49,0x22,0x09,0x4d,0x6f,0x76,0x65,0x06,0x3a,0x06,0x45,0x54,0x3a,0x0b,0x40,0x70,0x69,0x74,0x63,0x68,0x69,0x69,0x3a,0x0c,0x40,0x76,0x6f,0x6c,0x75,0x6d,0x65,0x69,0x55))
  TeleportPlayer(0,194,75,119,2,0)
  0()



EVENT   62
 PAGE   1
  ChangeVariable(1069,1069,0,0,1)
  If(0,4,0)
   ShowMessageFace("alice_fc5",0,0,2,1)
   ShowMessage("\\n<Alice>It doesn't look all that different from the village in our world...\nNo, something's definitely off.")
   0()
  EndIf()
  If(0,5,0)
   ShowMessageFace("iriasu_fc4",2,0,2,2)
   ShowMessage("\\n<Ilias>It looks relatively unchanged from the village in our world, but...\nSomething is definitely not right.")
   0()
  EndIf()
  If(0,6,0)
   ShowMessageFace("sonia_fc2",2,0,2,3)
   ShowMessage("\\n<Sonya>Aren't the buildings kinda old-fashioned?\nThe villagers' clothes look out of style, too...")
   0()
  Else()
   ShowMessageFace("ruka_fc1",0,0,2,4)
   ShowMessage("\\n<Luka>Aren't the buildings kind of old-fashioned?\nThe villagers' clothes look dated, too...")
   0()
  EndIf()
  If(0,4,0)
   ShowMessageFace("alice_fc5",2,0,2,5)
   ShowMessage("\\n<Alice>Mmmn... They do look similar to depictions of medieval times I've seen in books. Does that mean we've traveled 500 years into the past?")
   205(-1,bytes(0x04,0x08,0x6f,0x3a,0x13,0x52,0x50,0x47,0x3a,0x3a,0x4d,0x6f,0x76,0x65,0x52,0x6f,0x75,0x74,0x65,0x09,0x3a,0x0c,0x40,0x72,0x65,0x70,0x65,0x61,0x74,0x46,0x3a,0x0f,0x40,0x73,0x6b,0x69,0x70,0x70,0x61,0x62,0x6c,0x65,0x46,0x3a,0x0a,0x40,0x77,0x61,0x69,0x74,0x54,0x3a,0x0a,0x40,0x6c,0x69,0x73,0x74,0x5b,0x07,0x6f,0x3a,0x15,0x52,0x50,0x47,0x3a,0x3a,0x4d,0x6f,0x76,0x65,0x43,0x6f,0x6d,0x6d,0x61,0x6e,0x64,0x07,0x3a,0x0a,0x40,0x63,0x6f,0x64,0x65,0x69,0x16,0x3a,0x10,0x40,0x70,0x61,0x72,0x61,0x6d,0x65,0x74,0x65,0x72,0x73,0x5b,0x00,0x6f,0x3b,0x0a,0x07,0x3b,0x0b,0x69,0x00,0x3b,0x0c,0x5b,0x00))
   ShowMessageFace("alice_fc5",2,0,2,6)
   ShowMessage("\\n<Alice>Hey you over there, what year is it?")
   0()
  EndIf()
  If(0,5,0)
   ShowMessageFace("iriasu_fc4",0,0,2,7)
   ShowMessage("\\n<Ilias>From what I remember, humans in medieval times lived like this. Have we traveled back 500 years?")
   205(-1,bytes(0x04,0x08,0x6f,0x3a,0x13,0x52,0x50,0x47,0x3a,0x3a,0x4d,0x6f,0x76,0x65,0x52,0x6f,0x75,0x74,0x65,0x09,0x3a,0x0c,0x40,0x72,0x65,0x70,0x65,0x61,0x74,0x46,0x3a,0x0f,0x40,0x73,0x6b,0x69,0x70,0x70,0x61,0x62,0x6c,0x65,0x46,0x3a,0x0a,0x40,0x77,0x61,0x69,0x74,0x54,0x3a,0x0a,0x40,0x6c,0x69,0x73,0x74,0x5b,0x07,0x6f,0x3a,0x15,0x52,0x50,0x47,0x3a,0x3a,0x4d,0x6f,0x76,0x65,0x43,0x6f,0x6d,0x6d,0x61,0x6e,0x64,0x07,0x3a,0x0a,0x40,0x63,0x6f,0x64,0x65,0x69,0x16,0x3a,0x10,0x40,0x70,0x61,0x72,0x61,0x6d,0x65,0x74,0x65,0x72,0x73,0x5b,0x00,0x6f,0x3b,0x0a,0x07,0x3b,0x0b,0x69,0x00,0x3b,0x0c,0x5b,0x00))
   ShowMessageFace("iriasu_fc4",0,0,2,8)
   ShowMessage("\\n<Ilias>Hey you over there, what year is it?")
   0()
  EndIf()
  ShowMessageFace("",0,0,2,9)
  ShowMessage("\\n<Youth>Have you folks been living under a rock? It's Johannes 965.")
  If(0,4,0)
   ShowMessageFace("alice_fc6",0,0,2,10)
   ShowMessage("\\n<Alice>965?! Then we're in the age of the Hero Heinrich!")
   0()
  EndIf()
  If(0,5,0)
   ShowMessageFace("iriasu_fc4",7,0,2,11)
   ShowMessage("\\n<Ilias>Did he say 965? That is around when the Hero Heinrich killed the Monster Lord.")
   0()
  EndIf()
  ShowMessageFace("ruka_fc1",0,0,2,12)
  ShowMessage("\\n<Luka>The Legendary Heinrich overthrew the Monster Lord in 966, one year from now.")
  ShowMessageFace("",0,0,2,13)
  ShowMessage("\\n<Youth>Haha, I don't know what you folks have been smoking, but the Monster Lord is alive and kicking in her castle.")
  ShowMessageFace("",0,0,2,14)
  ShowMessage("\\n<Youth>Lotsa heroes have tried to take her out, but they all failed miserably. I sure hope you're right about Heinrich killing her, though.")
  ShowMessageFace("ruka_fc1",0,0,2,15)
  ShowMessage("\\n<Luka>Wait, you've heard of the Hero Heinrich?")
  ShowMessageFace("",0,0,2,16)
  ShowMessage("\\n<Youth>'Course. Ain't nobody that hasn't heard of him, not after he dealt with those Black Nobles in Sabasa. He's our shining star.")
  ShowMessageFace("",0,0,2,17)
  ShowMessage("\\n<Youth>Plus, rumor has it that he's in the neigh--")
  205(-1,bytes(0x04,0x08,0x6f,0x3a,0x13,0x52,0x50,0x47,0x3a,0x3a,0x4d,0x6f,0x76,0x65,0x52,0x6f,0x75,0x74,0x65,0x09,0x3a,0x0c,0x40,0x72,0x65,0x70,0x65,0x61,0x74,0x46,0x3a,0x0f,0x40,0x73,0x6b,0x69,0x70,0x70,0x61,0x62,0x6c,0x65,0x46,0x3a,0x0a,0x40,0x77,0x61,0x69,0x74,0x54,0x3a,0x0a,0x40,0x6c,0x69,0x73,0x74,0x5b,0x07,0x6f,0x3a,0x15,0x52,0x50,0x47,0x3a,0x3a,0x4d,0x6f,0x76,0x65,0x43,0x6f,0x6d,0x6d,0x61,0x6e,0x64,0x07,0x3a,0x0a,0x40,0x63,0x6f,0x64,0x65,0x69,0x18,0x3a,0x10,0x40,0x70,0x61,0x72,0x61,0x6d,0x65,0x74,0x65,0x72,0x73,0x5b,0x00,0x6f,0x3b,0x0a,0x07,0x3b,0x0b,0x69,0x00,0x3b,0x0c,0x5b,0x00))
  205(74,bytes(0x04,0x08,0x6f,0x3a,0x13,0x52,0x50,0x47,0x3a,0x3a,0x4d,0x6f,0x76,0x65,0x52,0x6f,0x75,0x74,0x65,0x09,0x3a,0x0c,0x40,0x72,0x65,0x70,0x65,0x61,0x74,0x46,0x3a,0x0f,0x40,0x73,0x6b,0x69,0x70,0x70,0x61,0x62,0x6c,0x65,0x46,0x3a,0x0a,0x40,0x77,0x61,0x69,0x74,0x54,0x3a,0x0a,0x40,0x6c,0x69,0x73,0x74,0x5b,0x07,0x6f,0x3a,0x15,0x52,0x50,0x47,0x3a,0x3a,0x4d,0x6f,0x76,0x65,0x43,0x6f,0x6d,0x6d,0x61,0x6e,0x64,0x07,0x3a,0x0a,0x40,0x63,0x6f,0x64,0x65,0x69,0x18,0x3a,0x10,0x40,0x70,0x61,0x72,0x61,0x6d,0x65,0x74,0x65,0x72,0x73,0x5b,0x00,0x6f,0x3b,0x0a,0x07,0x3b,0x0b,0x69,0x00,0x3b,0x0c,0x5b,0x00))
  241(bytes(0x04,0x08,0x6f,0x3a,0x0d,0x52,0x50,0x47,0x3a,0x3a,0x42,0x47,0x4d,0x08,0x3a,0x0a,0x40,0x6e,0x61,0x6d,0x65,0x49,0x22,0x0a,0x6b,0x69,0x6b,0x69,0x31,0x06,0x3a,0x06,0x45,0x54,0x3a,0x0c,0x40,0x76,0x6f,0x6c,0x75,0x6d,0x65,0x69,0x69,0x3a,0x0b,0x40,0x70,0x69,0x74,0x63,0x68,0x69,0x69))
  ShowMessageFace("",0,0,2,18)
  ShowMessage("\\n<Man>M-monsters!!")
  ShowMessageFace("",0,0,2,19)
  ShowMessage("\\n<Woman>Eeeek!!")
  ShowMessageFace("",0,0,2,20)
  ShowMessage("\\n<Guard A>Citizens, everyone get out of here!")
  ShowMessageFace("",0,0,2,21)
  ShowMessage("\\n<Guard B>To the north! Hurry!")
  ShowMessageFace("ruka_fc1",0,0,2,22)
  ShowMessage("\\n<Luka>Could the Monster Lord's army be attacking?!")
  ShowMessageFace("",0,0,2,23)
  ShowMessage("\\n<Youth>This doesn't feel like a large-scale attack...\nIt's just a few monsters raiding us!")
  ShowMessageFace("",0,0,2,24)
  ShowMessage("\\n<Youth>Even a few monsters can be a huge problem, though...\nYou folks had better get to the northern part of the village, too!")
  If(0,4,0)
   ShowMessageFace("alice_fc5",2,0,2,25)
   ShowMessage("\\n<Alice>Even though this is a parallel world, we can't run away from a monster attack!")
   0()
  EndIf()
  If(0,5,0)
   ShowMessageFace("iriasu_fc4",7,0,2,26)
   ShowMessage("\\n<Ilias>That would be absolutely unacceptable. There is no way I would abandon people being attacked by monsters.")
   0()
  EndIf()
  If(4,520,0)
   ShowMessageFace("lazarus3_fc1",1,0,2,27)
   ShowMessage("\\n<Lazarus>Oh man, this brings back memories of my adventures. Marcellus would always say something like that in times like these.")
   0()
  EndIf()
  ShowMessageFace("ruka_fc1",0,0,2,28)
  ShowMessage("\\n<Luka>Let's go protect the villagers!")
  If(4,203,0)
   ShowMessageFace("tatunoko_k_fc1",0,0,2,29)
   ShowMessage("\\n<Tatsuko>Protecting the populace is the navy's duty!")
   0()
  EndIf()
  EndEventProcessing()
  0()
 PAGE   2
  // condition: variable 1069 >= 1
  0()
 PAGE   3
  // condition: variable 1069 >= 5
  ChangeSelfSwitch("B",0)
  If(0,4,0)
   ShowMessageFace("alice_fc5",0,0,2,1)
   ShowMessage("\\n<Alice>We should obtain a ship in this village and sail north to Hellgondo. The continent is surrounded by mountains, but there's a cave that leads to the interior.")
   0()
  EndIf()
  If(0,5,0)
   ShowMessageFace("iriasu_fc4",0,0,2,2)
   ShowMessage("\\n<Ilias>We should obtain a ship in this village and sail north to Hellgondo. The continent is surrounded by mountains, but there is a cave that leads to the interior.")
   0()
  EndIf()
  If(4,45,0)
   ShowMessageFace("alicetromeria_fc1",4,0,2,3)
   ShowMessage("\\n<Alicetroemeria>Ufufu...\nSounds like a fun trip.")
   0()
  EndIf()
  ShowMessageFace("ruka_fc1",0,0,2,4)
  ShowMessage("\\n<Luka>There was a trading vessel that could sail the open seas here. Let's see if we can borrow it somehow.")
  0()
 PAGE   4
  // condition: self-switch B is ON
  0()



EVENT   63
 PAGE   1
  250(bytes(0x04,0x08,0x6f,0x3a,0x0c,0x52,0x50,0x47,0x3a,0x3a,0x53,0x45,0x08,0x3a,0x0a,0x40,0x6e,0x61,0x6d,0x65,0x49,0x22,0x0a,0x4f,0x70,0x65,0x6e,0x31,0x06,0x3a,0x06,0x45,0x54,0x3a,0x0b,0x40,0x70,0x69,0x74,0x63,0x68,0x69,0x69,0x3a,0x0c,0x40,0x76,0x6f,0x6c,0x75,0x6d,0x65,0x69,0x55))
  205(0,bytes(0x04,0x08,0x6f,0x3a,0x13,0x52,0x50,0x47,0x3a,0x3a,0x4d,0x6f,0x76,0x65,0x52,0x6f,0x75,0x74,0x65,0x09,0x3a,0x0c,0x40,0x72,0x65,0x70,0x65,0x61,0x74,0x46,0x3a,0x0f,0x40,0x73,0x6b,0x69,0x70,0x70,0x61,0x62,0x6c,0x65,0x46,0x3a,0x0a,0x40,0x77,0x61,0x69,0x74,0x54,0x3a,0x0a,0x40,0x6c,0x69,0x73,0x74,0x5b,0x0c,0x6f,0x3a,0x15,0x52,0x50,0x47,0x3a,0x3a,0x4d,0x6f,0x76,0x65,0x43,0x6f,0x6d,0x6d,0x61,0x6e,0x64,0x07,0x3a,0x0a,0x40,0x63,0x6f,0x64,0x65,0x69,0x16,0x3a,0x10,0x40,0x70,0x61,0x72,0x61,0x6d,0x65,0x74,0x65,0x72,0x73,0x5b,0x00,0x6f,0x3b,0x0a,0x07,0x3b,0x0b,0x69,0x14,0x3b,0x0c,0x5b,0x06,0x69,0x08,0x6f,0x3b,0x0a,0x07,0x3b,0x0b,0x69,0x17,0x3b,0x0c,0x5b,0x00,0x6f,0x3b,0x0a,0x07,0x3b,0x0b,0x69,0x14,0x3b,0x0c,0x5b,0x06,0x69,0x08,0x6f,0x3b,0x0a,0x07,0x3b,0x0b,0x69,0x18,0x3b,0x0c,0x5b,0x00,0x6f,0x3b,0x0a,0x07,0x3b,0x0b,0x69,0x2a,0x3b,0x0c,0x5b,0x00,0x6f,0x3b,0x0a,0x07,0x3b,0x0b,0x69,0x00,0x3b,0x0c,0x5b,0x00))
  205(-1,bytes(0x04,0x08,0x6f,0x3a,0x13,0x52,0x50,0x47,0x3a,0x3a,0x4d,0x6f,0x76,0x65,0x52,0x6f,0x75,0x74,0x65,0x09,0x3a,0x0c,0x40,0x72,0x65,0x70,0x65,0x61,0x74,0x46,0x3a,0x0f,0x40,0x73,0x6b,0x69,0x70,0x70,0x61,0x62,0x6c,0x65,0x54,0x3a,0x0a,0x40,0x77,0x61,0x69,0x74,0x54,0x3a,0x0a,0x40,0x6c,0x69,0x73,0x74,0x5b,0x07,0x6f,0x3a,0x15,0x52,0x50,0x47,0x3a,0x3a,0x4d,0x6f,0x76,0x65,0x43,0x6f,0x6d,0x6d,0x61,0x6e,0x64,0x07,0x3a,0x0a,0x40,0x63,0x6f,0x64,0x65,0x69,0x11,0x3a,0x10,0x40,0x70,0x61,0x72,0x61,0x6d,0x65,0x74,0x65,0x72,0x73,0x5b,0x00,0x6f,0x3b,0x0a,0x07,0x3b,0x0b,0x69,0x00,0x3b,0x0c,0x5b,0x00))
  250(bytes(0x04,0x08,0x6f,0x3a,0x0c,0x52,0x50,0x47,0x3a,0x3a,0x53,0x45,0x08,0x3a,0x0a,0x40,0x6e,0x61,0x6d,0x65,0x49,0x22,0x09,0x4d,0x6f,0x76,0x65,0x06,0x3a,0x06,0x45,0x54,0x3a,0x0b,0x40,0x70,0x69,0x74,0x63,0x68,0x69,0x69,0x3a,0x0c,0x40,0x76,0x6f,0x6c,0x75,0x6d,0x65,0x69,0x55))
  TeleportPlayer(0,515,60,71,0,0)
  0()



EVENT   64
 PAGE   1
  If(1,1069,0,2,2)
   ShowMessageFace("",0,0,2,1)
   ShowMessage("\\n<Hero>This is a huge problem...\nHuh? Why aren't I helping? There's no way I could beat such powerful monsters!")
   EndEventProcessing()
   0()
  EndIf()
  If(1,1069,0,3,1)
   ShowMessageFace("",0,0,2,2)
   ShowMessage("\\n<Hero>I'm a hero traveling the world!\n...Though I'm nothing compared to Heinrich.")
   EndEventProcessing()
   0()
  EndIf()
  0()



EVENT   65
 PAGE   1
  ShowMessageFace("",0,0,2,1)
  ShowMessage("\\n<Soldier>We're up against the infamous Queen Succubi.\nThey've corrupted countless villages before this one...")
  0()
 PAGE   2
  // condition: variable 1069 >= 3
  0()



EVENT   66
 PAGE   1
  ShowMessageFace("",0,0,2,1)
  ShowMessage("\\n<Soldier>The Queen Succubi are holed up inside this building. The basement was apparently used for black magic in the past.")
  0()
 PAGE   2
  // condition: variable 1069 >= 3
  0()



EVENT   67
 PAGE   1
  ShowMessageFace("",0,0,2,1)
  ShowMessage("\\n<Soldier>There's no way the Queen Succubi are seriously running away from common soldiers like us. They've got to be playing around...")
  0()
 PAGE   2
  // condition: variable 1069 >= 3
  0()



EVENT   68
 PAGE   1
  ShowMessageFace("",0,0,2,1)
  ShowMessage("\\n<Soldier>I wouldn't say we've got them cornered.\nIt's more like they're luring us in...")
  0()
 PAGE   2
  // condition: variable 1069 >= 3
  0()



EVENT   69
 PAGE   1
  ShowMessageFace("",0,0,2,1)
  ShowMessage("\\n<Soldier>There isn't anyone who can stand up to the Queen Succubi. Well... maybe the rumored Hero Heinrich could...")
  0()
 PAGE   2
  // condition: variable 1069 >= 3
  0()



EVENT   70
 PAGE   1
  ShowMessageFace("",0,0,2,1)
  ShowMessage("\\n<Soldier>Oh man, I'm getting dizzy just thinking about being lured down there. I'd love for them to suck me dry...")
  0()
 PAGE   2
  // condition: variable 1069 >= 3
  0()



EVENT   71
 PAGE   1
  ShowMessageFace("",0,0,2,1)
  ShowMessage("\\n<Officer>W-whoa, you're the Hero Heinrich!\nThe rumors that you were on the way were true!")
  ShowMessageFace("",0,0,2,2)
  ShowMessage("\\n<Officer>Could you please defeat the Queen Succubi holed up in this building? I hate to ask when you've just arrived, but they aren't monsters we have a chance against.")
  ShowChoices(strings("I'm Heinrich. Leave this to me","I'm not Heinrich"),0)
  IfPlayerPicksChoice(0,null)
   ShowMessageFace("ruka_fc1",0,0,2,3)
   ShowMessage("\\n<Luka>You can count on me, the Hero Heinrich!")
   If(0,6,0)
    ShowMessageFace("sonia_fc3",2,0,2,4)
    ShowMessage("\\n<Sonya>The hell you are!")
    0()
   Else()
    If(0,4,0)
     ShowMessageFace("alice_fc5",5,0,2,5)
     ShowMessage("\\n<Alice>He's not Heinrich...")
     ShowMessageFace("alice_fc5",2,0,2,6)
     ShowMessage("\\n<Alice>But it's not like we can ignore the Queen Succubi. We'll have to deal with them ourselves.")
     0()
    EndIf()
    If(0,5,0)
     ShowMessageFace("iriasu_fc4",2,0,2,7)
     ShowMessage("\\n<Ilias>He is not Heinrich...")
     ShowMessageFace("iriasu_fc4",7,0,2,8)
     ShowMessage("\\n<Ilias>But we cannot leave the Queen Succubi alone. We shall have to deal with them ourselves.")
     0()
    EndIf()
    0()
   EndIf()
   0()
  IfPlayerPicksChoice(1,null)
   ShowMessageFace("ruka_fc1",0,0,2,9)
   ShowMessage("\\n<Luka>Umm, I'm not actually the Hero Heinrich...")
   ShowMessageFace("",0,0,2,10)
   ShowMessage("\\n<Officer>Seriously? You look exactly like the rumors describe him! The confident way you carry yourself, that glint in your eye that seems friendly but hides your true ability...")
   ShowMessageFace("ruka_fc1",0,0,2,11)
   ShowMessage("\\n<Luka>Oh, r-really...\nHehe, ehehehe...")
   If(0,4,0)
    ShowMessageFace("alice_fc6",1,0,2,12)
    ShowMessage("\\n<Alice>This isn't the time to be bashful!")
    ShowMessageFace("alice_fc5",2,0,2,13)
    ShowMessage("\\n<Alice>Anyway, it's not like we can ignore the Queen Succubi. We'll have to deal with them ourselves.")
    0()
   EndIf()
   If(0,5,0)
    ShowMessageFace("iriasu_fc5",0,0,2,14)
    ShowMessage("\\n<Ilias>This is not the time to be bashful!")
    ShowMessageFace("iriasu_fc4",7,0,2,15)
    ShowMessage("\\n<Ilias>Anyway, we cannot leave the Queen Succubi alone. We shall have to deal with them ourselves.")
    0()
   EndIf()
   0()
  404()
  If(4,287,0)
   ShowMessageFace("succubus_fc1",3,0,2,16)
   ShowMessage("\\n<Succubus>We're up against the Queen Succubus of this era. She's going to be a frightening opponent.")
   0()
  EndIf()
  If(4,203,0)
   ShowMessageFace("tatunoko_k_fc1",1,0,2,17)
   ShowMessage("\\n<Tatsuko>Let's do it!")
   0()
  EndIf()
  ShowMessageFace("",0,0,2,18)
  ShowMessage("\\n<Officer>Okay, we'll leave it to you!\nMay the fortunes of war smile upon you!")
  205(0,bytes(0x04,0x08,0x6f,0x3a,0x13,0x52,0x50,0x47,0x3a,0x3a,0x4d,0x6f,0x76,0x65,0x52,0x6f,0x75,0x74,0x65,0x09,0x3a,0x0c,0x40,0x72,0x65,0x70,0x65,0x61,0x74,0x46,0x3a,0x0f,0x40,0x73,0x6b,0x69,0x70,0x70,0x61,0x62,0x6c,0x65,0x46,0x3a,0x0a,0x40,0x77,0x61,0x69,0x74,0x54,0x3a,0x0a,0x40,0x6c,0x69,0x73,0x74,0x5b,0x09,0x6f,0x3a,0x15,0x52,0x50,0x47,0x3a,0x3a,0x4d,0x6f,0x76,0x65,0x43,0x6f,0x6d,0x6d,0x61,0x6e,0x64,0x07,0x3a,0x0a,0x40,0x63,0x6f,0x64,0x65,0x69,0x2a,0x3a,0x10,0x40,0x70,0x61,0x72,0x61,0x6d,0x65,0x74,0x65,0x72,0x73,0x5b,0x00,0x6f,0x3b,0x0a,0x07,0x3b,0x0b,0x69,0x08,0x3b,0x0c,0x5b,0x00,0x6f,0x3b,0x0a,0x07,0x3b,0x0b,0x69,0x16,0x3b,0x0c,0x5b,0x00,0x6f,0x3b,0x0a,0x07,0x3b,0x0b,0x69,0x00,0x3b,0x0c,0x5b,0x00))
  ChangeVariable(1069,1069,0,0,2)
  EndEventProcessing()
  0()
 PAGE   2
  // condition: variable 1069 >= 2
  0()



EVENT   72
 PAGE   1
  If(1,1069,0,2,2)
   ShowMessageFace("",0,0,2,1)
   ShowMessage("\\n<Seaman>I'm supposed to be guarding the ship, so I can't just run away!\n...Well, I really doubt a monster came all the way here to steal a ship.")
   EndEventProcessing()
   0()
  EndIf()
  If(1,1069,0,3,1)
   If(1,1069,0,4,2)
    ShowMessageFace("",0,0,2,2)
    ShowMessage("\\n<Seaman>This is the largest trading vessel in the village. It's a custom make that can navigate the high seas.")
    EndEventProcessing()
    0()
   EndIf()
   0()
  EndIf()
  If(1,1069,0,5,1)
   If(1,1069,0,7,2)
    ShowMessageFace("",0,0,2,3)
    ShowMessage("\\n<Seaman>This is the largest trading vessel in the village. It's a custom make that can navigate the high seas.")
    ShowMessageFace("",0,0,2,4)
    ShowMessage("\\n<Seaman>Huh? You want to borrow it?\nI'm not authorized to make that decision. You'll have to ask the mayor.")
    If(0,4,0)
     ShowMessageFace("alice_fc5",0,0,2,5)
     ShowMessage("\\n<Alice>We'll have to appeal to her then.\nThe mayor's house is in the northern part of the village.")
     0()
    EndIf()
    If(0,5,0)
     ShowMessageFace("iriasu_fc4",2,0,2,6)
     ShowMessage("\\n<Ilias>Oh well, let's go ask her then.\nThe mayor's house is in the northern part of the village.")
     0()
    EndIf()
    EndEventProcessing()
    0()
   EndIf()
   0()
  EndIf()
  If(1,1069,0,8,1)
   ShowMessageFace("",0,0,2,7)
   ShowMessage("\\n<Seaman>This is the largest trading vessel in the village. It's a custom make that can navigate the high seas.")
   ShowMessageFace("",0,0,2,8)
   ShowMessage("\\n<Seaman>Word came from the mayor that you're allowed to use it. Get on board and let's shove off!")
   ShowChoices(strings("Depart","Stay here"),2)
   IfPlayerPicksChoice(0,null)
    221()
    250(bytes(0x04,0x08,0x6f,0x3a,0x0c,0x52,0x50,0x47,0x3a,0x3a,0x53,0x45,0x08,0x3a,0x0a,0x40,0x6e,0x61,0x6d,0x65,0x49,0x22,0x0b,0x57,0x61,0x74,0x65,0x72,0x31,0x06,0x3a,0x06,0x45,0x54,0x3a,0x0b,0x40,0x70,0x69,0x74,0x63,0x68,0x69,0x69,0x3a,0x0c,0x40,0x76,0x6f,0x6c,0x75,0x6d,0x65,0x69,0x55))
    Wait(60)
    355("forced_get_on_ship")
    TeleportPlayer(0,194,74,118,8,2)
    222()
    241(bytes(0x04,0x08,0x6f,0x3a,0x0d,0x52,0x50,0x47,0x3a,0x3a,0x42,0x47,0x4d,0x08,0x3a,0x0a,0x40,0x6e,0x61,0x6d,0x65,0x49,0x22,0x08,0x75,0x6d,0x69,0x06,0x3a,0x06,0x45,0x54,0x3a,0x0c,0x40,0x76,0x6f,0x6c,0x75,0x6d,0x65,0x69,0x69,0x3a,0x0b,0x40,0x70,0x69,0x74,0x63,0x68,0x69,0x69))
    If(2,"A",1)
     ChangeSelfSwitch("A",0)
     If(0,4,0)
      ShowMessageFace("alice_fc5",2,0,2,9)
      ShowMessage("\\n<Alice>If we sail north from here, we'll reach Hellgondo. We should sail along the coast and search for the cave to the interior.")
      0()
     EndIf()
     If(0,5,0)
      ShowMessageFace("iriasu_fc4",0,0,2,10)
      ShowMessage("\\n<Ilias>If we sail north from here, we will reach Hellgondo. We should sail along the coast and search for the cave to the interior.")
      0()
     EndIf()
     0()
    EndIf()
    EndEventProcessing()
    0()
   IfPlayerPicksChoice(1,null)
    EndEventProcessing()
    0()
   404()
   0()
  EndIf()
  0()



EVENT   73
 PAGE   1
  0()



EVENT   74
 PAGE   1
  If(1,1069,0,2,2)
   ShowMessageFace("",0,0,2,1)
   ShowMessage("\\n<Youth>I'll show you around the village later.\nI'm not going anywhere until those monsters leave.")
   EndEventProcessing()
   0()
  EndIf()
  If(1,1069,0,3,1)
   ShowMessageFace("",0,0,2,2)
   ShowMessage("\\n<Youth>You folks were awesome!\nSo, where would you like to go?")
   355("unlimited_choices(11, [\"Inn\",")
   655("\"Equipment Shop\",\"Accessory Shop\",")
   655("\"Item Shop\",\"Village Chief's House\",\"Nowhere\"])")
   If(1,11,0,0,0)
    TeleportPlayer(0,514,26,42,2,0)
    EndEventProcessing()
    0()
   EndIf()
   If(1,11,0,1,0)
    TeleportPlayer(0,514,44,23,2,0)
    EndEventProcessing()
    0()
   EndIf()
   If(1,11,0,2,0)
    TeleportPlayer(0,514,35,45,2,0)
    EndEventProcessing()
    0()
   EndIf()
   If(1,11,0,3,0)
    TeleportPlayer(0,514,24,52,2,0)
    EndEventProcessing()
    0()
   EndIf()
   If(1,11,0,4,0)
    TeleportPlayer(0,514,23,7,2,0)
    EndEventProcessing()
    0()
   EndIf()
   If(1,11,0,5,0)
    EndEventProcessing()
    0()
   EndIf()
   EndEventProcessing()
   0()
  EndIf()
  0()



EVENT   75
 PAGE   1
  // condition: variable 1069 >= 2
  ShowMessageFace("",0,0,2,1)
  ShowMessage("\\n<Officer>I'll leave the subjugation of the Queen Succubi to you!\nMay the fortunes of war smile upon you!")
  0()
 PAGE   2
  // condition: variable 1069 >= 3
  0()



EVENT   76
 PAGE   1
  // condition: variable 1069 >= 3
  ShowMessageFace("",0,0,2,1)
  ShowMessage("\\n<Mayor's Secretary>This is the village mayor's house.\nWe're always open, so please feel free to stop by.")
  0()



EVENT   77
 PAGE   1
  // condition: variable 1069 >= 3
  ShowMessageFace("",0,0,2,1)
  ShowMessage("\\n<Hero>This village is called \"Succubus Village.\"\nMany travelers come here expecting various things...")
  ShowMessageFace("",0,0,2,2)
  ShowMessage("\\n<Hero>The remaining succubus legends are just that, it's quite an ordinary village. Though I do think there are a lot of beautiful young women here.")
  355("actor_label_jump")
  EndEventProcessing()
  DefineLabel("287")
  ShowMessageFace("succubus_fc1",0,0,2,3)
  ShowMessage("\\n<Succubus>Even in this era, the reality of this village was kept hidden...")
  EndEventProcessing()
  0()



EVENT   78
 PAGE   1
  // condition: variable 1069 >= 3
  ShowMessageFace("",0,0,2,1)
  ShowMessage("\\n<Guard>The Queen Succubi really did invade...\nIt's thanks to you that there hasn't been a single victim.")
  0()



EVENT   79
 PAGE   1
  250(bytes(0x04,0x08,0x6f,0x3a,0x0c,0x52,0x50,0x47,0x3a,0x3a,0x53,0x45,0x08,0x3a,0x0a,0x40,0x6e,0x61,0x6d,0x65,0x49,0x22,0x09,0x4d,0x6f,0x76,0x65,0x06,0x3a,0x06,0x45,0x54,0x3a,0x0b,0x40,0x70,0x69,0x74,0x63,0x68,0x69,0x69,0x3a,0x0c,0x40,0x76,0x6f,0x6c,0x75,0x6d,0x65,0x69,0x55))
  TeleportPlayer(0,194,75,119,0,0)
  0()



EVENT   80
 PAGE   1
  // condition: variable 1069 >= 3
  ShowMessageFace("",0,0,2,1)
  ShowMessage("\\n<Guard>Getting caught by the Queen Succubi Lilith and Lilim would be truly horrifying. Trapped between their two bodies, being rubbed until completely exhausted...")
  ShowMessageFace("",0,0,2,2)
  ShowMessage("\\n<Guard>Aaah, scary. Succubi are so scary.")
  355("actor_label_jump")
  EndEventProcessing()
  DefineLabel("341")
  ShowMessageFace("lilith_fc1",0,0,2,3)
  ShowMessage("\\n<Lilith & Lilim>Do you want us to do you that badly?\nWe're busy at the moment, but maybe later.")
  ShowMessageFace("",0,0,2,4)
  ShowMessage("\\n<Guard>Aww man...")
  EndEventProcessing()
  0()



EVENT   81
 PAGE   1
  // condition: variable 1069 >= 3
  ShowMessageFace("",0,0,2,1)
  ShowMessage("\\n<Guard>We're currently on high alert!\n...But just how much of a chance would I stand against a powerful monster?")
  ShowMessageFace("",0,0,2,2)
  ShowMessage("\\n<Guard>You and Heinrich happened to be in this village by chance and really helped us out. Thank you very much.")
  355("actor_label_jump")
  EndEventProcessing()
  DefineLabel("171")
  ShowMessageFace("lizardboss_fc1",3,0,2,3)
  ShowMessage("\\n<Miranda>You don't sound very dependable...\nCan you really defend this village on your own?")
  EndEventProcessing()
  DefineLabel("538")
  ShowMessageFace("heinrich_fc1",7,0,2,4)
  ShowMessage("\\n<Heinrich>I didn't do anything...")
  EndEventProcessing()
  0()



EVENT   82
 PAGE   1
  // condition: variable 1069 >= 3
  ShowMessageFace("",0,0,2,1)
  ShowMessage("\\n<Guard>This village is the closest one to the Hellgondo Continent, where the Monster Lord's Castle is located. Since there are no important facilities here, it's more peaceful compared to the city.")
  ShowMessageFace("",0,0,2,2)
  ShowMessage("\\n<Guard>After what happened however, I can't relax anymore.\nWe'll have to tighten up our security more from now on.")
  355("actor_label_jump")
  EndEventProcessing()
  DefineLabel("45")
  ShowMessageFace("alicetromeria_fc1",4,0,2,3)
  ShowMessage("\\n<Alicetroemeria>There won't be any monster attacks here anymore... It is an inviolable promise.")
  EndEventProcessing()
  0()



EVENT   83
 PAGE   1
  If(1,1069,0,2,2)
   ShowMessageFace("",0,0,2,1)
   ShowMessage("\\n<Village Woman>Monsters infiltrated the village?\nThat's a scary thought...")
   EndEventProcessing()
   0()
  EndIf()
  If(1,1069,0,3,1)
   ShowMessageFace("",0,0,2,2)
   ShowMessage("\\n<Village Woman>It's weird, though. I thought there was an agreement not to invade this village...")
   355("actor_label_jump")
   EndEventProcessing()
   DefineLabel("45")
   ShowMessageFace("alicetromeria_fc1",4,0,2,3)
   ShowMessage("\\n<Alicetroemeria>Lilith and Lilim can be a real handful...")
   EndEventProcessing()
   DefineLabel("341")
   ShowMessageFace("lilith_fc1",0,0,2,4)
   ShowMessage("\\n<Lilith & Lilim>We acted on our own...\nBlack Alice will forgive us with a laugh.")
   EndEventProcessing()
   0()
  EndIf()
  0()



EVENT   84
 PAGE   1
  // condition: variable 1069 >= 3
  ShowMessageFace("",0,0,2,1)
  ShowMessage("\\n<Young Girl>Mother, why did the monsters attack us?\nI didn't think they were supposed to attack since most of the women in this village are succubi.")
  ShowMessageFace("",0,0,2,2)
  ShowMessage("\\n<Young Mother>Shh, you aren't supposed to tell outsiders...\nOh, ignore her, hero. She's just talking about a fantasy story she read about in a picture book.")
  355("actor_label_jump")
  EndEventProcessing()
  DefineLabel("284")
  ShowMessageFace("minccubus_fc1",1,0,2,3)
  ShowMessage("\\n<Serra>Oh, you're both succubi.\nI can tell. ♪")
  EndEventProcessing()
  DefineLabel("341")
  ShowMessageFace("lilith_fc1",0,0,2,4)
  ShowMessage("\\n<Lilith & Lilim>We didn't attack...\nWe just wanted to nab a few men from the village.")
  EndEventProcessing()
  DefineLabel("538")
  ShowMessageFace("heinrich_fc1",7,0,2,5)
  ShowMessage("\\n<Heinrich>Oh, she was just referring to a book...")
  EndEventProcessing()
  0()



EVENT   85
 PAGE   1
  // condition: variable 1069 >= 3
  ShowMessageFace("",0,0,2,1)
  ShowMessage("\\n<Young Girl>Mother, why did the monsters attack us?\nI didn't think they were supposed to attack since most of the women in this village are succubi.")
  ShowMessageFace("",0,0,2,2)
  ShowMessage("\\n<Young Mother>Shh, you aren't supposed to tell outsiders...\nOh, ignore her, hero. She's just talking about a fantasy story she read about in a picture book.")
  355("actor_label_jump")
  EndEventProcessing()
  DefineLabel("284")
  ShowMessageFace("minccubus_fc1",1,0,2,3)
  ShowMessage("\\n<Serra>Oh, you're both succubi.\nI can tell. ♪")
  EndEventProcessing()
  DefineLabel("341")
  ShowMessageFace("lilith_fc1",0,0,2,4)
  ShowMessage("\\n<Lilith & Lilim>We didn't attack...\nWe just wanted to nab a few men from the village.")
  EndEventProcessing()
  DefineLabel("538")
  ShowMessageFace("heinrich_fc1",7,0,2,5)
  ShowMessage("\\n<Heinrich>Oh, she was just referring to a book...")
  EndEventProcessing()
  EndEventProcessing()
  0()



EVENT   86
 PAGE   1
  // condition: variable 1069 >= 3
  ShowMessageFace("",0,0,2,1)
  ShowMessage("\\n<Old Woman>To ignore the promise from ancient times now...\nBlack Alice is utterly barbaric.")
  355("actor_label_jump")
  EndEventProcessing()
  DefineLabel("45")
  ShowMessageFace("alicetromeria_fc1",4,0,2,2)
  ShowMessage("\\n<Alicetroemeria>I sincerely apologize for the trouble those little mischief makers caused... I promise not to violate the rules of our little game ever again.")
  EndEventProcessing()
  0()



EVENT   87
 PAGE   1
  // condition: variable 1069 >= 3
  ShowMessageFace("",0,0,2,1)
  ShowMessage("\\n<Youth>How amazing, to be to drive away the Queen Succubi...\nFollowing the appearance of the hero Heinrich, a new star of hope emerges!")
  0()



EVENT   88
 PAGE   1
  // condition: variable 1069 >= 3
  ShowMessageFace("",0,0,2,1)
  ShowMessage("\\n<Young Boy>My big brother or Heinrich, who's stronger?")
  355("actor_label_jump")
  EndEventProcessing()
  DefineLabel("538")
  ShowMessageFace("heinrich_fc1",7,0,2,2)
  ShowMessage("\\n<Heinrich>Heroes don't compete for strength.")
  EndEventProcessing()
  0()



EVENT   89
 PAGE   1
  // condition: variable 1069 >= 3
  ShowMessageFace("",0,0,2,1)
  ShowMessage("\\n<Young Girl>My older brother or Heinrich, who has a more promising future?")
  355("actor_label_jump")
  EndEventProcessing()
  DefineLabel("538")
  ShowMessageFace("heinrich_fc1",2,0,2,2)
  ShowMessage("\\n<Heinrich>I wouldn't know...")
  EndEventProcessing()
  0()



EVENT   90
 PAGE   1
  // condition: variable 1069 >= 3
  ShowMessageFace("",0,0,2,1)
  ShowMessage("\\n<Young Lady>I can't believe monsters have invaded this village...\nThe times have completely changed.")
  0()



EVENT   91
 PAGE   1
  // condition: variable 1069 >= 3
  ShowMessageFace("",0,0,2,1)
  ShowMessage("\\n<Young Lady>Ufufu...")
  ShowMessageFace("",0,0,2,2)
  ShowMessage("\\n<Young Man>I-in this place... Aaah...")
  355("actor_label_jump")
  EndEventProcessing()
  DefineLabel("281")
  ShowMessageFace("succubuses_fc1",0,0,2,3)
  ShowMessage("\\n<Harem>Ara... Were you in the middle of feasting?")
  EndEventProcessing()
  DefineLabel("283")
  ShowMessageFace("maccubus_fc1",1,0,2,4)
  ShowMessage("\\n<Melissa>Looks like we've interrupted your meal...")
  EndEventProcessing()
  0()



EVENT   92
 PAGE   1
  // condition: variable 1069 >= 3
  ShowMessageFace("",0,0,2,1)
  ShowMessage("\\n<Young Lady>Ufufu...")
  ShowMessageFace("",0,0,2,2)
  ShowMessage("\\n<Young Man>I-in this place... Aaah...")
  355("actor_label_jump")
  EndEventProcessing()
  DefineLabel("281")
  ShowMessageFace("succubuses_fc1",0,0,2,3)
  ShowMessage("\\n<Harem>Ara... Were you in the middle of feasting?")
  EndEventProcessing()
  DefineLabel("283")
  ShowMessageFace("maccubus_fc1",1,0,2,4)
  ShowMessage("\\n<Melissa>Looks like we've interrupted your meal...")
  EndEventProcessing()
  0()



EVENT   93
 PAGE   1
  // condition: variable 1069 >= 3
  ShowMessageFace("",0,0,2,1)
  ShowMessage("\\n<Guard>Whenever I have sex with my wife, I'm left feeling incredibly exhausted...\nI'm not even that old however, so I wonder why?")
  355("actor_label_jump")
  EndEventProcessing()
  DefineLabel("83")
  ShowMessageFace("hapy_a_fc1",0,0,2,2)
  ShowMessage("\\n<Reina>Work hard, and keep at it! ♪")
  EndEventProcessing()
  DefineLabel("285")
  ShowMessageFace("renccubus_fc1",1,0,2,3)
  ShowMessage("\\n<Nina>You're getting squeezed...")
  EndEventProcessing()
  0()



EVENT   94
 PAGE   1
  // condition: variable 1069 >= 3
  ShowMessageFace("",0,0,2,1)
  ShowMessage("\\n<Thug>I hear you're super tough.\nMarch on over to the Monster Lord's Castle immediately and defeat her!")
  355("actor_label_jump")
  EndEventProcessing()
  DefineLabel("45")
  ShowMessageFace("alicetromeria_fc1",4,0,2,2)
  ShowMessage("\\n<Alicetroemeria>Fufu, that would be interesting...")
  EndEventProcessing()
  0()



EVENT   95
 PAGE   1
  // condition: variable 1069 >= 3
  ShowMessageFace("",0,0,2,1)
  ShowMessage("\\n<Traveling Warrior>This village used to be quite peaceful...\nUntil this incident, it had never been attacked by monsters.")
  0()



EVENT   96
 PAGE   1
  // condition: variable 1069 >= 3
  ShowMessageFace("",0,0,2,1)
  ShowMessage("\\n<Officer>Thank you so much!\nYou are very strong, indeed!")
  0()



EVENT   97
 PAGE   1
  // condition: variable 1069 >= 3
  ShowMessageFace("",0,0,2,1)
  ShowMessage("\\n<Village Woman>Will the hero Heinrich overthrow Black Alice?\nOr perhaps you...")
  ShowMessageFace("",0,0,2,2)
  ShowMessage("\\n<Village Woman>Why don't you two join forces?\nIf two heroes worked together, they should be able to defeat the Monster Lord.")
  0()



EVENT   98
 PAGE   1
  // condition: variable 1069 >= 3
  ShowMessageFace("",0,0,2,1)
  ShowMessage("\\n<Middle-aged Man>Towns and villages everywhere have been under attack from the Monster Lord's forces. Even in this tranquil village, the peace has finally been broken.")
  ShowMessageFace("",0,0,2,2)
  ShowMessage("\\n<Middle-aged Man>Oh, is there no hero who can overthrow the evil Monster Lord? If that hero is Heinrich, then perhaps...")
  355("actor_label_jump")
  EndEventProcessing()
  DefineLabel("538")
  ShowMessageFace("heinrich_fc1",7,0,2,3)
  ShowMessage("\\n<Heinrich>I mustn't betray these people's expectations...")
  EndEventProcessing()
  0()



EVENT   99
 PAGE   1
  // condition: variable 1069 >= 3
  ShowMessageFace("",0,0,2,1)
  ShowMessage("\\n<Salesgirl>These are our village's specialties... Get a good taste of them! ♪")
  Shop(0,319,0,0,false)
  605(0,320,0,0)
  605(0,342,0,0)
  0()



EVENT   100
 PAGE   1
  If(1,1069,0,2,2)
   ShowMessageFace("",0,0,2,1)
   ShowMessage("\\n<Village Woman>A monster attack?! Th-thats...!")
   EndEventProcessing()
   0()
  EndIf()
  If(1,1069,0,3,1)
   ShowMessageFace("",0,0,2,2)
   ShowMessage("\\n<Village Woman>Black Alice is tyrannical...\nEven among monsters, there are many who are opposed to her.")
   355("actor_label_jump")
   EndEventProcessing()
   DefineLabel("45")
   ShowMessageFace("alicetromeria_fc1",4,0,2,3)
   ShowMessage("\\n<Alicetroemeria>Ufufu...")
   EndEventProcessing()
   0()
  EndIf()
  0()



EVENT   101
 PAGE   1
  If(1,1069,0,2,2)
   ShowMessageFace("",0,0,2,1)
   ShowMessage("\\n<Village Man>Monsters in the north side of town?!\nI'm not going there...")
   EndEventProcessing()
   0()
  EndIf()
  If(1,1069,0,3,1)
   ShowMessageFace("",0,0,2,2)
   ShowMessage("\\n<Village Man>This was a truly unthinkable disturbance.\nIt seems the peace of this village finally been broken.")
   EndEventProcessing()
   0()
  EndIf()
  0()



EVENT   102
 PAGE   1
  ShowMessageFace("",0,0,2,1)
  ShowMessage("\\n<Youth>It looks like the hero Heinrich will be arriving soon! It's unfortunate what's happening to the people living in the north side of town, but if you wait until he comes...")
  355("actor_label_jump")
  EndEventProcessing()
  DefineLabel("201")
  ShowMessageFace("ashel_fc1",0,0,2,2)
  ShowMessage("\\n<Ashel>I don't think we can afford to wait... Let's go!")
  EndEventProcessing()
  DefineLabel("204")
  ShowMessageFace("umiusi_k_fc1",0,0,2,3)
  ShowMessage("\\n<Stacy>I can't wait!\nWe need to rescue them right away!")
  EndEventProcessing()
  0()
 PAGE   2
  // condition: variable 1069 >= 3
  ShowMessageFace("",0,0,2,1)
  ShowMessage("\\n<Youth>The hero Heinrich appears to be staying at this inn.\nShould I get his autograph...?")
  355("actor_label_jump")
  EndEventProcessing()
  DefineLabel("45")
  ShowMessageFace("alicetromeria_fc1",0,0,2,2)
  ShowMessage("\\n<Alicetroemeria>Heinrich is very popular...")
  EndEventProcessing()
  DefineLabel("538")
  ShowMessageFace("heinrich_fc1",7,0,2,3)
  ShowMessage("\\n<Heinrich>I'm not very good at signing autographs...\nLet's hide for a bit.")
  EndEventProcessing()
  0()



EVENT   103
 PAGE   1
  If(1,1069,0,2,2)
   ShowMessageFace("",0,0,2,1)
   ShowMessage("\\n<Village Woman>Huh, there's monsters in the village?!\nWhat on earth is going on...?")
   EndEventProcessing()
   0()
  EndIf()
  If(1,1069,0,3,1)
   ShowMessageFace("",0,0,2,2)
   ShowMessage("\\n<Village Woman>Black Alice ignored her promise.\nThis village should've been neutral...")
   355("actor_label_jump")
   EndEventProcessing()
   DefineLabel("45")
   ShowMessageFace("alicetromeria_fc1",4,0,2,3)
   ShowMessage("\\n<Alicetroemeria>There are unexpected situations anywhere.\nStill, it was a mischievous thing to do...")
   EndEventProcessing()
   DefineLabel("341")
   ShowMessageFace("lilith_fc1",0,0,2,4)
   ShowMessage("\\n<Lilith & Lilim>We did not intend to have Black Alice's name frowned upon for our playful urges. Should we volunteer to come next time?")
   EndEventProcessing()
   0()
  EndIf()
  0()



EVENT   104
 PAGE   1
  // condition: variable 1069 >= 3
  ShowMessageFace("",0,0,2,1)
  ShowMessage("\\n<Young Lady>I wonder how strong you are?")
  ShowMessageFace("",0,0,2,2)
  ShowMessage("\\n<Traveling Warrior>I was just getting to know you... Aaaaahhh!!")
  ShowMessageFace("",0,0,2,3)
  ShowMessage("\\n<Young Lady>Fufu... You're no big deal.")
  0()



EVENT   105
 PAGE   1
  // condition: variable 1069 >= 3
  ShowMessageFace("",0,0,2,1)
  ShowMessage("\\n<Young Lady>I wonder how strong you are?")
  ShowMessageFace("",0,0,2,2)
  ShowMessage("\\n<Traveling Warrior>I was just getting to know you... Aaaaahhh!!")
  ShowMessageFace("",0,0,2,3)
  ShowMessage("\\n<Young Lady>Fufu... You're no big deal.")
  0()



EVENT   106
 PAGE   1
  If(1,1069,0,2,2)
   ShowMessageFace("",0,0,2,1)
   ShowMessage("\\n<Middle-aged Man>It doesn't look like they're coming to the south side of town... I'll be hiding here for a while.")
   EndEventProcessing()
   0()
  EndIf()
  If(1,1069,0,3,1)
   ShowMessageFace("",0,0,2,2)
   ShowMessage("\\n<Middle-aged Man>It doesn't look like they're coming back...\nI'll be hiding here for a while.")
   355("actor_label_jump")
   EndEventProcessing()
   DefineLabel("88")
   ShowMessageFace("jack_fc1",1,0,2,3)
   ShowMessage("\\n<Pumpkin>I'll play hide-and-seek too! ♪")
   EndEventProcessing()
   0()
  EndIf()
  0()



EVENT   107
 PAGE   1
  If(1,1069,0,2,2)
   ShowMessageFace("",0,0,2,1)
   ShowMessage("\\n<Man>Oi oi, this is the first time monsters have ever attacked this village!")
   EndEventProcessing()
   0()
  EndIf()
  If(1,1069,0,3,1)
   ShowMessageFace("",0,0,2,2)
   ShowMessage("\\n<Man>The hero Heinrich will defeat the Monster Lord.\nI'm certain he will make this world peaceful...")
   EndEventProcessing()
   0()
  EndIf()
  0()



EVENT   108
 PAGE   1
  // condition: variable 1069 >= 3
  ShowMessageFace("",0,0,2,1)
  ShowMessage("\\n<Village Man>Many heroes have challenged the Monster Lord, but none of them have returned... I wonder what will happen to this world.")
  0()



EVENT   109
 PAGE   1
  If(1,1069,0,2,2)
   ShowMessageFace("",0,0,2,1)
   ShowMessage("\\n<Old Man>What, a monster attack...?!\nAwawa, I can't stand...")
   EndEventProcessing()
   0()
  EndIf()
  If(1,1069,0,3,1)
   ShowMessageFace("",0,0,2,2)
   ShowMessage("\\n<Old Man>I was surprised to see a monster attack.\nI'm still unable to stand...")
   355("actor_label_jump")
   EndEventProcessing()
   DefineLabel("166")
   ShowMessageFace("narcubus_fc1",0,0,2,3)
   ShowMessage("\\n<Nabisu>Are you okay?")
   EndEventProcessing()
   DefineLabel("249")
   ShowMessageFace("ant_fc1",0,0,2,4)
   ShowMessage("\\n<Ants>CAN YOU STAND...?")
   EndEventProcessing()
   0()
  EndIf()
  0()



EVENT   110
 PAGE   1
  If(1,1069,0,2,2)
   ShowMessageFace("",0,0,2,1)
   ShowMessage("\\n<Village Woman>This has gotten serious...\nThe peace in this village will be destroyed...")
   EndEventProcessing()
   0()
  EndIf()
  If(1,1069,0,3,1)
   ShowMessageFace("",0,0,2,2)
   ShowMessage("\\n<Village Woman>Once again, I'm reminded we're living in an era of war.\nWe're fortunate that there wasn't a single victim this time.")
   EndEventProcessing()
   0()
  EndIf()
  0()



EVENT   111
 PAGE   1
  ShowMessageFace("",0,0,2,1)
  ShowMessage("\\n<Priest>Ilias' teachings aren't taking root in this village for some reason... Anyways, how can I help you?")
  ShowChoices(strings("Pray","Change party/jobs","Nothing"),3)
  IfPlayerPicksChoice(0,null)
   ChangeVariable(1002,1002,0,0,37)
   ShowMessageFace("",0,0,2,2)
   ShowMessage("\\n<Priest>Well then, let us pray to Ilias.\n...there, you should feel a bond drawing you to this place.")
   ShowMessageFace("",0,0,2,3)
   ShowMessage("\\n<Priest>If something were to happen to you on your journey, the bond should lead you back here. May Ilias watch over you...")
   0()
  IfPlayerPicksChoice(1,null)
   RunCommonEvent(113)
   EndEventProcessing()
   0()
  IfPlayerPicksChoice(2,null)
   ShowMessageFace("",0,0,2,4)
   ShowMessage("\\n<Priest>May Ilias watch over you...")
   0()
  404()
  0()



EVENT   112
 PAGE   1
  250(bytes(0x04,0x08,0x6f,0x3a,0x0c,0x52,0x50,0x47,0x3a,0x3a,0x53,0x45,0x08,0x3a,0x0a,0x40,0x6e,0x61,0x6d,0x65,0x49,0x22,0x0a,0x49,0x74,0x65,0x6d,0x31,0x06,0x3a,0x06,0x45,0x54,0x3a,0x0b,0x40,0x70,0x69,0x74,0x63,0x68,0x69,0x69,0x3a,0x0c,0x40,0x76,0x6f,0x6c,0x75,0x6d,0x65,0x69,0x55))
  ChangeSelfSwitch("A",0)
  ChangeInventory_Item(65,0,0,1)
  0()
 PAGE   2
  // condition: self-switch A is ON
  0()



EVENT   113
 PAGE   1
  250(bytes(0x04,0x08,0x6f,0x3a,0x0c,0x52,0x50,0x47,0x3a,0x3a,0x53,0x45,0x08,0x3a,0x0a,0x40,0x6e,0x61,0x6d,0x65,0x49,0x22,0x0a,0x49,0x74,0x65,0x6d,0x31,0x06,0x3a,0x06,0x45,0x54,0x3a,0x0b,0x40,0x70,0x69,0x74,0x63,0x68,0x69,0x69,0x3a,0x0c,0x40,0x76,0x6f,0x6c,0x75,0x6d,0x65,0x69,0x55))
  ChangeSelfSwitch("A",0)
  ChangeInventory_Item(69,0,0,1)
  0()
 PAGE   2
  // condition: self-switch A is ON
  0()



EVENT   114
 PAGE   1
  250(bytes(0x04,0x08,0x6f,0x3a,0x0c,0x52,0x50,0x47,0x3a,0x3a,0x53,0x45,0x08,0x3a,0x0a,0x40,0x6e,0x61,0x6d,0x65,0x49,0x22,0x0a,0x49,0x74,0x65,0x6d,0x31,0x06,0x3a,0x06,0x45,0x54,0x3a,0x0b,0x40,0x70,0x69,0x74,0x63,0x68,0x69,0x69,0x3a,0x0c,0x40,0x76,0x6f,0x6c,0x75,0x6d,0x65,0x69,0x55))
  ChangeSelfSwitch("A",0)
  ChangeInventory_Item(28,0,0,1)
  0()
 PAGE   2
  // condition: self-switch A is ON
  0()



EVENT   115
 PAGE   1
  250(bytes(0x04,0x08,0x6f,0x3a,0x0c,0x52,0x50,0x47,0x3a,0x3a,0x53,0x45,0x08,0x3a,0x0a,0x40,0x6e,0x61,0x6d,0x65,0x49,0x22,0x0a,0x49,0x74,0x65,0x6d,0x31,0x06,0x3a,0x06,0x45,0x54,0x3a,0x0b,0x40,0x70,0x69,0x74,0x63,0x68,0x69,0x69,0x3a,0x0c,0x40,0x76,0x6f,0x6c,0x75,0x6d,0x65,0x69,0x55))
  ChangeSelfSwitch("A",0)
  ChangeInventory_Item(2,0,0,1)
  0()
 PAGE   2
  // condition: self-switch A is ON
  0()



EVENT   116
 PAGE   1
  ShowMessageFace("",0,0,2,1)
  ShowMessage("\\n<Old Man's Tool Shop>You're a hero, right?\nI'll restore you with my items, so please do something!")
  250(bytes(0x04,0x08,0x6f,0x3a,0x0c,0x52,0x50,0x47,0x3a,0x3a,0x53,0x45,0x08,0x3a,0x0a,0x40,0x6e,0x61,0x6d,0x65,0x49,0x22,0x0a,0x48,0x65,0x61,0x6c,0x37,0x06,0x3a,0x06,0x45,0x54,0x3a,0x0b,0x40,0x70,0x69,0x74,0x63,0x68,0x69,0x69,0x3a,0x0c,0x40,0x76,0x6f,0x6c,0x75,0x6d,0x65,0x69,0x55))
  224(bytes(0x04,0x08,0x75,0x3a,0x0a,0x43,0x6f,0x6c,0x6f,0x72,0x25,0x00,0x00,0x00,0x00,0x00,0xe0,0x6f,0x40,0x00,0x00,0x00,0x00,0x00,0xe0,0x6f,0x40,0x00,0x00,0x00,0x00,0x00,0xe0,0x6f,0x40,0x00,0x00,0x00,0x00,0x00,0xe0,0x6f,0x40),30,true)
  314(0,0)
  ShowMessageFace("",0,0,2,2)
  ShowMessage("The party's HP and MP have been fully restored!")
  0()
 PAGE   2
  // condition: variable 1069 >= 3
  0()



EVENT   117
 PAGE   1
  // condition: variable 1069 >= 1
  241(bytes(0x04,0x08,0x6f,0x3a,0x0d,0x52,0x50,0x47,0x3a,0x3a,0x42,0x47,0x4d,0x08,0x3a,0x0a,0x40,0x6e,0x61,0x6d,0x65,0x49,0x22,0x0a,0x6b,0x69,0x6b,0x69,0x31,0x06,0x3a,0x06,0x45,0x54,0x3a,0x0c,0x40,0x76,0x6f,0x6c,0x75,0x6d,0x65,0x69,0x69,0x3a,0x0b,0x40,0x70,0x69,0x74,0x63,0x68,0x69,0x69))
  TemporaryRemoveEvent()
  0()
 PAGE   2
  // condition: variable 1069 >= 3
  241(bytes(0x04,0x08,0x6f,0x3a,0x0d,0x52,0x50,0x47,0x3a,0x3a,0x42,0x47,0x4d,0x08,0x3a,0x0a,0x40,0x6e,0x61,0x6d,0x65,0x49,0x22,0x0a,0x6b,0x69,0x6b,0x69,0x31,0x06,0x3a,0x06,0x45,0x54,0x3a,0x0c,0x40,0x76,0x6f,0x6c,0x75,0x6d,0x65,0x69,0x69,0x3a,0x0b,0x40,0x70,0x69,0x74,0x63,0x68,0x69,0x69))
  0()
