﻿


EVENT   1
 PAGE   1
  If(1,1063,0,0,0)
   If(0,2181,1)
    205(15,bytes(0x04,0x08,0x6f,0x3a,0x13,0x52,0x50,0x47,0x3a,0x3a,0x4d,0x6f,0x76,0x65,0x52,0x6f,0x75,0x74,0x65,0x09,0x3a,0x0c,0x40,0x72,0x65,0x70,0x65,0x61,0x74,0x46,0x3a,0x0f,0x40,0x73,0x6b,0x69,0x70,0x70,0x61,0x62,0x6c,0x65,0x46,0x3a,0x0a,0x40,0x77,0x61,0x69,0x74,0x54,0x3a,0x0a,0x40,0x6c,0x69,0x73,0x74,0x5b,0x07,0x6f,0x3a,0x15,0x52,0x50,0x47,0x3a,0x3a,0x4d,0x6f,0x76,0x65,0x43,0x6f,0x6d,0x6d,0x61,0x6e,0x64,0x07,0x3a,0x0a,0x40,0x63,0x6f,0x64,0x65,0x69,0x16,0x3a,0x10,0x40,0x70,0x61,0x72,0x61,0x6d,0x65,0x74,0x65,0x72,0x73,0x5b,0x00,0x6f,0x3b,0x0a,0x07,0x3b,0x0b,0x69,0x00,0x3b,0x0c,0x5b,0x00))
    ShowMessageFace("",0,0,2,1)
    ShowMessage("\\n<Shrine Maiden>...who's that? He's really suspicious!")
    205(-1,bytes(0x04,0x08,0x6f,0x3a,0x13,0x52,0x50,0x47,0x3a,0x3a,0x4d,0x6f,0x76,0x65,0x52,0x6f,0x75,0x74,0x65,0x09,0x3a,0x0c,0x40,0x72,0x65,0x70,0x65,0x61,0x74,0x46,0x3a,0x0f,0x40,0x73,0x6b,0x69,0x70,0x70,0x61,0x62,0x6c,0x65,0x46,0x3a,0x0a,0x40,0x77,0x61,0x69,0x74,0x54,0x3a,0x0a,0x40,0x6c,0x69,0x73,0x74,0x5b,0x07,0x6f,0x3a,0x15,0x52,0x50,0x47,0x3a,0x3a,0x4d,0x6f,0x76,0x65,0x43,0x6f,0x6d,0x6d,0x61,0x6e,0x64,0x07,0x3a,0x0a,0x40,0x63,0x6f,0x64,0x65,0x69,0x07,0x3a,0x10,0x40,0x70,0x61,0x72,0x61,0x6d,0x65,0x74,0x65,0x72,0x73,0x5b,0x00,0x6f,0x3b,0x0a,0x07,0x3b,0x0b,0x69,0x00,0x3b,0x0c,0x5b,0x00))
    EndEventProcessing()
    0()
   EndIf()
   0()
  EndIf()
  281(1)
  250(bytes(0x04,0x08,0x6f,0x3a,0x0c,0x52,0x50,0x47,0x3a,0x3a,0x53,0x45,0x08,0x3a,0x0a,0x40,0x6e,0x61,0x6d,0x65,0x49,0x22,0x09,0x4d,0x6f,0x76,0x65,0x06,0x3a,0x06,0x45,0x54,0x3a,0x0b,0x40,0x70,0x69,0x74,0x63,0x68,0x69,0x69,0x3a,0x0c,0x40,0x76,0x6f,0x6c,0x75,0x6d,0x65,0x69,0x55))
  TeleportPlayer(0,509,6,3,6,0)
  0()



EVENT   2
 PAGE   1
  If(1,1063,0,0,0)
   If(0,2181,1)
    205(15,bytes(0x04,0x08,0x6f,0x3a,0x13,0x52,0x50,0x47,0x3a,0x3a,0x4d,0x6f,0x76,0x65,0x52,0x6f,0x75,0x74,0x65,0x09,0x3a,0x0c,0x40,0x72,0x65,0x70,0x65,0x61,0x74,0x46,0x3a,0x0f,0x40,0x73,0x6b,0x69,0x70,0x70,0x61,0x62,0x6c,0x65,0x46,0x3a,0x0a,0x40,0x77,0x61,0x69,0x74,0x54,0x3a,0x0a,0x40,0x6c,0x69,0x73,0x74,0x5b,0x07,0x6f,0x3a,0x15,0x52,0x50,0x47,0x3a,0x3a,0x4d,0x6f,0x76,0x65,0x43,0x6f,0x6d,0x6d,0x61,0x6e,0x64,0x07,0x3a,0x0a,0x40,0x63,0x6f,0x64,0x65,0x69,0x16,0x3a,0x10,0x40,0x70,0x61,0x72,0x61,0x6d,0x65,0x74,0x65,0x72,0x73,0x5b,0x00,0x6f,0x3b,0x0a,0x07,0x3b,0x0b,0x69,0x00,0x3b,0x0c,0x5b,0x00))
    ShowMessageFace("",0,0,2,1)
    ShowMessage("\\n<Shrine Maiden>...who's that? He's really suspicious!")
    205(-1,bytes(0x04,0x08,0x6f,0x3a,0x13,0x52,0x50,0x47,0x3a,0x3a,0x4d,0x6f,0x76,0x65,0x52,0x6f,0x75,0x74,0x65,0x09,0x3a,0x0c,0x40,0x72,0x65,0x70,0x65,0x61,0x74,0x46,0x3a,0x0f,0x40,0x73,0x6b,0x69,0x70,0x70,0x61,0x62,0x6c,0x65,0x46,0x3a,0x0a,0x40,0x77,0x61,0x69,0x74,0x54,0x3a,0x0a,0x40,0x6c,0x69,0x73,0x74,0x5b,0x07,0x6f,0x3a,0x15,0x52,0x50,0x47,0x3a,0x3a,0x4d,0x6f,0x76,0x65,0x43,0x6f,0x6d,0x6d,0x61,0x6e,0x64,0x07,0x3a,0x0a,0x40,0x63,0x6f,0x64,0x65,0x69,0x07,0x3a,0x10,0x40,0x70,0x61,0x72,0x61,0x6d,0x65,0x74,0x65,0x72,0x73,0x5b,0x00,0x6f,0x3b,0x0a,0x07,0x3b,0x0b,0x69,0x00,0x3b,0x0c,0x5b,0x00))
    EndEventProcessing()
    0()
   EndIf()
   0()
  EndIf()
  281(1)
  250(bytes(0x04,0x08,0x6f,0x3a,0x0c,0x52,0x50,0x47,0x3a,0x3a,0x53,0x45,0x08,0x3a,0x0a,0x40,0x6e,0x61,0x6d,0x65,0x49,0x22,0x09,0x4d,0x6f,0x76,0x65,0x06,0x3a,0x06,0x45,0x54,0x3a,0x0b,0x40,0x70,0x69,0x74,0x63,0x68,0x69,0x69,0x3a,0x0c,0x40,0x76,0x6f,0x6c,0x75,0x6d,0x65,0x69,0x55))
  TeleportPlayer(0,509,6,3,6,0)
  0()

EVENT   4
 PAGE   1
  281(1)
  250(bytes(0x04,0x08,0x6f,0x3a,0x0c,0x52,0x50,0x47,0x3a,0x3a,0x53,0x45,0x08,0x3a,0x0a,0x40,0x6e,0x61,0x6d,0x65,0x49,0x22,0x09,0x4d,0x6f,0x76,0x65,0x06,0x3a,0x06,0x45,0x54,0x3a,0x0b,0x40,0x70,0x69,0x74,0x63,0x68,0x69,0x69,0x3a,0x0c,0x40,0x76,0x6f,0x6c,0x75,0x6d,0x65,0x69,0x55))
  TeleportPlayer(0,507,5,1,0,0)
  0()



EVENT   5
 PAGE   1
  ShowMessageFace("youko_fc1",2,0,2,1)
  ShowMessage("\\n<Futon>Oh Tamamo-sama, what on earth has happened with you...?")
  355("actor_label_jump")
  EndEventProcessing()
  DefineLabel("5")
  ShowMessageFace("alice_fc5",6,0,2,2)
  ShowMessage("\\n<Alice>What's with your name!?")
  EndEventProcessing()
  0()
 PAGE   2
  // condition: variable 1063 >= 13
  If(1,1217,0,2,1)
   If(1,1217,0,3,2)
    ShowMessageFace("youko_fc1",0,0,2,1)
    ShowMessage("\\n<ふとん>")
    ShowMessage("妲己……？")
    ShowMessage("あたし、見たことないよ。")
    EndEventProcessing()
    0()
   EndIf()
   0()
  EndIf()
  ShowMessageFace("youko_fc1",0,0,2,2)
  ShowMessage("\\n<Futon>Tamamo-sama is all better now. ♪")
  355("actor_label_jump")
  EndEventProcessing()
  DefineLabel("102")
  ShowMessageFace("youko_fc1",0,0,2,3)
  ShowMessage("\\n<Kitsu>Whoopie!")
  EndEventProcessing()
  DefineLabel("103")
  ShowMessageFace("kamuro_fc1",1,0,2,4)
  ShowMessage("\\n<Kamuro>That's a relief...♪")
  EndEventProcessing()
  0()



EVENT   6
 PAGE   1
  281(1)
  250(bytes(0x04,0x08,0x6f,0x3a,0x0c,0x52,0x50,0x47,0x3a,0x3a,0x53,0x45,0x08,0x3a,0x0a,0x40,0x6e,0x61,0x6d,0x65,0x49,0x22,0x09,0x4d,0x6f,0x76,0x65,0x06,0x3a,0x06,0x45,0x54,0x3a,0x0b,0x40,0x70,0x69,0x74,0x63,0x68,0x69,0x69,0x3a,0x0c,0x40,0x76,0x6f,0x6c,0x75,0x6d,0x65,0x69,0x55))
  TeleportPlayer(0,507,5,1,0,0)
  0()



EVENT   7
 PAGE   1
  281(1)
  250(bytes(0x04,0x08,0x6f,0x3a,0x0c,0x52,0x50,0x47,0x3a,0x3a,0x53,0x45,0x08,0x3a,0x0a,0x40,0x6e,0x61,0x6d,0x65,0x49,0x22,0x09,0x4d,0x6f,0x76,0x65,0x06,0x3a,0x06,0x45,0x54,0x3a,0x0b,0x40,0x70,0x69,0x74,0x63,0x68,0x69,0x69,0x3a,0x0c,0x40,0x76,0x6f,0x6c,0x75,0x6d,0x65,0x69,0x55))
  TeleportPlayer(0,507,6,1,0,0)
  0()



EVENT   8
 PAGE   1
  281(1)
  250(bytes(0x04,0x08,0x6f,0x3a,0x0c,0x52,0x50,0x47,0x3a,0x3a,0x53,0x45,0x08,0x3a,0x0a,0x40,0x6e,0x61,0x6d,0x65,0x49,0x22,0x09,0x4d,0x6f,0x76,0x65,0x06,0x3a,0x06,0x45,0x54,0x3a,0x0b,0x40,0x70,0x69,0x74,0x63,0x68,0x69,0x69,0x3a,0x0c,0x40,0x76,0x6f,0x6c,0x75,0x6d,0x65,0x69,0x55))
  TeleportPlayer(0,507,6,1,0,0)
  0()



EVENT   9
 PAGE   1
  ShowMessageFace("kunoitisanbi_fc1",0,0,2,1)
  ShowMessage("\\n<Three-tailed Kunoichi>We're Tamamo's bodyguards.")
  0()
 PAGE   2
  // condition: variable 1063 >= 13
  ShowMessageFace("",0,0,2,1)
  ShowMessage("\\n<Fox>Kwon!")
  0()



EVENT   10
 PAGE   1
  ShowMessageFace("mononohuyonbi_fc1",0,0,2,1)
  ShowMessage("\\n<Four-tailed Samurai>Hmm... Okay, you can pass.")
  0()
 PAGE   2
  // condition: variable 1063 >= 13
  ShowMessageFace("",0,0,2,1)
  ShowMessage("\\n<Fox>Kwon!")
  0()



EVENT   11
 PAGE   1
  217()
  PictureDisplay(5,"80_nero_st01b",0,0,0,0,100,100,0,0)
  PictureMove(5,null,0,0,0,0,100,100,255,0,30,true)
  ShowMessageFace("nero_fc1",0,0,2,1)
  ShowMessage("\\n<Nero>Oh hi, fancy seeing you here.\nThis coincidental meeting is quite unexpected.")
  If(0,4,0)
   ShowMessageFace("alice_fc5",5,0,2,2)
   ShowMessage("\\n<Alice>Those foxes sure are fond of you...\nDid you do something?")
   0()
  EndIf()
  If(0,5,0)
   ShowMessageFace("iriasu_fc4",2,0,2,3)
   ShowMessage("\\n<Ilias>Those foxes are rather fond of you for some reason... Did you do something?")
   0()
  EndIf()
  ShowMessageFace("nero_fc1",0,0,2,4)
  ShowMessage("\\n<Nero>No... It's probably because of the environment in which I was raised. Anyway, so how's your journey going?")
  ShowMessageFace("nero_fc1",0,0,2,5)
  ShowMessage("\\n<Nero>I can't explain much to you, but I'm sure you've seen many strange things so far.")
  ShowChoices(strings("What do you know?","Who are you?","You're one of the strange things."),0)
  IfPlayerPicksChoice(0,null)
   ShowMessageFace("nero_fc1",0,0,2,6)
   ShowMessage("\\n<Nero>What I know is full of things I shouldn't explain. You're going to have to learn and see with your own eyes.")
   0()
  IfPlayerPicksChoice(1,null)
   ShowMessageFace("nero_fc1",0,0,2,7)
   ShowMessage("\\n<Nero>I am nothing more than a passing traveler.")
   0()
  IfPlayerPicksChoice(2,null)
   ShowMessageFace("nero_fc1",2,0,2,8)
   ShowMessage("\\n<Nero>R-really? I apologize.")
   0()
  404()
  PictureClear(5)
  Wait(60)
  241(bytes(0x04,0x08,0x6f,0x3a,0x0d,0x52,0x50,0x47,0x3a,0x3a,0x42,0x47,0x4d,0x08,0x3a,0x0a,0x40,0x6e,0x61,0x6d,0x65,0x49,0x22,0x10,0x73,0x63,0x65,0x6e,0x65,0x5f,0x63,0x6f,0x6d,0x69,0x31,0x06,0x3a,0x06,0x45,0x54,0x3a,0x0c,0x40,0x76,0x6f,0x6c,0x75,0x6d,0x65,0x69,0x69,0x3a,0x0b,0x40,0x70,0x69,0x74,0x63,0x68,0x69,0x69))
  ChangeSwitch(31,31,0)
  205(17,bytes(0x04,0x08,0x6f,0x3a,0x13,0x52,0x50,0x47,0x3a,0x3a,0x4d,0x6f,0x76,0x65,0x52,0x6f,0x75,0x74,0x65,0x09,0x3a,0x0c,0x40,0x72,0x65,0x70,0x65,0x61,0x74,0x46,0x3a,0x0f,0x40,0x73,0x6b,0x69,0x70,0x70,0x61,0x62,0x6c,0x65,0x46,0x3a,0x0a,0x40,0x77,0x61,0x69,0x74,0x46,0x3a,0x0a,0x40,0x6c,0x69,0x73,0x74,0x5b,0x09,0x6f,0x3a,0x15,0x52,0x50,0x47,0x3a,0x3a,0x4d,0x6f,0x76,0x65,0x43,0x6f,0x6d,0x6d,0x61,0x6e,0x64,0x07,0x3a,0x0a,0x40,0x63,0x6f,0x64,0x65,0x69,0x06,0x3a,0x10,0x40,0x70,0x61,0x72,0x61,0x6d,0x65,0x74,0x65,0x72,0x73,0x5b,0x00,0x6f,0x3b,0x0a,0x07,0x3b,0x0b,0x69,0x06,0x3b,0x0c,0x5b,0x00,0x6f,0x3b,0x0a,0x07,0x3b,0x0b,0x69,0x06,0x3b,0x0c,0x5b,0x00,0x6f,0x3b,0x0a,0x07,0x3b,0x0b,0x69,0x00,0x3b,0x0c,0x5b,0x00))
  205(18,bytes(0x04,0x08,0x6f,0x3a,0x13,0x52,0x50,0x47,0x3a,0x3a,0x4d,0x6f,0x76,0x65,0x52,0x6f,0x75,0x74,0x65,0x09,0x3a,0x0c,0x40,0x72,0x65,0x70,0x65,0x61,0x74,0x46,0x3a,0x0f,0x40,0x73,0x6b,0x69,0x70,0x70,0x61,0x62,0x6c,0x65,0x46,0x3a,0x0a,0x40,0x77,0x61,0x69,0x74,0x54,0x3a,0x0a,0x40,0x6c,0x69,0x73,0x74,0x5b,0x09,0x6f,0x3a,0x15,0x52,0x50,0x47,0x3a,0x3a,0x4d,0x6f,0x76,0x65,0x43,0x6f,0x6d,0x6d,0x61,0x6e,0x64,0x07,0x3a,0x0a,0x40,0x63,0x6f,0x64,0x65,0x69,0x07,0x3a,0x10,0x40,0x70,0x61,0x72,0x61,0x6d,0x65,0x74,0x65,0x72,0x73,0x5b,0x00,0x6f,0x3b,0x0a,0x07,0x3b,0x0b,0x69,0x07,0x3b,0x0c,0x5b,0x00,0x6f,0x3b,0x0a,0x07,0x3b,0x0b,0x69,0x07,0x3b,0x0c,0x5b,0x00,0x6f,0x3b,0x0a,0x07,0x3b,0x0b,0x69,0x00,0x3b,0x0c,0x5b,0x00))
  ShowMessageFace("ruka_fc1",0,0,2,9)
  ShowMessage("\\n<Luka>There sure are a lot of foxes...")
  ShowMessageFace("nero_fc1",0,0,2,10)
  ShowMessage("\\n<Nero>Oh, don't worry about them...")
  If(0,6,0)
   ShowMessageFace("sonia_fc2",2,0,2,11)
   ShowMessage("\\n<Sonya>By the way, the White Rabbit stole your glasses, right? She gave them to us for some reason.")
   0()
  Else()
   ShowMessageFace("ruka_fc1",0,0,2,12)
   ShowMessage("\\n<Luka>By the way, the White Rabbit stole your glasses, right? She gave them to us for some reason.")
   0()
  EndIf()
  ShowMessageFace("nero_fc1",0,0,2,13)
  ShowMessage("\\n<Nero>Indeed, that was an embarrassing defeat for me. I shall not repeat that blunder again.")
  ShowMessageFace("nero_fc1",1,0,2,14)
  ShowMessage("\\n<Nero>The glasses I'm wearing now are my mega glasses. They're 1000 times stronger than the old ones.")
  If(4,41,0)
   ShowMessageFace("stein_fc2",1,0,2,15)
   ShowMessage("\\n<Promestein>If those get stolen, will the next pair be giga glasses?")
   0()
  EndIf()
  ChangeSwitch(32,32,0)
  205(19,bytes(0x04,0x08,0x6f,0x3a,0x13,0x52,0x50,0x47,0x3a,0x3a,0x4d,0x6f,0x76,0x65,0x52,0x6f,0x75,0x74,0x65,0x09,0x3a,0x0c,0x40,0x72,0x65,0x70,0x65,0x61,0x74,0x46,0x3a,0x0f,0x40,0x73,0x6b,0x69,0x70,0x70,0x61,0x62,0x6c,0x65,0x46,0x3a,0x0a,0x40,0x77,0x61,0x69,0x74,0x46,0x3a,0x0a,0x40,0x6c,0x69,0x73,0x74,0x5b,0x09,0x6f,0x3a,0x15,0x52,0x50,0x47,0x3a,0x3a,0x4d,0x6f,0x76,0x65,0x43,0x6f,0x6d,0x6d,0x61,0x6e,0x64,0x07,0x3a,0x0a,0x40,0x63,0x6f,0x64,0x65,0x69,0x06,0x3a,0x10,0x40,0x70,0x61,0x72,0x61,0x6d,0x65,0x74,0x65,0x72,0x73,0x5b,0x00,0x6f,0x3b,0x0a,0x07,0x3b,0x0b,0x69,0x06,0x3b,0x0c,0x5b,0x00,0x6f,0x3b,0x0a,0x07,0x3b,0x0b,0x69,0x06,0x3b,0x0c,0x5b,0x00,0x6f,0x3b,0x0a,0x07,0x3b,0x0b,0x69,0x00,0x3b,0x0c,0x5b,0x00))
  205(20,bytes(0x04,0x08,0x6f,0x3a,0x13,0x52,0x50,0x47,0x3a,0x3a,0x4d,0x6f,0x76,0x65,0x52,0x6f,0x75,0x74,0x65,0x09,0x3a,0x0c,0x40,0x72,0x65,0x70,0x65,0x61,0x74,0x46,0x3a,0x0f,0x40,0x73,0x6b,0x69,0x70,0x70,0x61,0x62,0x6c,0x65,0x46,0x3a,0x0a,0x40,0x77,0x61,0x69,0x74,0x54,0x3a,0x0a,0x40,0x6c,0x69,0x73,0x74,0x5b,0x0a,0x6f,0x3a,0x15,0x52,0x50,0x47,0x3a,0x3a,0x4d,0x6f,0x76,0x65,0x43,0x6f,0x6d,0x6d,0x61,0x6e,0x64,0x07,0x3a,0x0a,0x40,0x63,0x6f,0x64,0x65,0x69,0x09,0x3a,0x10,0x40,0x70,0x61,0x72,0x61,0x6d,0x65,0x74,0x65,0x72,0x73,0x5b,0x00,0x6f,0x3b,0x0a,0x07,0x3b,0x0b,0x69,0x09,0x3b,0x0c,0x5b,0x00,0x6f,0x3b,0x0a,0x07,0x3b,0x0b,0x69,0x09,0x3b,0x0c,0x5b,0x00,0x6f,0x3b,0x0a,0x07,0x3b,0x0b,0x69,0x09,0x3b,0x0c,0x5b,0x00,0x6f,0x3b,0x0a,0x07,0x3b,0x0b,0x69,0x00,0x3b,0x0c,0x5b,0x00))
  If(0,6,0)
   ShowMessageFace("sonia_fc2",2,0,2,16)
   ShowMessage("\\n<Sonya>Here come more foxes...")
   0()
  Else()
   ShowMessageFace("ruka_fc1",0,0,2,17)
   ShowMessage("\\n<Luka>Here come more foxes...")
   0()
  EndIf()
  ShowMessageFace("nero_fc1",0,0,2,18)
  ShowMessage("\\n<Nero>Foxes do have lots of friends. In any case, the things you've seen in other worlds--")
  ChangeSwitch(33,33,0)
  205(16,bytes(0x04,0x08,0x6f,0x3a,0x13,0x52,0x50,0x47,0x3a,0x3a,0x4d,0x6f,0x76,0x65,0x52,0x6f,0x75,0x74,0x65,0x09,0x3a,0x0c,0x40,0x72,0x65,0x70,0x65,0x61,0x74,0x46,0x3a,0x0f,0x40,0x73,0x6b,0x69,0x70,0x70,0x61,0x62,0x6c,0x65,0x46,0x3a,0x0a,0x40,0x77,0x61,0x69,0x74,0x46,0x3a,0x0a,0x40,0x6c,0x69,0x73,0x74,0x5b,0x09,0x6f,0x3a,0x15,0x52,0x50,0x47,0x3a,0x3a,0x4d,0x6f,0x76,0x65,0x43,0x6f,0x6d,0x6d,0x61,0x6e,0x64,0x07,0x3a,0x0a,0x40,0x63,0x6f,0x64,0x65,0x69,0x09,0x3a,0x10,0x40,0x70,0x61,0x72,0x61,0x6d,0x65,0x74,0x65,0x72,0x73,0x5b,0x00,0x6f,0x3b,0x0a,0x07,0x3b,0x0b,0x69,0x09,0x3b,0x0c,0x5b,0x00,0x6f,0x3b,0x0a,0x07,0x3b,0x0b,0x69,0x09,0x3b,0x0c,0x5b,0x00,0x6f,0x3b,0x0a,0x07,0x3b,0x0b,0x69,0x00,0x3b,0x0c,0x5b,0x00))
  205(21,bytes(0x04,0x08,0x6f,0x3a,0x13,0x52,0x50,0x47,0x3a,0x3a,0x4d,0x6f,0x76,0x65,0x52,0x6f,0x75,0x74,0x65,0x09,0x3a,0x0c,0x40,0x72,0x65,0x70,0x65,0x61,0x74,0x46,0x3a,0x0f,0x40,0x73,0x6b,0x69,0x70,0x70,0x61,0x62,0x6c,0x65,0x46,0x3a,0x0a,0x40,0x77,0x61,0x69,0x74,0x54,0x3a,0x0a,0x40,0x6c,0x69,0x73,0x74,0x5b,0x09,0x6f,0x3a,0x15,0x52,0x50,0x47,0x3a,0x3a,0x4d,0x6f,0x76,0x65,0x43,0x6f,0x6d,0x6d,0x61,0x6e,0x64,0x07,0x3a,0x0a,0x40,0x63,0x6f,0x64,0x65,0x69,0x08,0x3a,0x10,0x40,0x70,0x61,0x72,0x61,0x6d,0x65,0x74,0x65,0x72,0x73,0x5b,0x00,0x6f,0x3b,0x0a,0x07,0x3b,0x0b,0x69,0x08,0x3b,0x0c,0x5b,0x00,0x6f,0x3b,0x0a,0x07,0x3b,0x0b,0x69,0x08,0x3b,0x0c,0x5b,0x00,0x6f,0x3b,0x0a,0x07,0x3b,0x0b,0x69,0x00,0x3b,0x0c,0x5b,0x00))
  If(0,4,0)
   ShowMessageFace("alice_fc5",6,0,2,19)
   ShowMessage("\\n<Alice>What the hell is going on!?")
   0()
  EndIf()
  If(0,5,0)
   ShowMessageFace("iriasu_fc4",5,0,2,20)
   ShowMessage("\\n<Ilias>Hey! What is this nonsense!?")
   0()
  EndIf()
  ShowMessageFace("nero_fc1",2,0,2,21)
  ShowMessage("\\n<Nero>Do not concern yourselves...\nWhy I'm so liked by foxes is quite the quandary, though.")
  ShowMessageFace("nero_fc1",2,0,2,22)
  ShowMessage("\\n<Nero>Aaah, fox fur is getting all in my clothes. I can't get them off me...")
  ChangeSwitch(34,34,0)
  205(22,bytes(0x04,0x08,0x6f,0x3a,0x13,0x52,0x50,0x47,0x3a,0x3a,0x4d,0x6f,0x76,0x65,0x52,0x6f,0x75,0x74,0x65,0x09,0x3a,0x0c,0x40,0x72,0x65,0x70,0x65,0x61,0x74,0x46,0x3a,0x0f,0x40,0x73,0x6b,0x69,0x70,0x70,0x61,0x62,0x6c,0x65,0x46,0x3a,0x0a,0x40,0x77,0x61,0x69,0x74,0x46,0x3a,0x0a,0x40,0x6c,0x69,0x73,0x74,0x5b,0x09,0x6f,0x3a,0x15,0x52,0x50,0x47,0x3a,0x3a,0x4d,0x6f,0x76,0x65,0x43,0x6f,0x6d,0x6d,0x61,0x6e,0x64,0x07,0x3a,0x0a,0x40,0x63,0x6f,0x64,0x65,0x69,0x07,0x3a,0x10,0x40,0x70,0x61,0x72,0x61,0x6d,0x65,0x74,0x65,0x72,0x73,0x5b,0x00,0x6f,0x3b,0x0a,0x07,0x3b,0x0b,0x69,0x07,0x3b,0x0c,0x5b,0x00,0x6f,0x3b,0x0a,0x07,0x3b,0x0b,0x69,0x07,0x3b,0x0c,0x5b,0x00,0x6f,0x3b,0x0a,0x07,0x3b,0x0b,0x69,0x00,0x3b,0x0c,0x5b,0x00))
  205(23,bytes(0x04,0x08,0x6f,0x3a,0x13,0x52,0x50,0x47,0x3a,0x3a,0x4d,0x6f,0x76,0x65,0x52,0x6f,0x75,0x74,0x65,0x09,0x3a,0x0c,0x40,0x72,0x65,0x70,0x65,0x61,0x74,0x46,0x3a,0x0f,0x40,0x73,0x6b,0x69,0x70,0x70,0x61,0x62,0x6c,0x65,0x46,0x3a,0x0a,0x40,0x77,0x61,0x69,0x74,0x54,0x3a,0x0a,0x40,0x6c,0x69,0x73,0x74,0x5b,0x09,0x6f,0x3a,0x15,0x52,0x50,0x47,0x3a,0x3a,0x4d,0x6f,0x76,0x65,0x43,0x6f,0x6d,0x6d,0x61,0x6e,0x64,0x07,0x3a,0x0a,0x40,0x63,0x6f,0x64,0x65,0x69,0x08,0x3a,0x10,0x40,0x70,0x61,0x72,0x61,0x6d,0x65,0x74,0x65,0x72,0x73,0x5b,0x00,0x6f,0x3b,0x0a,0x07,0x3b,0x0b,0x69,0x08,0x3b,0x0c,0x5b,0x00,0x6f,0x3b,0x0a,0x07,0x3b,0x0b,0x69,0x08,0x3b,0x0c,0x5b,0x00,0x6f,0x3b,0x0a,0x07,0x3b,0x0b,0x69,0x00,0x3b,0x0c,0x5b,0x00))
  ShowMessageFace("ruka_fc1",0,0,2,23)
  ShowMessage("\\n<Luka>............")
  ShowMessageFace("nero_fc1",2,0,2,24)
  ShowMessage("\\n<Nero>I must apologize. I appear to have selected a poor meeting location.\nGah, stop it! That charm isn't fox food!")
  ChangeSwitch(35,35,0)
  205(24,bytes(0x04,0x08,0x6f,0x3a,0x13,0x52,0x50,0x47,0x3a,0x3a,0x4d,0x6f,0x76,0x65,0x52,0x6f,0x75,0x74,0x65,0x09,0x3a,0x0c,0x40,0x72,0x65,0x70,0x65,0x61,0x74,0x46,0x3a,0x0f,0x40,0x73,0x6b,0x69,0x70,0x70,0x61,0x62,0x6c,0x65,0x46,0x3a,0x0a,0x40,0x77,0x61,0x69,0x74,0x46,0x3a,0x0a,0x40,0x6c,0x69,0x73,0x74,0x5b,0x09,0x6f,0x3a,0x15,0x52,0x50,0x47,0x3a,0x3a,0x4d,0x6f,0x76,0x65,0x43,0x6f,0x6d,0x6d,0x61,0x6e,0x64,0x07,0x3a,0x0a,0x40,0x63,0x6f,0x64,0x65,0x69,0x07,0x3a,0x10,0x40,0x70,0x61,0x72,0x61,0x6d,0x65,0x74,0x65,0x72,0x73,0x5b,0x00,0x6f,0x3b,0x0a,0x07,0x3b,0x0b,0x69,0x07,0x3b,0x0c,0x5b,0x00,0x6f,0x3b,0x0a,0x07,0x3b,0x0b,0x69,0x07,0x3b,0x0c,0x5b,0x00,0x6f,0x3b,0x0a,0x07,0x3b,0x0b,0x69,0x00,0x3b,0x0c,0x5b,0x00))
  205(25,bytes(0x04,0x08,0x6f,0x3a,0x13,0x52,0x50,0x47,0x3a,0x3a,0x4d,0x6f,0x76,0x65,0x52,0x6f,0x75,0x74,0x65,0x09,0x3a,0x0c,0x40,0x72,0x65,0x70,0x65,0x61,0x74,0x46,0x3a,0x0f,0x40,0x73,0x6b,0x69,0x70,0x70,0x61,0x62,0x6c,0x65,0x46,0x3a,0x0a,0x40,0x77,0x61,0x69,0x74,0x54,0x3a,0x0a,0x40,0x6c,0x69,0x73,0x74,0x5b,0x09,0x6f,0x3a,0x15,0x52,0x50,0x47,0x3a,0x3a,0x4d,0x6f,0x76,0x65,0x43,0x6f,0x6d,0x6d,0x61,0x6e,0x64,0x07,0x3a,0x0a,0x40,0x63,0x6f,0x64,0x65,0x69,0x08,0x3a,0x10,0x40,0x70,0x61,0x72,0x61,0x6d,0x65,0x74,0x65,0x72,0x73,0x5b,0x00,0x6f,0x3b,0x0a,0x07,0x3b,0x0b,0x69,0x08,0x3b,0x0c,0x5b,0x00,0x6f,0x3b,0x0a,0x07,0x3b,0x0b,0x69,0x08,0x3b,0x0c,0x5b,0x00,0x6f,0x3b,0x0a,0x07,0x3b,0x0b,0x69,0x00,0x3b,0x0c,0x5b,0x00))
  ShowMessageFace("nero_fc1",2,0,2,25)
  ShowMessage("\\n<Nero>I shall take my leave for today. Until our next fortuitous encounter.")
  221()
  ShowMessageFace("",0,0,2,26)
  ShowMessage("Nero leaves...")
  250(bytes(0x04,0x08,0x6f,0x3a,0x0c,0x52,0x50,0x47,0x3a,0x3a,0x53,0x45,0x08,0x3a,0x0a,0x40,0x6e,0x61,0x6d,0x65,0x49,0x22,0x0a,0x49,0x74,0x65,0x6d,0x31,0x06,0x3a,0x06,0x45,0x54,0x3a,0x0b,0x40,0x70,0x69,0x74,0x63,0x68,0x69,0x69,0x3a,0x0c,0x40,0x76,0x6f,0x6c,0x75,0x6d,0x65,0x69,0x55))
  ChangeInventory_Item(209,0,0,5)
  Wait(60)
  ChangeSwitch(31,31,1)
  ChangeSwitch(32,32,1)
  ChangeSwitch(33,33,1)
  ChangeSwitch(34,34,1)
  ChangeSwitch(35,35,1)
  ChangeSwitch(2181,2181,0)
  222()
  241(bytes(0x04,0x08,0x6f,0x3a,0x0d,0x52,0x50,0x47,0x3a,0x3a,0x42,0x47,0x4d,0x08,0x3a,0x0a,0x40,0x6e,0x61,0x6d,0x65,0x49,0x22,0x0a,0x6d,0x75,0x72,0x61,0x37,0x06,0x3a,0x06,0x45,0x54,0x3a,0x0c,0x40,0x76,0x6f,0x6c,0x75,0x6d,0x65,0x69,0x69,0x3a,0x0b,0x40,0x70,0x69,0x74,0x63,0x68,0x69,0x69))
  If(0,4,0)
   ShowMessageFace("alice_fc5",5,0,2,27)
   ShowMessage("\\n<Alice>That guy was as worthless as ever...")
   0()
  EndIf()
  If(0,5,0)
   ShowMessageFace("iriasu_fc4",2,0,2,28)
   ShowMessage("\\n<Ilias>What in the world just happened...")
   0()
  EndIf()
  0()
 PAGE   2
  // condition: switch 2181 is ON
  0()
 PAGE   3
  // condition: variable 1063 >= 1
  0()



EVENT   12
 PAGE   1
  ShowMessageFace("",0,0,2,1)
  ShowMessage("\\n<Fox>............")
  ShowMessageFace("nero_fc1",0,0,2,2)
  ShowMessage("\\n<Nero>............")
  ShowMessageFace("ruka_fc1",0,0,2,3)
  ShowMessage("\\n<Luka>(These foxes are awfully fond of him for some reason...)")
  0()
 PAGE   2
  // condition: switch 2181 is ON
  0()
 PAGE   3
  // condition: variable 1063 >= 1
  0()



EVENT   13
 PAGE   1
  ShowMessageFace("",0,0,2,1)
  ShowMessage("\\n<Fox>............")
  ShowMessageFace("nero_fc1",0,0,2,2)
  ShowMessage("\\n<Nero>............")
  ShowMessageFace("ruka_fc1",0,0,2,3)
  ShowMessage("\\n<Luka>(These foxes are awfully fond of him for some reason...)")
  0()
 PAGE   2
  // condition: switch 2181 is ON
  0()
 PAGE   3
  // condition: variable 1063 >= 1
  0()



EVENT   14
 PAGE   1
  ShowMessageFace("",0,0,2,1)
  ShowMessage("\\n<Fox>............")
  ShowMessageFace("nero_fc1",0,0,2,2)
  ShowMessage("\\n<Nero>............")
  ShowMessageFace("ruka_fc1",0,0,2,3)
  ShowMessage("\\n<Luka>(These foxes are awfully fond of him for some reason...)")
  0()
 PAGE   2
  // condition: switch 2181 is ON
  0()
 PAGE   3
  // condition: variable 1063 >= 1
  0()



EVENT   15
 PAGE   1
  If(1,1217,0,2,1)
   If(1,1217,0,3,2)
    ShowMessageFace("",0,0,2,1)
    ShowMessage("\\n<巫女>")
    ShowMessage("妲己という方が、この神社に潜んでおられるとか。")
    ShowMessage("この建物の中におられないのは確かです。")
    EndEventProcessing()
    0()
   EndIf()
   0()
  EndIf()
  If(1,1063,0,12,2)
   ShowMessageFace("",0,0,2,2)
   ShowMessage("\\n<Shrine Maiden>The Kitsune Goddess resides in this building.")
   EndEventProcessing()
   0()
  EndIf()
  If(1,1063,0,13,1)
   ShowMessageFace("",0,0,2,3)
   ShowMessage("\\n<Shrine Maiden>The Kitsune Goddess is not in the building. Where in the world did she get off to...")
   EndEventProcessing()
   0()
  EndIf()
  0()



EVENT   16
 PAGE   1
  // condition: switch 33 is ON
  0()



EVENT   17
 PAGE   1
  // condition: switch 31 is ON
  0()



EVENT   18
 PAGE   1
  // condition: switch 31 is ON
  0()



EVENT   19
 PAGE   1
  // condition: switch 32 is ON
  0()



EVENT   20
 PAGE   1
  // condition: switch 32 is ON
  0()



EVENT   21
 PAGE   1
  // condition: switch 33 is ON
  0()



EVENT   22
 PAGE   1
  // condition: switch 34 is ON
  0()



EVENT   23
 PAGE   1
  // condition: switch 34 is ON
  0()



EVENT   24
 PAGE   1
  // condition: switch 35 is ON
  0()



EVENT   25
 PAGE   1
  // condition: switch 35 is ON
  0()



EVENT   26
 PAGE   1
  // condition: switch 2181 is ON
  ShowMessageFace("",0,0,2,1)
  ShowMessage("\\n<Fox>Kwon...")
  0()



EVENT   27
 PAGE   1
  // condition: switch 2181 is ON
  ShowMessageFace("",0,0,2,1)
  ShowMessage("\\n<Fox>Kwon!")
  0()



EVENT   3
 PAGE   1
  // condition: variable 1217 >= 2
  ChangeSwitch(2926,2926,0)
  ShowMessageFace("kazuya_fc1",0,0,2,1)
  ShowMessage("\\n<Kazuya>")
  ShowMessage("ここが狐神社か。")
  ShowMessage("妲己が目撃されたって話だけど……")
  If(0,4,0)
   ShowMessageFace("alice_fc5",0,0,2,2)
   ShowMessage("\\n<Alice>")
   ShowMessage("今は見当たらんようだな。")
   ShowMessage("周囲の者に、聞き込んでみるとしよう。")
   0()
  EndIf()
  If(0,5,0)
   ShowMessageFace("iriasu_fc4",7,0,2,3)
   ShowMessage("\\n<Ilias>")
   ShowMessage("今は見当たらないようですね。")
   ShowMessage("周囲の者から、情報を集めましょう。")
   0()
  EndIf()
  EndEventProcessing()
  0()
 PAGE   2
  // condition: switch 2926 is ON
  0()



EVENT   28
 PAGE   1
  // condition: variable 1217 >= 2
  If(1,1217,0,2,0)
   ChangeVariable(1217,1217,0,0,3)
   ShowMessageFace("youkosan_fc1",0,0,2,1)
   ShowMessage("\\n<妖狐>")
   ShowMessage("この神社はいいね～。")
   ShowMessage("ゴロゴロしてるだけで、エサがもらえるんだよ。")
   ShowMessageFace("byakunen_fc3",0,0,2,2)
   ShowMessage("\\n<Hakunen>")
   ShowMessage("まほろば山のお狐さんではないですか。")
   ShowMessage("こんなところにまで、生活圏を広げているとは……")
   If(0,1814,0)
    ShowMessageFace("daimeikai_fc1",1,0,2,3)
    ShowMessage("\\n<Daimyokai>")
    ShowMessage("さすが、害獣だな……")
    ShowMessage("この世界にまで繁殖しまくるんじゃないか？")
    0()
   EndIf()
   If(0,4,0)
    ShowMessageFace("alice_fc5",2,0,2,4)
    ShowMessage("\\n<Alice>")
    ShowMessage("ところで、妲己を見なかったか？")
    ShowMessage("紫色で九尾の狐なのだが。")
    0()
   EndIf()
   If(0,5,0)
    ShowMessageFace("iriasu_fc4",2,0,2,5)
    ShowMessage("\\n<Ilias>")
    ShowMessage("ところで、妲己を見ませんでしたか？")
    ShowMessage("紫色で九尾の狐なのですが。")
    0()
   EndIf()
   ShowMessageFace("youkosan_fc1",0,0,2,6)
   ShowMessage("\\n<妖狐>")
   ShowMessage("それなら、さっき見たよ。")
   ShowMessage("今もこの辺にいるんじゃないかな？")
   If(0,4,0)
    ShowMessageFace("alice_fc5",6,0,2,7)
    ShowMessage("\\n<Alice>")
    ShowMessage("なんだと！？　どこだ……！？")
    0()
   EndIf()
   If(0,5,0)
    ShowMessageFace("iriasu_fc4",5,0,2,8)
    ShowMessage("\\n<Ilias>")
    ShowMessage("なんですって！？　いったい、どこに……？")
    0()
   EndIf()
   ShowMessageFace("",0,0,2,9)
   ShowMessage("僕達は、慌てて周囲を見回したが――")
   ShowMessage("妲己の姿はどこにも見当たらない。")
   ShowMessageFace("youkosan_fc1",2,0,2,10)
   ShowMessage("\\n<妖狐>")
   ShowMessage("あれれ……さっきまでいたんだけどなぁ。")
   ShowMessageFace("kazuya_fc2",2,0,2,11)
   ShowMessage("\\n<Kazuya>")
   ShowMessage("きっと、何かに化けてるんだ。")
   ShowMessage("怪しいものがないか、周囲を捜そう！")
   EndEventProcessing()
   0()
  EndIf()
  If(1,1217,0,3,0)
   ShowMessageFace("youkosan_fc1",2,0,2,12)
   ShowMessage("\\n<妖狐>")
   ShowMessage("あれれ……さっきまでいたんだけどなぁ。")
   ShowMessageFace("kazuya_fc2",2,0,2,13)
   ShowMessage("\\n<Kazuya>")
   ShowMessage("きっと、何かに化けてるんだ。")
   ShowMessage("怪しいものがないか、周囲を捜そう！")
   EndEventProcessing()
   0()
  EndIf()
  If(1,1217,0,4,1)
   ShowMessageFace("youkosan_fc1",0,0,2,14)
   ShowMessage("\\n<妖狐>")
   ShowMessage("この神社はいいね～。")
   ShowMessage("ゴロゴロしてるだけで、エサがもらえるんだよ。")
   EndEventProcessing()
   0()
  EndIf()
  0()



EVENT   29
 PAGE   1
  // condition: variable 1217 >= 3
  If(6,-1,2)
   241(bytes(0x04,0x08,0x6f,0x3a,0x0d,0x52,0x50,0x47,0x3a,0x3a,0x42,0x47,0x4d,0x08,0x3a,0x0a,0x40,0x6e,0x61,0x6d,0x65,0x49,0x22,0x0a,0x6b,0x69,0x6b,0x69,0x32,0x06,0x3a,0x06,0x45,0x54,0x3a,0x0c,0x40,0x76,0x6f,0x6c,0x75,0x6d,0x65,0x69,0x69,0x3a,0x0b,0x40,0x70,0x69,0x74,0x63,0x68,0x69,0x69))
   217()
   ShowMessageFace("byakunen_fc3",0,0,2,1)
   ShowMessage("\\n<Hakunen>")
   ShowMessage("あれ？　この像は……")
   If(0,4,0)
    ShowMessageFace("alice_fc5",2,0,2,2)
    ShowMessage("\\n<Alice>")
    ShowMessage("どうした、白念？")
    ShowMessage("何か見付けたのか……？")
    0()
   EndIf()
   If(0,5,0)
    ShowMessageFace("iriasu_fc4",7,0,2,3)
    ShowMessage("\\n<Ilias>")
    ShowMessage("どうしました、白念？")
    ShowMessage("何か見付けたのですか……？")
    0()
   EndIf()
   ShowMessageFace("byakunen_fc1",0,0,2,4)
   ShowMessage("\\n<Hakunen>")
   ShowMessage("少し気になって……えい！")
   ShowMessageFace("",0,0,2,5)
   ShowMessage("白念は、狐像の尻尾を踏みつけた！")
   205(0,bytes(0x04,0x08,0x6f,0x3a,0x13,0x52,0x50,0x47,0x3a,0x3a,0x4d,0x6f,0x76,0x65,0x52,0x6f,0x75,0x74,0x65,0x09,0x3a,0x0c,0x40,0x72,0x65,0x70,0x65,0x61,0x74,0x46,0x3a,0x0f,0x40,0x73,0x6b,0x69,0x70,0x70,0x61,0x62,0x6c,0x65,0x46,0x3a,0x0a,0x40,0x77,0x61,0x69,0x74,0x54,0x3a,0x0a,0x40,0x6c,0x69,0x73,0x74,0x5b,0x0b,0x6f,0x3a,0x15,0x52,0x50,0x47,0x3a,0x3a,0x4d,0x6f,0x76,0x65,0x43,0x6f,0x6d,0x6d,0x61,0x6e,0x64,0x07,0x3a,0x0a,0x40,0x63,0x6f,0x64,0x65,0x69,0x31,0x3a,0x10,0x40,0x70,0x61,0x72,0x61,0x6d,0x65,0x74,0x65,0x72,0x73,0x5b,0x06,0x6f,0x3a,0x0c,0x52,0x50,0x47,0x3a,0x3a,0x53,0x45,0x08,0x3a,0x0a,0x40,0x6e,0x61,0x6d,0x65,0x49,0x22,0x10,0x68,0x61,0x6e,0x64,0x2d,0x64,0x72,0x75,0x6d,0x30,0x31,0x06,0x3a,0x06,0x45,0x54,0x3a,0x0b,0x40,0x70,0x69,0x74,0x63,0x68,0x69,0x69,0x3a,0x0c,0x40,0x76,0x6f,0x6c,0x75,0x6d,0x65,0x69,0x69,0x6f,0x3b,0x0a,0x07,0x3b,0x0b,0x69,0x2e,0x3b,0x0c,0x5b,0x07,0x49,0x22,0x0d,0x24,0x53,0x48,0x52,0x49,0x46,0x54,0x34,0x06,0x3b,0x0f,0x54,0x69,0x00,0x6f,0x3b,0x0a,0x07,0x3b,0x0b,0x69,0x13,0x3b,0x0c,0x5b,0x07,0x69,0x00,0x69,0x00,0x6f,0x3b,0x0a,0x07,0x3b,0x0b,0x69,0x26,0x3b,0x0c,0x5b,0x00,0x6f,0x3b,0x0a,0x07,0x3b,0x0b,0x69,0x29,0x3b,0x0c,0x5b,0x00,0x6f,0x3b,0x0a,0x07,0x3b,0x0b,0x69,0x00,0x3b,0x0c,0x5b,0x00))
   ShowMessageFace("dakki_fc5",0,0,2,6)
   ShowMessage("\\n<Daji>")
   ShowMessage("むぎゃっ！！")
   ShowMessageFace("",0,0,2,7)
   ShowMessage("なんと、狐像の正体は妲己だった！")
   205(0,bytes(0x04,0x08,0x6f,0x3a,0x13,0x52,0x50,0x47,0x3a,0x3a,0x4d,0x6f,0x76,0x65,0x52,0x6f,0x75,0x74,0x65,0x09,0x3a,0x0c,0x40,0x72,0x65,0x70,0x65,0x61,0x74,0x46,0x3a,0x0f,0x40,0x73,0x6b,0x69,0x70,0x70,0x61,0x62,0x6c,0x65,0x46,0x3a,0x0a,0x40,0x77,0x61,0x69,0x74,0x54,0x3a,0x0a,0x40,0x6c,0x69,0x73,0x74,0x5b,0x07,0x6f,0x3a,0x15,0x52,0x50,0x47,0x3a,0x3a,0x4d,0x6f,0x76,0x65,0x43,0x6f,0x6d,0x6d,0x61,0x6e,0x64,0x07,0x3a,0x0a,0x40,0x63,0x6f,0x64,0x65,0x69,0x18,0x3a,0x10,0x40,0x70,0x61,0x72,0x61,0x6d,0x65,0x74,0x65,0x72,0x73,0x5b,0x00,0x6f,0x3b,0x0a,0x07,0x3b,0x0b,0x69,0x00,0x3b,0x0c,0x5b,0x00))
   241(bytes(0x04,0x08,0x6f,0x3a,0x0d,0x52,0x50,0x47,0x3a,0x3a,0x42,0x47,0x4d,0x08,0x3a,0x0a,0x40,0x6e,0x61,0x6d,0x65,0x49,0x22,0x0c,0x62,0x6f,0x73,0x73,0x30,0x2d,0x34,0x06,0x3a,0x06,0x45,0x54,0x3a,0x0c,0x40,0x76,0x6f,0x6c,0x75,0x6d,0x65,0x69,0x69,0x3a,0x0b,0x40,0x70,0x69,0x74,0x63,0x68,0x69,0x69))
   PictureDisplay(5,"80_dakki_st01",0,0,0,0,100,100,0,0)
   PictureMove(5,null,0,0,0,0,100,100,255,0,30,true)
   ShowMessageFace("dakki_fc1",0,0,2,8)
   ShowMessage("\\n<Daji>")
   ShowMessage("おのれ、なんと不遜な小僧よ！")
   ShowMessage("稲荷に対する敬意を知らぬか……！")
   ShowMessageFace("byakunen_fc2",4,0,2,9)
   ShowMessage("\\n<Hakunen>")
   ShowMessage("も、申し訳ありません……")
   ShowMessage("ですが、見付けましたよ！")
   ShowMessageFace("kazuya_fc2",3,0,2,10)
   ShowMessage("\\n<Kazuya>")
   ShowMessage("よくやった、白念くん！")
   ShowMessage("妲己、こんなところに隠れてたとはな！")
   ShowMessageFace("dakki_fc1",0,0,2,11)
   ShowMessage("\\n<Daji>")
   ShowMessage("ふん、『隠れていた』だと？")
   ShowMessage("妾はもとより、逃げも隠れもしておらぬわ。")
   ShowMessageFace("dakki_fc1",0,0,2,12)
   ShowMessage("\\n<Daji>")
   ShowMessage("おヌシらを襲う理由がなくなった今、")
   ShowMessage("この世界を、気ままに漫遊していたに過ぎぬ。")
   ShowMessageFace("dakki_fc1",0,0,2,13)
   ShowMessage("\\n<Daji>")
   ShowMessage("このまま村人の男どもを『つまみ食い』でもして")
   ShowMessage("ヌシらが去るまで、大人しくしようと思っていたが……")
   ShowMessageFace("dakki_fc1",0,0,2,14)
   ShowMessage("\\n<Daji>")
   ShowMessage("わざわざ妾の前に現れるのなら……")
   ShowMessage("取って食われても、文句はないな！？")
   ShowMessageFace("ruka_fc1",0,0,2,15)
   ShowMessage("\\n<Luka>")
   ShowMessage("これ以上、この世界を荒らさせはしない！")
   ShowMessage("行くぞ、妲己！！")
   ShowMessageFace("dakki_fc1",0,0,2,16)
   ShowMessage("\\n<Daji>")
   ShowMessage("ふん……返り討ちぞ！")
   ShowMessage("妾の力、存分に味わうが良い！！")
   SetBattleBGM(bytes(0x04,0x08,0x6f,0x3a,0x0d,0x52,0x50,0x47,0x3a,0x3a,0x42,0x47,0x4d,0x08,0x3a,0x0a,0x40,0x6e,0x61,0x6d,0x65,0x49,0x22,0x08,0x63,0x62,0x34,0x06,0x3a,0x06,0x45,0x54,0x3a,0x0c,0x40,0x76,0x6f,0x6c,0x75,0x6d,0x65,0x69,0x69,0x3a,0x0b,0x40,0x70,0x69,0x74,0x63,0x68,0x69,0x6e))
   Battle(0,1425,false,false)
   SetBattleBGM(bytes(0x04,0x08,0x6f,0x3a,0x0d,0x52,0x50,0x47,0x3a,0x3a,0x42,0x47,0x4d,0x08,0x3a,0x0a,0x40,0x6e,0x61,0x6d,0x65,0x49,0x22,0x0b,0x62,0x61,0x74,0x74,0x6c,0x65,0x06,0x3a,0x06,0x45,0x54,0x3a,0x0c,0x40,0x76,0x6f,0x6c,0x75,0x6d,0x65,0x69,0x69,0x3a,0x0b,0x40,0x70,0x69,0x74,0x63,0x68,0x69,0x69))
   241(bytes(0x04,0x08,0x6f,0x3a,0x0d,0x52,0x50,0x47,0x3a,0x3a,0x42,0x47,0x4d,0x08,0x3a,0x0a,0x40,0x6e,0x61,0x6d,0x65,0x49,0x22,0x14,0x73,0x63,0x65,0x6e,0x65,0x5f,0x65,0x70,0x69,0x6c,0x6f,0x67,0x75,0x65,0x32,0x06,0x3a,0x06,0x45,0x54,0x3a,0x0c,0x40,0x76,0x6f,0x6c,0x75,0x6d,0x65,0x69,0x69,0x3a,0x0b,0x40,0x70,0x69,0x74,0x63,0x68,0x69,0x69))
   314(0,0)
   ShowMessageFace("dakki_fc2",4,0,2,17)
   ShowMessage("\\n<Daji>")
   ShowMessage("おのれ、小癪な真似を……")
   ShowMessage("かくなる上は、本気の力を――")
   ShowMessageFace("kazuya_fc2",0,0,2,18)
   ShowMessage("\\n<Kazuya>")
   ShowMessage("もうやめろ、妲己……")
   ShowMessage("そんな三流ムーヴをするお前なんて見たくない。")
   ShowMessageFace("kazuya_fc2",0,0,2,19)
   ShowMessage("\\n<Kazuya>")
   ShowMessage("お前も元々、ここで暴れる気はないんだろ？")
   ShowMessage("そうじゃなきゃ、隠れていた説明がつかない。")
   ShowMessageFace("kazuya_fc2",0,0,2,20)
   ShowMessage("\\n<Kazuya>")
   ShowMessage("最高の欲望を求めるだけで、闘争は本意じゃない――")
   ShowMessage("……お前は、そういう悪魔だったはずだ。")
   ShowMessageFace("dakki_fc1",0,0,2,21)
   ShowMessage("\\n<Daji>")
   ShowMessage("クククッ……ヌシという男は……")
   ShowMessage("つくづく、癪に障る物言いをするヤツじゃな……")
   ShowMessageFace("dakki_fc1",0,0,2,22)
   ShowMessage("\\n<Daji>")
   ShowMessage("じゃが、確かにもう妾には策など無い。")
   ShowMessage("先の戦いとて、降りかかる火の粉を払ったまでよ……")
   If(0,4,0)
    ShowMessageFace("alice_fc5",2,0,2,23)
    ShowMessage("\\n<Alice>")
    ShowMessage("もう、この世界で事を起こす気はないようだな……")
    ShowMessage("かと言って、貴様ほどの存在を野放しには出来んぞ。")
    0()
   EndIf()
   If(0,5,0)
    ShowMessageFace("iriasu_fc4",7,0,2,24)
    ShowMessage("\\n<Ilias>")
    ShowMessage("もはや、この世界で事を起こす気はないようですが……")
    ShowMessage("かと言って、貴方を野放しには出来ませんよ。")
    0()
   EndIf()
   ShowMessageFace("dakki_fc1",0,0,2,25)
   ShowMessage("\\n<Daji>")
   ShowMessage("やれやれ、信用のないことよ……")
   ShowMessageFace("kazuya_fc2",0,0,2,26)
   ShowMessage("\\n<Kazuya>")
   ShowMessage("昔から散々に人を騙してきて、何が信用だよ……")
   ShowMessageFace("kazuya_fc2",0,0,2,27)
   ShowMessage("\\n<Kazuya>")
   ShowMessage("ともかく妲己、僕たちと一緒に来るんだ。")
   ShowMessage("僕たちも元々、討伐するためにここに来たんじゃない。")
   ShowMessageFace("kazuya_fc2",0,0,2,28)
   ShowMessage("\\n<Kazuya>")
   ShowMessage("僕や他の勇者が元の世界に帰る方法を探すためにも")
   ShowMessage("僕たちに力を貸してもらうぞ。")
   ShowMessageFace("dakki_fc1",0,0,2,29)
   ShowMessage("\\n<Daji>")
   ShowMessage("上から目線は気に入らぬが……まあ、よかろう。")
   ShowMessage("人の子らと久々に行動を共にするのも、また一興……")
   ShowMessageFace("dakki_fc1",0,0,2,30)
   ShowMessage("\\n<Daji>")
   ShowMessage("供を連れ、この世界を味わい尽くすとしようか……")
   ShowMessage("ククク、楽しみじゃのう……")
   PictureClear(5)
   205(0,bytes(0x04,0x08,0x6f,0x3a,0x13,0x52,0x50,0x47,0x3a,0x3a,0x4d,0x6f,0x76,0x65,0x52,0x6f,0x75,0x74,0x65,0x09,0x3a,0x0c,0x40,0x72,0x65,0x70,0x65,0x61,0x74,0x46,0x3a,0x0f,0x40,0x73,0x6b,0x69,0x70,0x70,0x61,0x62,0x6c,0x65,0x46,0x3a,0x0a,0x40,0x77,0x61,0x69,0x74,0x54,0x3a,0x0a,0x40,0x6c,0x69,0x73,0x74,0x5b,0x09,0x6f,0x3a,0x15,0x52,0x50,0x47,0x3a,0x3a,0x4d,0x6f,0x76,0x65,0x43,0x6f,0x6d,0x6d,0x61,0x6e,0x64,0x07,0x3a,0x0a,0x40,0x63,0x6f,0x64,0x65,0x69,0x2a,0x3a,0x10,0x40,0x70,0x61,0x72,0x61,0x6d,0x65,0x74,0x65,0x72,0x73,0x5b,0x00,0x6f,0x3b,0x0a,0x07,0x3b,0x0b,0x69,0x0f,0x3b,0x0c,0x5b,0x00,0x6f,0x3b,0x0a,0x07,0x3b,0x0b,0x69,0x2c,0x3b,0x0c,0x5b,0x00,0x6f,0x3b,0x0a,0x07,0x3b,0x0b,0x69,0x00,0x3b,0x0c,0x5b,0x00))
   355("add_actor_ex(818)")
   249(bytes(0x04,0x08,0x6f,0x3a,0x0c,0x52,0x50,0x47,0x3a,0x3a,0x4d,0x45,0x08,0x3a,0x0a,0x40,0x6e,0x61,0x6d,0x65,0x49,0x22,0x0c,0x66,0x61,0x6e,0x66,0x61,0x6c,0x65,0x06,0x3a,0x06,0x45,0x54,0x3a,0x0b,0x40,0x70,0x69,0x74,0x63,0x68,0x69,0x69,0x3a,0x0c,0x40,0x76,0x6f,0x6c,0x75,0x6d,0x65,0x69,0x69))
   ShowMessageFace("",0,0,2,31)
   ShowMessage("妲己が仲間に加わった！")
   ChangeVariable(1217,1217,0,0,4)
   Wait(60)
   ShowMessageFace("kazuya_fc2",0,0,2,32)
   ShowMessage("\\n<Kazuya>")
   ShowMessage("ところで妲己……")
   ShowMessage("躯の設計図をこの世界に持ち込んだのは、お前だろう。")
   ShowMessageFace("mukuro_fc1",3,0,2,33)
   ShowMessage("\\n<Mukuro>")
   ShowMessage("…………！")
   ShowMessageFace("dakki_fc1",0,0,2,34)
   ShowMessage("\\n<Daji>")
   ShowMessage("うむ、確かに妾の所行よ。")
   ShowMessageFace("dakki_fc1",0,0,2,35)
   ShowMessage("\\n<Daji>")
   ShowMessage("この世界に来て間もなく、")
   ShowMessage("黒のアリスなる者の一派が接触してきてな……")
   If(0,4,0)
    ShowMessageFace("alice_fc6",0,0,2,36)
    ShowMessage("\\n<Alice>")
    ShowMessage("黒のアリス……！")
    ShowMessage("同盟者にまで、手を伸ばしていたというのか。")
    0()
   EndIf()
   If(0,5,0)
    ShowMessageFace("iriasu_fc4",7,0,2,37)
    ShowMessage("\\n<Ilias>")
    ShowMessage("黒のアリス……！")
    ShowMessage("同盟者にまで、手を伸ばしていたというのですか。")
    0()
   EndIf()
   ShowMessageFace("dakki_fc1",0,0,2,38)
   ShowMessage("\\n<Daji>")
   ShowMessage("妾は、様々な物品をこの世界に持ち込んでいた。")
   ShowMessage("交渉や、手土産の手段に使えると思ってな。")
   ShowMessageFace("dakki_fc1",0,0,2,39)
   ShowMessage("\\n<Daji>")
   ShowMessage("連中にも、好きなものをくれてやると言ったのじゃが……")
   ShowMessage("あの設計図を見せた途端、目の色を変えおったわ。")
   ShowMessageFace("kazuya_fc2",0,0,2,40)
   ShowMessage("\\n<Kazuya>")
   ShowMessage("……それで、影紬に設計図を渡したんだな。")
   ShowMessageFace("dakki_fc1",0,0,2,41)
   ShowMessage("\\n<Daji>")
   ShowMessage("引き替えに妾は、この世界の情報を得た。")
   ShowMessage("しかる後に白兎と成り代わり、暗躍していたという訳よ。")
   ShowMessageFace("kazuya_fc4",7,0,2,42)
   ShowMessage("\\n<Kazuya>")
   ShowMessage("なるほど……話は分かった。")
   ShowMessage("まったく、ろくでもない事を……")
   ShowMessageFace("",0,0,2,43)
   ShowMessage("おかげで、影紬により躯が量産されるという事態になったのだ。")
   ShowMessage("何のためにそんな事をしたのか、釈然としないが――")
   ShowMessageFace("sonia_fc1",0,0,2,44)
   ShowMessage("\\n<Sonya>")
   ShowMessage("……ねぇ、村長さんに報告しに行かない？")
   ShowMessage("すごく心配してたみたいだし……")
   ShowMessageFace("ruka_fc1",0,0,2,45)
   ShowMessage("\\n<Luka>")
   ShowMessage("確かに、そうしてあげた方が良いね。")
   ShowMessage("もう大丈夫だって、村長に伝えてあげよう。")
   ShowMessageFace("",0,0,2,46)
   ShowMessage("妲己は捕まえたから、もう恐れる事はない――")
   ShowMessage("そう、村長に知らせてあげなければ。")
   241(bytes(0x04,0x08,0x6f,0x3a,0x0d,0x52,0x50,0x47,0x3a,0x3a,0x42,0x47,0x4d,0x08,0x3a,0x0a,0x40,0x6e,0x61,0x6d,0x65,0x49,0x22,0x0a,0x6d,0x75,0x72,0x61,0x37,0x06,0x3a,0x06,0x45,0x54,0x3a,0x0c,0x40,0x76,0x6f,0x6c,0x75,0x6d,0x65,0x69,0x69,0x3a,0x0b,0x40,0x70,0x69,0x74,0x63,0x68,0x69,0x69))
   EndEventProcessing()
   0()
  Else()
   ShowMessageFace("",0,0,2,47)
   ShowMessage("\\n<狐像>")
   ShowMessage("……………………")
   EndEventProcessing()
   0()
  EndIf()
  0()
 PAGE   2
  // condition: variable 1217 >= 4
  0()