﻿


EVENT   1
 PAGE   1
  ChangeSwitch(31,31,1)
  250(bytes(0x04,0x08,0x6f,0x3a,0x0c,0x52,0x50,0x47,0x3a,0x3a,0x53,0x45,0x08,0x3a,0x0a,0x40,0x6e,0x61,0x6d,0x65,0x49,0x22,0x09,0x4d,0x6f,0x76,0x65,0x06,0x3a,0x06,0x45,0x54,0x3a,0x0b,0x40,0x70,0x69,0x74,0x63,0x68,0x69,0x69,0x3a,0x0c,0x40,0x76,0x6f,0x6c,0x75,0x6d,0x65,0x69,0x55))
  TeleportPlayer(0,861,43,173,0,0)
  0()



EVENT   2
 PAGE   1
  250(bytes(0x04,0x08,0x6f,0x3a,0x0c,0x52,0x50,0x47,0x3a,0x3a,0x53,0x45,0x08,0x3a,0x0a,0x40,0x6e,0x61,0x6d,0x65,0x49,0x22,0x09,0x4d,0x6f,0x76,0x65,0x06,0x3a,0x06,0x45,0x54,0x3a,0x0b,0x40,0x70,0x69,0x74,0x63,0x68,0x69,0x69,0x3a,0x0c,0x40,0x76,0x6f,0x6c,0x75,0x6d,0x65,0x69,0x55))
  TeleportPlayer(0,861,9,207,0,0)
  0()



EVENT   3
 PAGE   1
  // condition: switch 4 is ON
  // condition: switch 31 is ON
  0()
 PAGE   2
  // condition: switch 5 is ON
  // condition: switch 31 is ON
  0()



EVENT   4
 PAGE   1
  // condition: switch 4 is ON
  // condition: switch 31 is ON
  0()
 PAGE   2
  // condition: switch 5 is ON
  // condition: switch 31 is ON
  0()



EVENT   5
 PAGE   1
  // condition: switch 31 is ON
  0()



EVENT   6
 PAGE   1
  // condition: switch 31 is ON
  0()



EVENT   7
 PAGE   1
  // condition: switch 31 is ON
  0()



EVENT   8
 PAGE   1
  // condition: switch 31 is ON
  0()



EVENT   9
 PAGE   1
  // condition: switch 31 is ON
  0()



EVENT   10
 PAGE   1
  // condition: switch 31 is ON
  0()



EVENT   11
 PAGE   1
  // condition: switch 31 is ON
  0()



EVENT   12
 PAGE   1
  // condition: switch 31 is ON
  0()



EVENT   13
 PAGE   1
  // condition: switch 31 is ON
  0()



EVENT   14
 PAGE   1
  241(bytes(0x04,0x08,0x6f,0x3a,0x0d,0x52,0x50,0x47,0x3a,0x3a,0x42,0x47,0x4d,0x08,0x3a,0x0a,0x40,0x6e,0x61,0x6d,0x65,0x49,0x22,0x0a,0x6b,0x69,0x6b,0x69,0x32,0x06,0x3a,0x06,0x45,0x54,0x3a,0x0c,0x40,0x76,0x6f,0x6c,0x75,0x6d,0x65,0x69,0x69,0x3a,0x0b,0x40,0x70,0x69,0x74,0x63,0x68,0x69,0x69))
  ScrollMap(8,3,4)
  205(3,bytes(0x04,0x08,0x6f,0x3a,0x13,0x52,0x50,0x47,0x3a,0x3a,0x4d,0x6f,0x76,0x65,0x52,0x6f,0x75,0x74,0x65,0x09,0x3a,0x0c,0x40,0x72,0x65,0x70,0x65,0x61,0x74,0x46,0x3a,0x0f,0x40,0x73,0x6b,0x69,0x70,0x70,0x61,0x62,0x6c,0x65,0x46,0x3a,0x0a,0x40,0x77,0x61,0x69,0x74,0x54,0x3a,0x0a,0x40,0x6c,0x69,0x73,0x74,0x5b,0x07,0x6f,0x3a,0x15,0x52,0x50,0x47,0x3a,0x3a,0x4d,0x6f,0x76,0x65,0x43,0x6f,0x6d,0x6d,0x61,0x6e,0x64,0x07,0x3a,0x0a,0x40,0x63,0x6f,0x64,0x65,0x69,0x06,0x3a,0x10,0x40,0x70,0x61,0x72,0x61,0x6d,0x65,0x74,0x65,0x72,0x73,0x5b,0x00,0x6f,0x3b,0x0a,0x07,0x3b,0x0b,0x69,0x00,0x3b,0x0c,0x5b,0x00))
  If(0,4,0)
   ShowMessageFace("alice_fc5",3,0,2,1)
   ShowMessage("\\n<Alice>")
   ShowMessage("さ、流石に骨が折れたな……")
   ShowMessage("ではルカ……本番を……")
   0()
  EndIf()
  If(0,5,0)
   ShowMessageFace("iriasu_fc4",2,0,2,2)
   ShowMessage("\\n<Ilias>")
   ShowMessage("さ、流石に骨が折れました……")
   ShowMessage("ではルカ……本番を……")
   0()
  EndIf()
  ShowMessageFace("rejeo_fc1",1,0,2,3)
  ShowMessage("\\n<Rigeo>")
  ShowMessage("あの……扉、壊れてるんだけど。")
  If(0,4,0)
   ShowMessageFace("alice_fc5",6,0,2,4)
   ShowMessage("\\n<Alice>")
   ShowMessage("な……なんだと！？")
   0()
  EndIf()
  If(0,5,0)
   ShowMessageFace("iriasu_fc4",5,0,2,5)
   ShowMessage("\\n<Ilias>")
   ShowMessage("な……なんですって……！？")
   0()
  EndIf()
  ShowMessageFace("kazuya_fc2",2,0,2,6)
  ShowMessage("\\n<Kazuya>")
  ShowMessage("セックスしなくても出られるなんて……")
  ShowMessage("流石に、これほどの破壊は想定してないみたいだな。")
  If(0,4,0)
   ShowMessageFace("alice_fc5",0,0,2,7)
   ShowMessage("\\n<Alice>")
   ShowMessage("そ、そうか……")
   ShowMessageFace("alice_fc5",3,0,2,8)
   ShowMessage("\\n<Alice>")
   ShowMessage("……………………")
   0()
  EndIf()
  If(0,5,0)
   ShowMessageFace("iriasu_fc4",2,0,2,9)
   ShowMessage("\\n<Ilias>")
   ShowMessage("そ、そうですか……")
   ShowMessageFace("iriasu_fc4",2,0,2,10)
   ShowMessage("\\n<Ilias>")
   ShowMessage("……………………")
   0()
  EndIf()
  ShowMessageFace("magatu_fc1",0,0,2,11)
  ShowMessage("\\n<Magatsu>")
  ShowMessage("残念か……？")
  If(0,4,0)
   ShowMessageFace("alice_fc6",1,0,2,12)
   ShowMessage("\\n<Alice>")
   ShowMessage("べ、別に残念ではないわ！")
   0()
  EndIf()
  If(0,5,0)
   ShowMessageFace("iriasu_fc5",0,0,2,13)
   ShowMessage("\\n<Ilias>")
   ShowMessage("べ、別に残念ではありません！")
   0()
  EndIf()
  ShowMessageFace("ruka_fc1",0,0,2,14)
  ShowMessage("\\n<Luka>")
  ShowMessage("と、とにかく……")
  ShowMessage("これで第六の試練もクリアだね！")
  ShowMessageFace("myuska_fc1",5,0,2,15)
  ShowMessage("\\n<Myusca>")
  ShowMessage("ちょっと、マジ最悪～！")
  ShowMessage("仕掛けを無視して、部屋を壊すとかありえなくない？")
  ShowMessageFace("myuska_fc1",5,0,2,16)
  ShowMessage("\\n<Myusca>")
  ShowMessage("キミ達、なんだかインチキばっかりだしぃ……")
  ShowMessage("それでも、本当に勇者ぁ？")
  If(0,4,0)
   ShowMessageFace("alice_fc5",6,0,2,17)
   ShowMessage("\\n<Alice>")
   ShowMessage("今回ばかりは、わざとではない！")
   ShowMessage("これくらいで壊れる部屋を作るな！")
   0()
  EndIf()
  If(0,5,0)
   ShowMessageFace("iriasu_fc5",0,0,2,18)
   ShowMessage("\\n<Ilias>")
   ShowMessage("今回ばかりは、わざとではありません！")
   ShowMessage("これくらいで壊れる部屋を作る方がいけないのです！")
   0()
  EndIf()
  ShowMessageFace("myuska_fc1",5,0,2,19)
  ShowMessage("\\n<Myusca>")
  ShowMessage("こっちのせいにしないで欲しいんですけどー。")
  ShowMessageFace("myuska_fc1",5,0,2,20)
  ShowMessage("\\n<Myusca>")
  ShowMessage("あー、もういいや。")
  ShowMessage("次の部屋でその分お返しするから。")
  ShowMessageFace("",0,0,2,21)
  ShowMessage("ミュスカからの交信は途絶えた……")
  ShowMessageFace("rovissa_fc1",0,0,2,22)
  ShowMessage("\\n<Rovissa>")
  ShowMessage("次はいよいよ、最後の試練ね……")
  ShowMessageFace("rejeo_fc1",0,0,2,23)
  ShowMessage("\\n<Rigeo>")
  ShowMessage("あれ……いつの間に戻ってきたの？")
  ShowMessageFace("rovissa_fc1",0,0,2,24)
  ShowMessage("\\n<Rovissa>")
  ShowMessage("さっき、どさくさに紛れて……")
  ShowMessage("……そんなの、今はどうでもいいでしょ！")
  If(0,4,0)
   ShowMessageFace("alice_fc5",2,0,2,25)
   ShowMessage("\\n<Alice>")
   ShowMessage("ともかく、もうセックス部屋はあるまい。")
   ShowMessage("次こそ向こうも勝負を仕掛けてくるだろうな。")
   0()
  EndIf()
  If(0,5,0)
   ShowMessageFace("iriasu_fc4",7,0,2,26)
   ShowMessage("\\n<Ilias>")
   ShowMessage("ともかく、もうセックス部屋はないでしょう。")
   ShowMessage("次こそ向こうも勝負を仕掛けてくるはずです。")
   0()
  EndIf()
  ShowMessageFace("ruka_fc1",0,0,2,27)
  ShowMessage("\\n<Luka>")
  ShowMessage("気合いを入れないとね……")
  ShowMessage("さあ、行こう！")
  Wait(60)
  221()
  ChangeVariable(1214,1214,0,0,8)
  ChangeSwitch(31,31,1)
  Wait(60)
  TeleportPlayer(0,949,8,13,0,2)
  222()
  241(bytes(0x04,0x08,0x6f,0x3a,0x0d,0x52,0x50,0x47,0x3a,0x3a,0x42,0x47,0x4d,0x08,0x3a,0x0a,0x40,0x6e,0x61,0x6d,0x65,0x49,0x22,0x16,0x64,0x75,0x6e,0x67,0x65,0x6f,0x6e,0x5f,0x74,0x61,0x72,0x75,0x74,0x61,0x72,0x6f,0x31,0x06,0x3a,0x06,0x45,0x54,0x3a,0x0c,0x40,0x76,0x6f,0x6c,0x75,0x6d,0x65,0x69,0x69,0x3a,0x0b,0x40,0x70,0x69,0x74,0x63,0x68,0x69,0x69))
  EndEventProcessing()
  0()
 PAGE   2
  // condition: variable 1214 >= 8
  0()
